{[ 0 ] [ 0.0 , 0.0 , 0.0 ] ( 0 ) [1s, 0.0 , 0.0 , 0.0 , 0 , 5] ( 1 ) [1s, 0.0 , 0.0 , 1.0 , 0 , 5] ( 2 ) [2s, 0.0 , 0.0 , 0.0 , 1 , 5] ( 3 ) [2s, 0.0 , 0.0 , 1.0 , 1 , 5] }
{[ 1 ] [ 0.0 , 0.0 , 1.0 ] ( 1 ) [1s, 0.0 , 0.0 , 1.0 , 0 , 5] ( 0 ) [1s, 0.0 , 0.0 , 0.0 , 0 , 5] ( 2 ) [2s, 0.0 , 0.0 , 0.0 , 1 , 5] ( 3 ) [2s, 0.0 , 0.0 , 1.0 , 1 , 5]}
{[ 2 ] [ 0.0 , 0.0 , 1.0 ] ( 0 ) [1s, 0.0 , 0.0 , 0.0 , 0 , 5] ( 1 ) [1s, 0.0 , 0.0 , 1.0 , 0 , 5] ( 3 ) [2s, 0.0 , 0.0 , 1.0 , 1 , 5] ( 2 ) [2s, 0.0 , 0.0 , 0.0 , 1 , 5]}
{[ 3 ] [ 0.0 , 0.0 , 0.0 ] ( 1 ) [1s, 0.0 , 0.0 , 1.0 , 0 , 5] ( 0 ) [1s, 0.0 , 0.0 , 0.0 , 0 , 5] ( 3 ) [2s, 0.0 , 0.0 , 1.0 , 1 , 5] ( 2 ) [2s, 0.0 , 0.0 , 0.0 , 1 , 5]}




< 0 , 0 , 1 >
< 0 , 1 , 0 >
< 1 , 0 , 0 >
< 0 , 1 , 0 >


open_betas
1.0 , 0.5, 0.0, 0.0
close_betas


open_atomic_numbers
2 , 2 
close_atomic_numbers
