0.01 1.6 97.16 1.6 97.1642
0.2095 1.6 2.02639 1.6 2.02745
0.409 1.5 -0.126016 1.5 -0.124991
0.6085 1.5 -0.74835 1.4 -0.747321
0.808 1.4 -0.993873 1.4 -0.992846
1.0075 1.3 -1.09745 1.3 -1.0964
1.207 1.2 -1.13569 1.2 -1.13467
1.4065 1.2 -1.14843 1.2 -1.14735
1.606 1.2 -1.14199 1.2 -1.14087
1.8055 1.1 -1.13126 1.1 -1.13026
2.005 1.1 -1.1164 1.1 -1.11548
2.2045 1.1 -1.09916 1.1 -1.09843
2.404 1 -1.08168 1 -1.0812
2.6035 1 -1.06816 1 -1.06806
2.803 1 -1.05554 1 -1.05593
3.0025 1 -1.04427 1 -1.04527
3.202 1 -1.03457 1 -1.03626
3.4015 1 -1.02648 1 -1.0289
