0.1 2.11266 1.55578 14.309
0.15 2.08574 1.54476 7.70547
0.2 2.04015 1.52525 4.44833
0.25 2.01475 1.51804 2.53307
0.3 1.45593 1.85897 1.29436
0.35 1.43789 1.82266 0.434236
0.4 1.89307 1.45604 -0.189861
0.45 1.84966 1.43376 -0.651474
0.5 1.80844 1.41884 -1.00298
0.55 1.77005 1.40463 -1.27529
0.6 1.36855 1.65273 -1.48773
0.65 1.33586 1.60955 -1.65761
0.7 1.33547 1.60806 -1.79337
0.75 1.31812 1.5863 -1.90236
0.8 1.30427 1.54496 -1.99024
0.85 1.55498 1.29299 -2.06037
0.9 1.51198 1.27573 -2.11719
0.95 1.25698 1.46481 -2.16407
1 1.23897 1.43099 -2.20077
1.025 1.23774 1.4266 -2.21617
1.05 1.22946 1.40473 -2.22985
1.075 1.22653 1.40276 -2.24196
1.1 1.21208 1.39247 -2.25263
1.125 1.20493 1.37333 -2.262
1.15 1.20326 1.36286 -2.27016
1.175 1.19073 1.34695 -2.27723
1.2 1.19165 1.34884 -2.2833
1.225 1.18559 1.33884 -2.28844
1.25 1.16946 1.31282 -2.29275
1.275 1.16665 1.31699 -2.29628
1.3 1.16152 1.29708 -2.29911
1.325 1.14879 1.28758 -2.30129
1.35 1.14449 1.27831 -2.30287
1.375 1.13647 1.27158 -2.30391
1.4 1.13614 1.25771 -2.30445
1.425 1.12734 1.25446 -2.30453
1.45 1.12157 1.24157 -2.30419
1.475 1.1157 1.23979 -2.30346
1.5 1.11605 1.22689 -2.30237
1.525 1.1069 1.2259 -2.30097
1.55 1.09473 1.20241 -2.29927
1.575 1.09098 1.20114 -2.2973
1.6 1.09124 1.19925 -2.29509
1.625 1.08372 1.18052 -2.29265
1.65 1.07106 1.16907 -2.29
1.675 1.07262 1.16481 -2.28717
1.7 1.06646 1.16169 -2.28417
1.725 1.0544 1.15369 -2.28101
1.75 1.05004 1.14351 -2.27773
1.775 1.04671 1.13545 -2.27432
1.8 1.03979 1.13213 -2.27079
1.825 1.03913 1.12679 -2.26717
1.85 1.02969 1.11411 -2.26346
1.875 1.03187 1.10594 -2.25967
1.9 1.02723 1.1061 -2.25581
1.925 1.01704 1.09281 -2.2519
1.95 1.01253 1.08431 -2.24793
1.975 1.01369 1.08838 -2.24392
2 1.00471 1.08256 -2.23987
2.05 1.00314 1.07285 -2.23171
2.1 0.98908 1.05842 -2.22348
2.15 0.981923 1.04561 -2.21522
2.2 0.986899 1.04682 -2.20698
2.25 0.974318 1.03293 -2.19879
2.3 0.966043 1.02593 -2.19066
2.35 0.962746 1.01235 -2.18264
2.4 0.964834 1.01104 -2.17474
2.45 0.961013 1.00268 -2.16698
2.5 0.954599 1.00556 -2.15938
2.55 0.961019 1.00339 -2.15194
2.6 0.94932 0.983928 -2.14469
2.65 0.951198 0.986969 -2.13764
2.7 0.948581 0.990332 -2.13077
2.75 0.94959 0.986755 -2.12412
2.8 0.957174 0.977828 -2.11768
2.85 0.957174 0.977828 -2.11145
2.9 0.953126 0.977059 -2.10545
2.95 0.952418 0.974463 -2.09966
3 0.950266 0.971006 -2.0941
3.05 0.95778 0.974099 -2.08876
3.1 0.962927 0.970816 -2.08363
3.15 0.962927 0.970816 -2.07873
3.2 0.963141 0.965673 -2.07404
3.25 0.963141 0.965673 -2.06956
3.3 0.970726 0.951844 -2.0653
3.35 0.980534 0.932111 -2.06123
3.4 0.97381 0.936935 -2.05737
3.45 0.97381 0.936935 -2.05369
3.5 0.97381 0.936935 -2.05021
3.55 0.999943 0.868147 -2.04692
3.6 1.00512 0.812198 -2.04381
3.65 1.00813 0.792476 -2.04086
3.7 1.00635 0.769821 -2.03808
3.75 1.00744 0.757678 -2.03545
3.8 1.00678 0.759909 -2.03298
3.85 1.00637 0.742151 -2.03064
3.9 1.00691 0.727628 -2.02845
3.95 1.00739 0.721708 -2.02639
4 1.00647 0.715237 -2.02445
4.05 1.00713 0.699549 -2.02264
4.1 1.00636 0.686433 -2.02094
4.15 1.00624 0.674767 -2.01934
4.2 1.006 0.665532 -2.01785
4.25 1.00669 0.668001 -2.01646
4.3 1.00632 0.64684 -2.01516
4.35 1.00703 0.639999 -2.01394
4.4 1.00656 0.633883 -2.01281
4.45 0.973579 0.934777 -2.01168
4.5 0.973579 0.934777 -2.0107
4.55 0.96869 0.9391 -2.00978
4.6 0.968164 0.952051 -2.00893
4.65 0.968164 0.952051 -2.00814
4.7 0.968164 0.952051 -2.0074
4.75 0.968164 0.952051 -2.00672
4.8 0.968164 0.952051 -2.00609
4.85 0.968164 0.952051 -2.0055
4.9 0.968164 0.952051 -2.00495
4.95 0.968164 0.952051 -2.00445
5 0.968164 0.952051 -2.00398
5.05 0.968164 0.952051 -2.00354
5.1 0.968164 0.952051 -2.00314
5.15 0.968164 0.952051 -2.00277
5.2 0.968164 0.952051 -2.00243
5.25 0.968164 0.952051 -2.00211
5.3 0.968164 0.952051 -2.00182
5.35 0.968164 0.952051 -2.00155
5.4 0.968164 0.952051 -2.00129
5.45 0.968164 0.952051 -2.00106
5.5 0.968164 0.952051 -2.00085
5.55 0.968164 0.952051 -2.00065
5.6 0.968164 0.952051 -2.00047
5.65 0.968164 0.952051 -2.0003
5.7 0.968164 0.952051 -2.00015
5.75 0.971575 0.951961 -2
5.8 0.971575 0.951961 -1.99987
5.85 0.971575 0.951961 -1.99975
5.9 0.971575 0.951961 -1.99964
5.95 0.971575 0.951961 -1.99954
6 0.971575 0.951961 -1.99944
6.05 0.963623 0.950131 -1.99935
