one_body
0cup,	0aup,	 1.0,	0,	(0,  0,  0,  0),	(0,  0,  0,  0);
0cdown,	0adown,	 1.0,	0,	(0,  0,  0,  0),	(0,  0,  0,  0);
0cup,	1aup,	 1.0,	1,	(0,  0,  0,  0),	(0,  0,  1.0,  1);
0cdown,	1adown,	 1.0,	1,	(0,  0,  0,  0),	(0,  0,  1.0,  1);
1cup,	0aup,	 1.0,	1,	(0,  0,  1.0,  1),	(0,  0,  0,  0);
1cdown,	0adown,	 1.0,	1,	(0,  0,  1.0,  1),	(0,  0,  0,  0);
1cup,	1aup,	 1.0,	0,	(0,  0,  1,  1),	(0,  0,  1,  1);
1cdown,	1adown,	 1.0,	0,	(0,  0,  1,  1),	(0,  0,  1,  1);
end_one_body

two_body
0cup,	0cdown,	0adown,	0aup,	 0.5,	0,	(0.0,  0.0,  0.0,  0),	(0.0,  0.0,  0.0,0),	(0.0,  0.0,  0.0,  0),	(0.0,  0.0,  0.0,  0);
0cdown,	0cup,	0aup,	0adown,	 0.5,	0,	(0,  0,  0,  0),	(0,  0,  0,  0),	(0,  0,  0,  0),	(0,  0,  0,  0);
1cup,	1cdown,	1adown,	1aup,	 0.5,	0,	(0,  0,  1,  1),	(0,  0,  1,  1),	(0,  0,  1,  1),	(0,  0,  1,  1);
1cdown,	1cup,	1aup,	1adown,	 0.5,	0,	(0,  0,  1,  1),	(0,  0,  1,  1),	(0,  0,  1,  1),	(0,  0,  1,  1);


0cup,	1cup,	1aup,	0aup,	 0.5,	1,	(0,  0,  0,  0),	(0,  0,  1,  1),	(0,  0,  0,  0),	(0,  0,  1,  1);
0cup,	1cdown,	1adown,	0aup,	 0.5,	1,	(0,  0,  0,  0),	(0,  0,  1,  1),	(0,  0,  0,  0),	(0,  0,  1,  1);
0cdown,	1cup,	1aup,	0adown,	 0.5,	1,	(0,  0,  0,  0),	(0,  0,  1,  1),	(0,  0,  0,  0),	(0,  0,  1,  1);
0cdown,	1cdown,	1adown,	0adown,	 0.5,	1,	(0,  0,  0,  0),	(0,  0,  1,  1),	(0,  0,  0,  0),	(0,  0,  1,  1);
1cup,	0cup,	0aup,	1aup,	 0.5,	1,	(0,  0,  1,  1),	(0,  0,  0,  0),	(0,  0,  1,  1),	(0,  0,  0,  0);
1cup,	0cdown,	0adown,	1aup,	 0.5,	1,	(0,  0,  1,  1),	(0,  0,  0,  0),	(0,  0,  1,  1),	(0,  0,  0,  0);
1cdown,	0cup,	0aup,	1adown,	 0.5,	1,	(0,  0,  1,  1),	(0,  0,  0,  0),	(0,  0,  1,  1),	(0,  0,  0,  0);
1cdown,	0cdown,	0adown,	1adown,	 0.5,	1,	(0,  0,  1,  1),	(0,  0,  0,  0),	(0,  0,  1,  1),	(0,  0,  0,  0);



1cdown,	0cup,	0aup,	0adown,	 0.5,	2,	(0,  0,  1,  1),	(0,  0,  0,  0),	(0,  0,  0,  0),	(0,  0,  0,  0);
1cup,	0cdown,	0adown,	0aup,	 0.5,	2,	(0,  0,  1,  1),	(0,  0,  0,  0),	(0,  0,  0,  0),	(0,  0,  0,  0);
0cdown,	1cup,	1aup,	1adown,	 0.5,	2,	(0,  0,  0,  0),	(0,  0,  1,  1),	(0,  0,  1,  1),	(0,  0,  1,  1);
0cup,	1cdown,	1adown,	1aup,	 0.5,	2,	(0,  0,  0,  0),	(0,  0,  1,  1),	(0,  0,  1,  1),	(0,  0,  1,  1);



0cdown,	0cup,	0aup,	1adown,	 0.5,	2,	(0,  0,  1,  1),	(0,  0,  0,  0),	(0,  0,  1,  1),	(0,  0,  0,  0);
0cup,	0cdown,	0adown,	1aup,	 0.5,	2,	(0,  0,  1,  1),	(0,  0,  0,  0),	(0,  0,  1,  1),	(0,  0,  0,  0);

1cdown,	1cup,	1aup,	0adown,	 0.5,	2,	(0,  0,  1,  1),	(0,  0,  0,  0),	(0,  0,  1,  1),	(0,  0,  0,  0);
1cup,	1cdown,	1adown,	0aup,	 0.5,	2,	(0,  0,  1,  1),	(0,  0,  0,  0),	(0,  0,  1,  1),	(0,  0,  0,  0);

0cup,	0cdown,	1adown,	0aup,	 0.5,	2,	(0,  0,  0,  0),	(0,  0,  0,  0),	(0,  0,  0,  0),	(0,  0,  1,  1);
0cdown,	0cup,	1aup,	0adown,	 0.5,	2,	(0,  0,  0,  0),	(0,  0,  0,  0),	(0,  0,  0,  0),	(0,  0,  1,  1);

0cup,	1cdown,	0adown,	0aup,	 0.5,	2,	(0,  0,  1,  1),	(0,  0,  0,  0),	(0,  0,  0,  0),	(0,  0,  0,  0);
0cdown,	1cup,	0aup,	0adown,	 0.5,	2,	(0,  0,  1,  1),	(0,  0,  0,  0),	(0,  0,  0,  0),	(0,  0,  0,  0);



0cup,	1cup,	0aup,	1aup,	 0.5,	3,	(0,  0,  0,  0),	(0,  0,  1,  1),	(0,  0,  1,  1),	(0,  0,  0,  0);
0cdown,	1cdown,	0adown,	1adown,	 0.5,	3,	(0,  0,  0,  0),	(0,  0,  1,  1),	(0,  0,  1,  1),	(0,  0,  0,  0);
1cup,	0cup,	1aup,	0aup,	 0.5,	3,	(0,  0,  1,  1),	(0,  0,  0,  0),	(0,  0,  0,  0),	(0,  0,  1,  1);
1cdown,	0cdown,	1adown,	0adown,	 0.5,	3,	(0,  0,  1,  1),	(0,  0,  0,  0),	(0,  0,  0,  0),	(0,  0,  1,  1);
0cup,	1cdown,	0adown,	1aup,	 0.5,	3,	(0,  0,  0,  0),	(0,  0,  1,  1),	(0,  0,  1,  1),	(0,  0,  0,  0);
0cdown,	1cup,	0aup,	1adown,	 0.5,	3,	(0,  0,  0,  0),	(0,  0,  1,  1),	(0,  0,  1,  1),	(0,  0,  0,  0);
1cup,	0cdown,	1adown,	0aup,	 0.5,	3,	(1,  1,  0,  0),	(0,  0,  0,  0),	(0,  0,  0,  0),	(0,  0,  1,  1);
1cdown,	0cup,	1aup,	0adown,	 0.5,	3,	(1,  1,  0,  0),	(0,  0,  0,  0),	(0,  0,  0,  0),	(0,  0,  1,  1);
end_two_body
4
