#ITER
#calculating gradient
#Get energy for R=0.1
#1.1 1.1
#start VMC
#energy: -211.637 -231.637
#Get energy for R=0.1
#1.101 1.1
#start VMC
#energy: -107.269 -127.269
#Get energy for R=0.1
#1.1 1.101
#start VMC
#energy: -51.8264 -71.8264
#length of grad(E) = 3.64319e+10
##energy E = -211.637
#1.1 1.1 
#ITER
#calculating gradient
#Get energy for R=0.1
#0.5 0.5
#start VMC
#energy: 17.1541 -2.8459
#Get energy for R=0.1
#0.501 0.5
#start VMC
#energy: 17.154 -2.84598
#Get energy for R=0.1
#0.5 0.501
#start VMC
#energy: 17.1507 -2.84935
#length of grad(E) = 11.9143
##energy E = 17.1541
#0.5 0.5 
#ITER
#calculating gradient
#Get energy for R=0.1
#0.584516 2.5
#start VMC
