0.1 2.05555 1.48581 1.93014 14.2981
0.166667 2.06576 1.53971 2.47877 6.38279
0.233333 2.01633 1.51827 2.43506 3.06197
0.3 1.96629 1.49588 2.4072 1.27626
0.366667 1.90803 1.47279 2.36432 0.188412
0.433333 1.85405 1.44953 2.31741 -0.525226
0.5 1.80192 1.41964 2.27308 -1.01635
0.566667 1.75173 1.39821 2.23113 -1.36551
0.633333 1.70084 1.37488 2.18488 -1.61937
0.7 1.65101 1.35128 2.14367 -1.80679
0.766667 1.60241 1.32665 2.10211 -1.94651
0.833333 1.55123 1.30078 2.07365 -2.05119
0.9 1.5021 1.28932 2.03838 -2.12966
0.966667 1.2548 1.44514 2.00807 -2.18957
1.03333 1.23826 1.41616 1.96262 -2.23297
1.06667 1.22703 1.39847 1.93392 -2.25001
1.1 1.22151 1.38505 1.92372 -2.26441
1.13333 1.20992 1.36857 1.91346 -2.27647
1.16667 1.20172 1.35442 1.9001 -2.28647
1.2 1.19046 1.33973 1.86206 -2.29463
1.23333 1.1819 1.33047 1.84726 -2.30115
1.26667 1.16835 1.31075 1.82992 -2.30622
1.3 1.16172 1.30118 1.81434 -2.30999
1.33333 1.15447 1.2796 1.79162 -2.3126
1.36667 1.14692 1.26999 1.77404 -2.31419
1.4 1.13705 1.26052 1.75585 -2.31486
1.43333 1.12813 1.2444 1.75908 -2.31472
1.46667 1.11573 1.23292 1.72715 -2.31384
1.5 1.11321 1.21602 1.7151 -2.31232
1.53333 1.10297 1.21001 1.68826 -2.31023
1.56667 1.09265 1.19591 1.69469 -2.30763
1.6 1.08838 1.18982 1.67775 -2.30457
1.63333 1.08059 1.1743 1.65609 -2.30111
1.66667 1.07018 1.16071 1.643 -2.29731
1.7 1.06543 1.15455 1.64209 -2.29319
1.73333 1.05859 1.14347 1.62848 -2.2888
1.76667 1.04827 1.12998 1.60727 -2.28417
1.8 1.04332 1.11961 1.59909 -2.27934
1.83333 1.03538 1.1119 1.59601 -2.27434
1.86667 1.02875 1.10372 1.58638 -2.26918
1.9 1.02804 1.09998 1.55804 -2.2639
1.93333 1.01691 1.08996 1.54149 -2.25851
1.96667 1.01715 1.08168 1.52738 -2.25304
2 1.00757 1.07326 1.51924 -2.24751
2.03333 1.0037 1.06957 1.52551 -2.24192
2.1 0.993853 1.05338 1.49048 -2.23066
2.16667 0.98237 1.04033 1.4841 -2.21935
2.23333 0.974964 1.03124 1.4552 -2.2081
2.3 0.968012 1.01956 1.45237 -2.19696
2.36667 0.964366 1.00941 1.43264 -2.186
2.43333 0.958567 1.00577 1.41361 -2.17528
2.5 0.951898 0.999964 1.40416 -2.16482
2.56667 0.956123 0.994628 1.38421 -2.15468
2.63333 0.951398 0.989756 1.36962 -2.14487
2.7 0.960299 0.985868 1.35538 -2.13542
2.76667 0.95863 0.981042 1.32239 -2.12634
2.83333 0.954023 0.978382 1.33244 -2.11765
2.9 0.957661 0.97901 1.31801 -2.10935
2.96667 0.955927 0.967163 1.30511 -2.10146
3.03333 0.962478 0.965503 1.28094 -2.09396
3.1 0.964723 0.970524 1.27295 -2.08686
3.16667 0.9667 0.9609 1.27696 -2.08016
3.23333 0.972799 0.953096 1.2516 -2.07385
3.3 0.979542 0.938416 1.24405 -2.06792
3.36667 0.98174 0.932709 1.23279 -2.06236
3.43333 1.0036 0.858874 1.22176 -2.05717
3.5 1.00549 0.830734 1.2052 -2.05233
3.56667 1.00601 0.800909 1.20438 -2.04782
3.63333 0.985877 0.936859 1.19882 -2.04358
3.7 1.00633 0.771151 1.18513 -2.03974
3.76667 1.00713 0.757188 1.17843 -2.03614
3.83333 1.00539 0.757196 1.17216 -2.03281
3.9 1.00553 0.740615 1.15825 -2.02973
3.96667 1.007 0.723498 1.14703 -2.02691
4.03333 1.00657 0.7098 1.13669 -2.02431
