#ITER 0
#Get energy for R=0.5
#And alpha:1.1 1.2 1.3
#start diagonalization
#Res: E=-0.961545
#Get energy for R=0.5
#And alpha:1.101 1.2 1.3
#start diagonalization
#Res: E=-0.961581
#Get energy for R=0.5
#And alpha:1.1 1.201 1.3
#start diagonalization
#Res: E=-0.961776
#Get energy for R=0.5
#And alpha:1.1 1.2 1.301
#start diagonalization
#Res: E=-0.961561
#length of grad(E) = 0.0548886
#energy E = -0.961545
# alpha: 1.1 1.2 1.3 
#ITER 1
#Get energy for R=0.5
#And alpha:1.1369 1.44029 1.31624
#start diagonalization
#Res: E=-0.985873
#Get energy for R=0.5
#And alpha:1.1379 1.44029 1.31624
#start diagonalization
#Res: E=-0.98612
#Get energy for R=0.5
#And alpha:1.1369 1.44129 1.31624
#start diagonalization
#Res: E=-0.985798
#Get energy for R=0.5
#And alpha:1.1369 1.44029 1.31724
#start diagonalization
#Res: E=-0.985887
#length of grad(E) = 0.0665443
#energy E = -0.985873
# alpha: 1.1369 1.44029 1.31624 
#ITER 2
#Get energy for R=0.5
#And alpha:1.38692 1.36442 1.33022
#start diagonalization
#Res: E=-0.995095
#Get energy for R=0.5
#And alpha:1.38792 1.36442 1.33022
#start diagonalization
#Res: E=-0.995132
#Get energy for R=0.5
#And alpha:1.38692 1.36542 1.33022
#start diagonalization
#Res: E=-0.995152
#Get energy for R=0.5
#And alpha:1.38692 1.36442 1.33122
#start diagonalization
#Res: E=-0.995109
#length of grad(E) = 0.00483266
#energy E = -0.995095
# alpha: 1.38692 1.36442 1.33022 
#ITER 3
#Get energy for R=0.5
#And alpha:1.42398 1.42174 1.3451
#start diagonalization
#Res: E=-0.999206
#Get energy for R=0.5
#And alpha:1.42498 1.42174 1.3451
#start diagonalization
#Res: E=-0.999229
#Get energy for R=0.5
#And alpha:1.42398 1.42274 1.3451
#start diagonalization
#Res: E=-0.999247
#Get energy for R=0.5
#And alpha:1.42398 1.42174 1.3461
#start diagonalization
#Res: E=-0.999221
#length of grad(E) = 0.00240254
#energy E = -0.999206
# alpha: 1.42398 1.42174 1.3451 
#ITER 4
#Get energy for R=0.5
#And alpha:1.4472 1.46239 1.35978
#start diagonalization
#Res: E=-1.00131
#Get energy for R=0.5
#And alpha:1.4482 1.46239 1.35978
#start diagonalization
#Res: E=-1.00132
#Get energy for R=0.5
#And alpha:1.4472 1.46339 1.35978
#start diagonalization
#Res: E=-1.00134
#Get energy for R=0.5
#And alpha:1.4472 1.46239 1.36078
#start diagonalization
#Res: E=-1.00132
#length of grad(E) = 0.00137856
#energy E = -1.00131
# alpha: 1.4472 1.46239 1.35978 
#ITER 5
#Get energy for R=0.5
#And alpha:1.46154 1.49333 1.37432
#start diagonalization
#Res: E=-1.00254
#Get energy for R=0.5
#And alpha:1.46254 1.49333 1.37432
#start diagonalization
#Res: E=-1.00255
#Get energy for R=0.5
#And alpha:1.46154 1.49433 1.37432
#start diagonalization
#Res: E=-1.00257
#Get energy for R=0.5
#And alpha:1.46154 1.49333 1.37532
#start diagonalization
#Res: E=-1.00256
#length of grad(E) = 0.000889639
#energy E = -1.00254
# alpha: 1.46154 1.49333 1.37432 
#ITER 6
#Get energy for R=0.5
#And alpha:1.46923 1.51817 1.38878
#start diagonalization
#Res: E=-1.00336
#Get energy for R=0.5
#And alpha:1.47023 1.51817 1.38878
#start diagonalization
#Res: E=-1.00336
#Get energy for R=0.5
#And alpha:1.46923 1.51917 1.38878
#start diagonalization
#Res: E=-1.00338
#Get energy for R=0.5
#And alpha:1.46923 1.51817 1.38978
#start diagonalization
#Res: E=-1.00337
#length of grad(E) = 0.000659017
#energy E = -1.00336
# alpha: 1.46923 1.51817 1.38878 
#ITER 7
#Get energy for R=0.5
#And alpha:1.4713 1.53923 1.40316
#start diagonalization
#Res: E=-1.00399
#Get energy for R=0.5
#And alpha:1.4723 1.53923 1.40316
#start diagonalization
#Res: E=-1.00399
#Get energy for R=0.5
#And alpha:1.4713 1.54023 1.40316
#start diagonalization
#Res: E=-1.00401
#Get energy for R=0.5
#And alpha:1.4713 1.53923 1.40416
#start diagonalization
#Res: E=-1.004
#length of grad(E) = 0.000579838
#energy E = -1.00399
# alpha: 1.4713 1.53923 1.40316 
#ITER 8
#Get energy for R=0.5
#And alpha:1.46818 1.55824 1.41745
#start diagonalization
#Res: E=-1.00457
#Get energy for R=0.5
#And alpha:1.46918 1.55824 1.41745
#start diagonalization
#Res: E=-1.00456
#Get energy for R=0.5
#And alpha:1.46818 1.55924 1.41745
#start diagonalization
#Res: E=-1.00459
#Get energy for R=0.5
#And alpha:1.46818 1.55824 1.41845
#start diagonalization
#Res: E=-1.00458
#length of grad(E) = 0.000610584
#energy E = -1.00457
# alpha: 1.46818 1.55824 1.41745 
#ITER 9
#Get energy for R=0.5
#And alpha:1.45992 1.57655 1.43164
#start diagonalization
#Res: E=-1.0052
#Get energy for R=0.5
#And alpha:1.46092 1.57655 1.43164
#start diagonalization
#Res: E=-1.00519
#Get energy for R=0.5
#And alpha:1.45992 1.57755 1.43164
#start diagonalization
#Res: E=-1.00522
#Get energy for R=0.5
#And alpha:1.45992 1.57655 1.43264
#start diagonalization
#Res: E=-1.00522
#length of grad(E) = 0.000732819
#energy E = -1.0052
# alpha: 1.45992 1.57655 1.43164 
#ITER 10
#Get energy for R=0.5
#And alpha:1.44655 1.59521 1.44572
#start diagonalization
#Res: E=-1.00597
#Get energy for R=0.5
#And alpha:1.44755 1.59521 1.44572
#start diagonalization
#Res: E=-1.00596
#Get energy for R=0.5
#And alpha:1.44655 1.59621 1.44572
#start diagonalization
#Res: E=-1.00599
#Get energy for R=0.5
#And alpha:1.44655 1.59521 1.44672
#start diagonalization
#Res: E=-1.00599
#length of grad(E) = 0.000908648
#energy E = -1.00597
# alpha: 1.44655 1.59521 1.44572 
#ITER 11
#Get energy for R=0.5
#And alpha:1.42859 1.61475 1.45964
#start diagonalization
#Res: E=-1.00691
#Get energy for R=0.5
#And alpha:1.42959 1.61475 1.45964
#start diagonalization
#Res: E=-1.00689
#Get energy for R=0.5
#And alpha:1.42859 1.61575 1.45964
#start diagonalization
#Res: E=-1.00693
#Get energy for R=0.5
#And alpha:1.42859 1.61475 1.46064
#start diagonalization
#Res: E=-1.00693
#length of grad(E) = 0.00101677
#energy E = -1.00691
# alpha: 1.42859 1.61475 1.45964 
#ITER 12
#Get energy for R=0.5
#And alpha:1.40815 1.63465 1.47339
#start diagonalization
#Res: E=-1.0079
#Get energy for R=0.5
#And alpha:1.40915 1.63465 1.47339
#start diagonalization
#Res: E=-1.00788
#Get energy for R=0.5
#And alpha:1.40815 1.63565 1.47339
#start diagonalization
#Res: E=-1.00791
#Get energy for R=0.5
#And alpha:1.40815 1.63465 1.47439
#start diagonalization
#Res: E=-1.00791
#length of grad(E) = 0.000858697
#energy E = -1.0079
# alpha: 1.40815 1.63465 1.47339 
#ITER 13
#Get energy for R=0.5
#And alpha:1.38998 1.65289 1.4869
#start diagonalization
#Res: E=-1.00864
#Get energy for R=0.5
#And alpha:1.39098 1.65289 1.4869
#start diagonalization
#Res: E=-1.00863
#Get energy for R=0.5
#And alpha:1.38998 1.65389 1.4869
#start diagonalization
#Res: E=-1.00866
#Get energy for R=0.5
#And alpha:1.38998 1.65289 1.4879
#start diagonalization
#Res: E=-1.00866
#length of grad(E) = 0.000476802
#energy E = -1.00864
# alpha: 1.38998 1.65289 1.4869 
#ITER 14
#Get energy for R=0.5
#And alpha:1.37987 1.66669 1.50016
#start diagonalization
#Res: E=-1.00904
#Get energy for R=0.5
#And alpha:1.38087 1.66669 1.50016
#start diagonalization
#Res: E=-1.00904
#Get energy for R=0.5
#And alpha:1.37987 1.66769 1.50016
#start diagonalization
#Res: E=-1.00905
#Get energy for R=0.5
#And alpha:1.37987 1.66669 1.50116
#start diagonalization
#Res: E=-1.00905
#length of grad(E) = 0.00025709
#energy E = -1.00904
# alpha: 1.37987 1.66669 1.50016 
#ITER 15
#Get energy for R=0.5
#And alpha:1.37827 1.67563 1.5132
#start diagonalization
#Res: E=-1.00928
#Get energy for R=0.5
#And alpha:1.37927 1.67563 1.5132
#start diagonalization
#Res: E=-1.00928
#Get energy for R=0.5
#And alpha:1.37827 1.67663 1.5132
#start diagonalization
#Res: E=-1.00929
#Get energy for R=0.5
#And alpha:1.37827 1.67563 1.5142
#start diagonalization
#Res: E=-1.00929
#length of grad(E) = 0.000211786
#energy E = -1.00928
# alpha: 1.37827 1.67563 1.5132 
#ITER 16
#Get energy for R=0.5
#And alpha:1.37995 1.68194 1.52606
#start diagonalization
#Res: E=-1.00949
#Get energy for R=0.5
#And alpha:1.38095 1.68194 1.52606
#start diagonalization
#Res: E=-1.00949
#Get energy for R=0.5
#And alpha:1.37995 1.68294 1.52606
#start diagonalization
#Res: E=-1.00949
#Get energy for R=0.5
#And alpha:1.37995 1.68194 1.52706
#start diagonalization
#Res: E=-1.0095
#length of grad(E) = 0.000194402
#energy E = -1.00949
# alpha: 1.37995 1.68194 1.52606 
#ITER 17
#Get energy for R=0.5
#And alpha:1.38185 1.68702 1.53876
#start diagonalization
#Res: E=-1.00968
#Get energy for R=0.5
#And alpha:1.38285 1.68702 1.53876
#start diagonalization
#Res: E=-1.00968
#Get energy for R=0.5
#And alpha:1.38185 1.68802 1.53876
#start diagonalization
#Res: E=-1.00968
#Get energy for R=0.5
#And alpha:1.38185 1.68702 1.53976
#start diagonalization
#Res: E=-1.00969
#length of grad(E) = 0.00018143
#energy E = -1.00968
# alpha: 1.38185 1.68702 1.53876 
#ITER 18
#Get energy for R=0.5
#And alpha:1.38349 1.69128 1.55129
#start diagonalization
#Res: E=-1.00986
#Get energy for R=0.5
#And alpha:1.38449 1.69128 1.55129
#start diagonalization
#Res: E=-1.00986
#Get energy for R=0.5
#And alpha:1.38349 1.69228 1.55129
#start diagonalization
#Res: E=-1.00986
#Get energy for R=0.5
#And alpha:1.38349 1.69128 1.55229
#start diagonalization
#Res: E=-1.00987
#length of grad(E) = 0.000171091
#energy E = -1.00986
# alpha: 1.38349 1.69128 1.55129 
#ITER 19
#Get energy for R=0.5
#And alpha:1.38485 1.69485 1.56367
#start diagonalization
#Res: E=-1.01003
#Get energy for R=0.5
#And alpha:1.38585 1.69485 1.56367
#start diagonalization
#Res: E=-1.01003
#Get energy for R=0.5
#And alpha:1.38485 1.69585 1.56367
#start diagonalization
#Res: E=-1.01003
#Get energy for R=0.5
#And alpha:1.38485 1.69485 1.56467
#start diagonalization
#Res: E=-1.01004
#length of grad(E) = 0.000162561
#energy E = -1.01003
# alpha: 1.38485 1.69485 1.56367 
#ITER 20
#Get energy for R=0.5
#And alpha:1.386 1.69786 1.57587
#start diagonalization
#Res: E=-1.01019
#Get energy for R=0.5
#And alpha:1.387 1.69786 1.57587
#start diagonalization
#Res: E=-1.01019
#Get energy for R=0.5
#And alpha:1.386 1.69886 1.57587
#start diagonalization
#Res: E=-1.01019
#Get energy for R=0.5
#And alpha:1.386 1.69786 1.57687
#start diagonalization
#Res: E=-1.0102
#length of grad(E) = 0.000155287
#energy E = -1.01019
# alpha: 1.386 1.69786 1.57587 
#ITER 21
#Get energy for R=0.5
#And alpha:1.38698 1.70039 1.58791
#start diagonalization
#Res: E=-1.01034
#Get energy for R=0.5
#And alpha:1.38798 1.70039 1.58791
#start diagonalization
#Res: E=-1.01034
#Get energy for R=0.5
#And alpha:1.38698 1.70139 1.58791
#start diagonalization
#Res: E=-1.01034
#Get energy for R=0.5
#And alpha:1.38698 1.70039 1.58891
#start diagonalization
#Res: E=-1.01035
#length of grad(E) = 0.000148905
#energy E = -1.01034
# alpha: 1.38698 1.70039 1.58791 
#ITER 22
#Get energy for R=0.5
#And alpha:1.3878 1.70253 1.59977
#start diagonalization
#Res: E=-1.01049
#Get energy for R=0.5
#And alpha:1.3888 1.70253 1.59977
#start diagonalization
#Res: E=-1.01049
#Get energy for R=0.5
#And alpha:1.3878 1.70353 1.59977
#start diagonalization
#Res: E=-1.01049
#Get energy for R=0.5
#And alpha:1.3878 1.70253 1.60077
#start diagonalization
#Res: E=-1.0105
#length of grad(E) = 0.000143155
#energy E = -1.01049
# alpha: 1.3878 1.70253 1.59977 
#ITER 23
#Get energy for R=0.5
#And alpha:1.3885 1.70432 1.61145
#start diagonalization
#Res: E=-1.01063
#Get energy for R=0.5
#And alpha:1.3895 1.70432 1.61145
#start diagonalization
#Res: E=-1.01063
#Get energy for R=0.5
#And alpha:1.3885 1.70532 1.61145
#start diagonalization
#Res: E=-1.01063
#Get energy for R=0.5
#And alpha:1.3885 1.70432 1.61245
#start diagonalization
#Res: E=-1.01064
#length of grad(E) = 0.000137867
#energy E = -1.01063
# alpha: 1.3885 1.70432 1.61145 
#ITER 24
#Get energy for R=0.5
#And alpha:1.3891 1.70584 1.62295
#start diagonalization
#Res: E=-1.01076
#Get energy for R=0.5
#And alpha:1.3901 1.70584 1.62295
#start diagonalization
#Res: E=-1.01076
#Get energy for R=0.5
#And alpha:1.3891 1.70684 1.62295
#start diagonalization
#Res: E=-1.01076
#Get energy for R=0.5
#And alpha:1.3891 1.70584 1.62395
#start diagonalization
#Res: E=-1.01077
#length of grad(E) = 0.000132922
#energy E = -1.01076
# alpha: 1.3891 1.70584 1.62295 
#ITER 25
#Get energy for R=0.5
#And alpha:1.38962 1.70711 1.63428
#start diagonalization
#Res: E=-1.01089
#Get energy for R=0.5
#And alpha:1.39062 1.70711 1.63428
#start diagonalization
#Res: E=-1.01089
#Get energy for R=0.5
#And alpha:1.38962 1.70811 1.63428
#start diagonalization
#Res: E=-1.01089
#Get energy for R=0.5
#And alpha:1.38962 1.70711 1.63528
#start diagonalization
#Res: E=-1.0109
#length of grad(E) = 0.000128243
#energy E = -1.01089
# alpha: 1.38962 1.70711 1.63428 
#ITER 26
#Get energy for R=0.5
#And alpha:1.39006 1.70819 1.64542
#start diagonalization
#Res: E=-1.01102
#Get energy for R=0.5
#And alpha:1.39106 1.70819 1.64542
#start diagonalization
#Res: E=-1.01102
#Get energy for R=0.5
#And alpha:1.39006 1.70919 1.64542
#start diagonalization
#Res: E=-1.01102
#Get energy for R=0.5
#And alpha:1.39006 1.70819 1.64642
#start diagonalization
#Res: E=-1.01103
#length of grad(E) = 0.000123773
#energy E = -1.01102
# alpha: 1.39006 1.70819 1.64542 
#ITER 27
#Get energy for R=0.5
#And alpha:1.39045 1.70909 1.65638
#start diagonalization
#Res: E=-1.01114
#Get energy for R=0.5
#And alpha:1.39145 1.70909 1.65638
#start diagonalization
#Res: E=-1.01114
#Get energy for R=0.5
#And alpha:1.39045 1.71009 1.65638
#start diagonalization
#Res: E=-1.01114
#Get energy for R=0.5
#And alpha:1.39045 1.70909 1.65738
#start diagonalization
#Res: E=-1.01115
#length of grad(E) = 0.000119477
#energy E = -1.01114
# alpha: 1.39045 1.70909 1.65638 
#ITER 28
#Get energy for R=0.5
#And alpha:1.39078 1.70985 1.66716
#start diagonalization
#Res: E=-1.01126
#Get energy for R=0.5
#And alpha:1.39178 1.70985 1.66716
#start diagonalization
#Res: E=-1.01126
#Get energy for R=0.5
#And alpha:1.39078 1.71085 1.66716
#start diagonalization
#Res: E=-1.01126
#Get energy for R=0.5
#And alpha:1.39078 1.70985 1.66816
#start diagonalization
#Res: E=-1.01127
#length of grad(E) = 0.00011533
#energy E = -1.01126
# alpha: 1.39078 1.70985 1.66716 
#ITER 29
#Get energy for R=0.5
#And alpha:1.39107 1.71048 1.67775
#start diagonalization
#Res: E=-1.01137
#Get energy for R=0.5
#And alpha:1.39207 1.71048 1.67775
#start diagonalization
#Res: E=-1.01137
#Get energy for R=0.5
#And alpha:1.39107 1.71148 1.67775
#start diagonalization
#Res: E=-1.01137
#Get energy for R=0.5
#And alpha:1.39107 1.71048 1.67875
#start diagonalization
#Res: E=-1.01138
#length of grad(E) = 0.000111316
#energy E = -1.01137
# alpha: 1.39107 1.71048 1.67775 
#ITER 30
#Get energy for R=0.5
#And alpha:1.39133 1.71102 1.68817
#start diagonalization
#Res: E=-1.01148
#Get energy for R=0.5
#And alpha:1.39233 1.71102 1.68817
#start diagonalization
#Res: E=-1.01148
#Get energy for R=0.5
#And alpha:1.39133 1.71202 1.68817
#start diagonalization
#Res: E=-1.01148
#Get energy for R=0.5
#And alpha:1.39133 1.71102 1.68917
#start diagonalization
#Res: E=-1.01149
#length of grad(E) = 0.000107425
#energy E = -1.01148
# alpha: 1.39133 1.71102 1.68817 
#ITER 31
#Get energy for R=0.5
#And alpha:1.39155 1.71146 1.6984
#start diagonalization
#Res: E=-1.01159
#Get energy for R=0.5
#And alpha:1.39255 1.71146 1.6984
#start diagonalization
#Res: E=-1.01159
#Get energy for R=0.5
#And alpha:1.39155 1.71246 1.6984
#start diagonalization
#Res: E=-1.01159
#Get energy for R=0.5
#And alpha:1.39155 1.71146 1.6994
#start diagonalization
#Res: E=-1.0116
#length of grad(E) = 0.00010365
#energy E = -1.01159
# alpha: 1.39155 1.71146 1.6984 
#ITER 32
#Get energy for R=0.5
#And alpha:1.39175 1.71184 1.70846
#start diagonalization
#Res: E=-1.01169
#Get energy for R=0.5
#And alpha:1.39275 1.71184 1.70846
#start diagonalization
#Res: E=-1.01169
#Get energy for R=0.5
#And alpha:1.39175 1.71284 1.70846
#start diagonalization
#Res: E=-1.01169
#Get energy for R=0.5
#And alpha:1.39175 1.71184 1.70946
#start diagonalization
#Res: E=-1.0117
#length of grad(E) = 9.99853e-05
#energy E = -1.01169
# alpha: 1.39175 1.71184 1.70846 
#ITER 33
#Get energy for R=0.5
#And alpha:1.39193 1.71215 1.71834
#start diagonalization
#Res: E=-1.01179
#Get energy for R=0.5
#And alpha:1.39293 1.71215 1.71834
#start diagonalization
#Res: E=-1.01179
#Get energy for R=0.5
#And alpha:1.39193 1.71315 1.71834
#start diagonalization
#Res: E=-1.01179
#Get energy for R=0.5
#And alpha:1.39193 1.71215 1.71934
#start diagonalization
#Res: E=-1.0118
#length of grad(E) = 9.64302e-05
#energy E = -1.01179
# alpha: 1.39193 1.71215 1.71834 
#ITER 34
#Get energy for R=0.5
#And alpha:1.39208 1.71241 1.72804
#start diagonalization
#Res: E=-1.01188
#Get energy for R=0.5
#And alpha:1.39308 1.71241 1.72804
#start diagonalization
#Res: E=-1.01188
#Get energy for R=0.5
#And alpha:1.39208 1.71341 1.72804
#start diagonalization
#Res: E=-1.01188
#Get energy for R=0.5
#And alpha:1.39208 1.71241 1.72904
#start diagonalization
#Res: E=-1.01189
#length of grad(E) = 9.29806e-05
#energy E = -1.01188
# alpha: 1.39208 1.71241 1.72804 
#ITER 35
#Get energy for R=0.5
#And alpha:1.39223 1.71262 1.73756
#start diagonalization
#Res: E=-1.01197
#Get energy for R=0.5
#And alpha:1.39323 1.71262 1.73756
#start diagonalization
#Res: E=-1.01197
#Get energy for R=0.5
#And alpha:1.39223 1.71362 1.73756
#start diagonalization
#Res: E=-1.01197
#Get energy for R=0.5
#And alpha:1.39223 1.71262 1.73856
#start diagonalization
#Res: E=-1.01198
#length of grad(E) = 8.96359e-05
#energy E = -1.01197
# alpha: 1.39223 1.71262 1.73756 
#ITER 36
#Get energy for R=0.5
#And alpha:1.39235 1.7128 1.74692
#start diagonalization
#Res: E=-1.01206
#Get energy for R=0.5
#And alpha:1.39335 1.7128 1.74692
#start diagonalization
#Res: E=-1.01206
#Get energy for R=0.5
#And alpha:1.39235 1.7138 1.74692
#start diagonalization
#Res: E=-1.01206
#Get energy for R=0.5
#And alpha:1.39235 1.7128 1.74792
#start diagonalization
#Res: E=-1.01207
#length of grad(E) = 8.63962e-05
#energy E = -1.01206
# alpha: 1.39235 1.7128 1.74692 
#ITER 37
#Get energy for R=0.5
#And alpha:1.39247 1.71294 1.7561
#start diagonalization
#Res: E=-1.01214
#Get energy for R=0.5
#And alpha:1.39347 1.71294 1.7561
#start diagonalization
#Res: E=-1.01214
#Get energy for R=0.5
#And alpha:1.39247 1.71394 1.7561
#start diagonalization
#Res: E=-1.01214
#Get energy for R=0.5
#And alpha:1.39247 1.71294 1.7571
#start diagonalization
#Res: E=-1.01215
#length of grad(E) = 8.32556e-05
#energy E = -1.01214
# alpha: 1.39247 1.71294 1.7561 
#ITER 38
#Get energy for R=0.5
#And alpha:1.39257 1.71306 1.76511
#start diagonalization
#Res: E=-1.01223
#Get energy for R=0.5
#And alpha:1.39357 1.71306 1.76511
#start diagonalization
#Res: E=-1.01223
#Get energy for R=0.5
#And alpha:1.39257 1.71406 1.76511
#start diagonalization
#Res: E=-1.01223
#Get energy for R=0.5
#And alpha:1.39257 1.71306 1.76611
#start diagonalization
#Res: E=-1.01224
#length of grad(E) = 8.0218e-05
#energy E = -1.01223
# alpha: 1.39257 1.71306 1.76511 
#ITER 39
#Get energy for R=0.5
#And alpha:1.39267 1.71316 1.77396
#start diagonalization
#Res: E=-1.0123
#Get energy for R=0.5
#And alpha:1.39367 1.71316 1.77396
#start diagonalization
#Res: E=-1.0123
#Get energy for R=0.5
#And alpha:1.39267 1.71416 1.77396
#start diagonalization
#Res: E=-1.0123
#Get energy for R=0.5
#And alpha:1.39267 1.71316 1.77496
#start diagonalization
#Res: E=-1.01231
#length of grad(E) = 7.72801e-05
#energy E = -1.0123
# alpha: 1.39267 1.71316 1.77396 
#ITER 40
#Get energy for R=0.5
#And alpha:1.39276 1.71324 1.78264
#start diagonalization
#Res: E=-1.01238
#Get energy for R=0.5
#And alpha:1.39376 1.71324 1.78264
#start diagonalization
#Res: E=-1.01238
#Get energy for R=0.5
#And alpha:1.39276 1.71424 1.78264
#start diagonalization
#Res: E=-1.01238
#Get energy for R=0.5
#And alpha:1.39276 1.71324 1.78364
#start diagonalization
#Res: E=-1.01239
#length of grad(E) = 7.44368e-05
#energy E = -1.01238
# alpha: 1.39276 1.71324 1.78264 
#ITER 41
#Get energy for R=0.5
#And alpha:1.39284 1.7133 1.79116
#start diagonalization
#Res: E=-1.01245
#Get energy for R=0.5
#And alpha:1.39384 1.7133 1.79116
#start diagonalization
#Res: E=-1.01245
#Get energy for R=0.5
#And alpha:1.39284 1.7143 1.79116
#start diagonalization
#Res: E=-1.01245
#Get energy for R=0.5
#And alpha:1.39284 1.7133 1.79216
#start diagonalization
#Res: E=-1.01246
#length of grad(E) = 7.16989e-05
#energy E = -1.01245
# alpha: 1.39284 1.7133 1.79116 
#ITER 42
#Get energy for R=0.5
#And alpha:1.39291 1.71335 1.79953
#start diagonalization
#Res: E=-1.01252
#Get energy for R=0.5
#And alpha:1.39391 1.71335 1.79953
#start diagonalization
#Res: E=-1.01252
#Get energy for R=0.5
#And alpha:1.39291 1.71435 1.79953
#start diagonalization
#Res: E=-1.01252
#Get energy for R=0.5
#And alpha:1.39291 1.71335 1.80053
#start diagonalization
#Res: E=-1.01253
#length of grad(E) = 6.90505e-05
#energy E = -1.01252
# alpha: 1.39291 1.71335 1.79953 
#ITER 43
#Get energy for R=0.5
#And alpha:1.39298 1.71339 1.80773
#start diagonalization
#Res: E=-1.01259
#Get energy for R=0.5
#And alpha:1.39398 1.71339 1.80773
#start diagonalization
#Res: E=-1.01259
#Get energy for R=0.5
#And alpha:1.39298 1.71439 1.80773
#start diagonalization
#Res: E=-1.01259
#Get energy for R=0.5
#And alpha:1.39298 1.71339 1.80873
#start diagonalization
#Res: E=-1.0126
#length of grad(E) = 6.64958e-05
#energy E = -1.01259
# alpha: 1.39298 1.71339 1.80773 
#ITER 44
#Get energy for R=0.5
#And alpha:1.39305 1.71342 1.81579
#start diagonalization
#Res: E=-1.01266
#Get energy for R=0.5
#And alpha:1.39405 1.71342 1.81579
#start diagonalization
#Res: E=-1.01266
#Get energy for R=0.5
#And alpha:1.39305 1.71442 1.81579
#start diagonalization
#Res: E=-1.01266
#Get energy for R=0.5
#And alpha:1.39305 1.71342 1.81679
#start diagonalization
#Res: E=-1.01266
#length of grad(E) = 6.40312e-05
#energy E = -1.01266
# alpha: 1.39305 1.71342 1.81579 
#ITER 45
#Get energy for R=0.5
#And alpha:1.39311 1.71344 1.82369
#start diagonalization
#Res: E=-1.01272
#Get energy for R=0.5
#And alpha:1.39411 1.71344 1.82369
#start diagonalization
#Res: E=-1.01272
#Get energy for R=0.5
#And alpha:1.39311 1.71444 1.82369
#start diagonalization
#Res: E=-1.01272
#Get energy for R=0.5
#And alpha:1.39311 1.71344 1.82469
#start diagonalization
#Res: E=-1.01273
#length of grad(E) = 6.16583e-05
#energy E = -1.01272
# alpha: 1.39311 1.71344 1.82369 
#ITER 46
#Get energy for R=0.5
#And alpha:1.39317 1.71345 1.83144
#start diagonalization
#Res: E=-1.01278
#Get energy for R=0.5
#And alpha:1.39417 1.71345 1.83144
#start diagonalization
#Res: E=-1.01278
#Get energy for R=0.5
#And alpha:1.39317 1.71445 1.83144
#start diagonalization
#Res: E=-1.01278
#Get energy for R=0.5
#And alpha:1.39317 1.71345 1.83244
#start diagonalization
#Res: E=-1.01279
#length of grad(E) = 5.93691e-05
#energy E = -1.01278
# alpha: 1.39317 1.71345 1.83144 
#ITER 47
#Get energy for R=0.5
#And alpha:1.39322 1.71346 1.83905
#start diagonalization
#Res: E=-1.01284
#Get energy for R=0.5
#And alpha:1.39422 1.71346 1.83905
#start diagonalization
#Res: E=-1.01284
#Get energy for R=0.5
#And alpha:1.39322 1.71446 1.83905
#start diagonalization
#Res: E=-1.01284
#Get energy for R=0.5
#And alpha:1.39322 1.71346 1.84005
#start diagonalization
#Res: E=-1.01285
#length of grad(E) = 5.71651e-05
#energy E = -1.01284
# alpha: 1.39322 1.71346 1.83905 
#ITER 48
#Get energy for R=0.5
#And alpha:1.39328 1.71347 1.84651
#start diagonalization
#Res: E=-1.01289
#Get energy for R=0.5
#And alpha:1.39428 1.71347 1.84651
#start diagonalization
#Res: E=-1.01289
#Get energy for R=0.5
#And alpha:1.39328 1.71447 1.84651
#start diagonalization
#Res: E=-1.01289
#Get energy for R=0.5
#And alpha:1.39328 1.71347 1.84751
#start diagonalization
#Res: E=-1.0129
#length of grad(E) = 5.50423e-05
#energy E = -1.01289
# alpha: 1.39328 1.71347 1.84651 
#ITER 49
#Get energy for R=0.5
#And alpha:1.39333 1.71347 1.85384
#start diagonalization
#Res: E=-1.01295
#Get energy for R=0.5
#And alpha:1.39433 1.71347 1.85384
#start diagonalization
#Res: E=-1.01295
#Get energy for R=0.5
#And alpha:1.39333 1.71447 1.85384
#start diagonalization
#Res: E=-1.01295
#Get energy for R=0.5
#And alpha:1.39333 1.71347 1.85484
#start diagonalization
#Res: E=-1.01296
#length of grad(E) = 5.30015e-05
#energy E = -1.01295
# alpha: 1.39333 1.71347 1.85384 
#ITER 50
#Get energy for R=0.5
#And alpha:1.39337 1.71347 1.86103
#start diagonalization
#Res: E=-1.013
#Get energy for R=0.5
#And alpha:1.39437 1.71347 1.86103
#start diagonalization
#Res: E=-1.013
#Get energy for R=0.5
#And alpha:1.39337 1.71447 1.86103
#start diagonalization
#Res: E=-1.013
#Get energy for R=0.5
#And alpha:1.39337 1.71347 1.86203
#start diagonalization
#Res: E=-1.01301
#length of grad(E) = 5.10347e-05
#energy E = -1.013
# alpha: 1.39337 1.71347 1.86103 
0.5 1.39337 1.71347 1.86103 -1.013
#ITER 0
#Get energy for R=0.7
#And alpha:1.1 1.2 1.3
#start diagonalization
#Res: E=-1.77782
#Get energy for R=0.7
#And alpha:1.101 1.2 1.3
#start diagonalization
#Res: E=-1.77786
#Get energy for R=0.7
#And alpha:1.1 1.201 1.3
#start diagonalization
#Res: E=-1.77795
#Get energy for R=0.7
#And alpha:1.1 1.2 1.301
#start diagonalization
#Res: E=-1.77784
#length of grad(E) = 0.0181101
#energy E = -1.77782
# alpha: 1.1 1.2 1.3 
#ITER 1
#Get energy for R=0.7
#And alpha:1.11911 1.27273 1.30865
#start diagonalization
#Res: E=-1.78602
#Get energy for R=0.7
#And alpha:1.12011 1.27273 1.30865
#start diagonalization
#Res: E=-1.78606
#Get energy for R=0.7
#And alpha:1.11911 1.27373 1.30865
#start diagonalization
#Res: E=-1.78609
#Get energy for R=0.7
#And alpha:1.11911 1.27273 1.30965
#start diagonalization
#Res: E=-1.78603
#length of grad(E) = 0.00743949
#energy E = -1.78602
# alpha: 1.11911 1.27273 1.30865 
#ITER 2
#Get energy for R=0.7
#And alpha:1.14392 1.31331 1.317
#start diagonalization
#Res: E=-1.78978
#Get energy for R=0.7
#And alpha:1.14492 1.31331 1.317
#start diagonalization
#Res: E=-1.78982
#Get energy for R=0.7
#And alpha:1.14392 1.31431 1.317
#start diagonalization
#Res: E=-1.78983
#Get energy for R=0.7
#And alpha:1.14392 1.31331 1.318
#start diagonalization
#Res: E=-1.78979
#length of grad(E) = 0.00491147
#energy E = -1.78978
# alpha: 1.14392 1.31331 1.317 
#ITER 3
#Get energy for R=0.7
#And alpha:1.16922 1.34206 1.3252
#start diagonalization
#Res: E=-1.79234
#Get energy for R=0.7
#And alpha:1.17022 1.34206 1.3252
#start diagonalization
#Res: E=-1.79238
#Get energy for R=0.7
#And alpha:1.16922 1.34306 1.3252
#start diagonalization
#Res: E=-1.79238
#Get energy for R=0.7
#And alpha:1.16922 1.34206 1.3262
#start diagonalization
#Res: E=-1.79236
#length of grad(E) = 0.00360436
#energy E = -1.79234
# alpha: 1.16922 1.34206 1.3252 
#ITER 4
#Get energy for R=0.7
#And alpha:1.19092 1.36625 1.33331
#start diagonalization
#Res: E=-1.79424
#Get energy for R=0.7
#And alpha:1.19192 1.36625 1.33331
#start diagonalization
#Res: E=-1.79427
#Get energy for R=0.7
#And alpha:1.19092 1.36725 1.33331
#start diagonalization
#Res: E=-1.79427
#Get energy for R=0.7
#And alpha:1.19092 1.36625 1.33431
#start diagonalization
#Res: E=-1.79425
#length of grad(E) = 0.00272968
#energy E = -1.79424
# alpha: 1.19092 1.36625 1.33331 
#ITER 5
#Get energy for R=0.7
#And alpha:1.2093 1.38735 1.34136
#start diagonalization
#Res: E=-1.79568
#Get energy for R=0.7
#And alpha:1.2103 1.38735 1.34136
#start diagonalization
#Res: E=-1.7957
#Get energy for R=0.7
#And alpha:1.2093 1.38835 1.34136
#start diagonalization
#Res: E=-1.79571
#Get energy for R=0.7
#And alpha:1.2093 1.38735 1.34236
#start diagonalization
#Res: E=-1.79569
#length of grad(E) = 0.00211625
#energy E = -1.79568
# alpha: 1.2093 1.38735 1.34136 
#ITER 6
#Get energy for R=0.7
#And alpha:1.22494 1.406 1.34935
#start diagonalization
#Res: E=-1.7968
#Get energy for R=0.7
#And alpha:1.22594 1.406 1.34935
#start diagonalization
#Res: E=-1.79682
#Get energy for R=0.7
#And alpha:1.22494 1.407 1.34935
#start diagonalization
#Res: E=-1.79683
#Get energy for R=0.7
#And alpha:1.22494 1.406 1.35035
#start diagonalization
#Res: E=-1.79681
#length of grad(E) = 0.00167252
#energy E = -1.7968
# alpha: 1.22494 1.406 1.34935 
#ITER 7
#Get energy for R=0.7
#And alpha:1.2383 1.42263 1.35728
#start diagonalization
#Res: E=-1.79769
#Get energy for R=0.7
#And alpha:1.2393 1.42263 1.35728
#start diagonalization
#Res: E=-1.79771
#Get energy for R=0.7
#And alpha:1.2383 1.42363 1.35728
#start diagonalization
#Res: E=-1.79771
#Get energy for R=0.7
#And alpha:1.2383 1.42263 1.35828
#start diagonalization
#Res: E=-1.7977
#length of grad(E) = 0.00134392
#energy E = -1.79769
# alpha: 1.2383 1.42263 1.35728 
#ITER 8
#Get energy for R=0.7
#And alpha:1.24977 1.43754 1.36517
#start diagonalization
#Res: E=-1.7984
#Get energy for R=0.7
#And alpha:1.25077 1.43754 1.36517
#start diagonalization
#Res: E=-1.79842
#Get energy for R=0.7
#And alpha:1.24977 1.43854 1.36517
#start diagonalization
#Res: E=-1.79843
#Get energy for R=0.7
#And alpha:1.24977 1.43754 1.36617
#start diagonalization
#Res: E=-1.79842
#length of grad(E) = 0.00109612
#energy E = -1.7984
# alpha: 1.24977 1.43754 1.36517 
#ITER 9
#Get energy for R=0.7
#And alpha:1.25964 1.45096 1.373
#start diagonalization
#Res: E=-1.79899
#Get energy for R=0.7
#And alpha:1.26064 1.45096 1.373
#start diagonalization
#Res: E=-1.79901
#Get energy for R=0.7
#And alpha:1.25964 1.45196 1.373
#start diagonalization
#Res: E=-1.79901
#Get energy for R=0.7
#And alpha:1.25964 1.45096 1.374
#start diagonalization
#Res: E=-1.799
#length of grad(E) = 0.000906495
#energy E = -1.79899
# alpha: 1.25964 1.45096 1.373 
#ITER 10
#Get energy for R=0.7
#And alpha:1.26816 1.46308 1.38079
#start diagonalization
#Res: E=-1.79948
#Get energy for R=0.7
#And alpha:1.26916 1.46308 1.38079
#start diagonalization
#Res: E=-1.79949
#Get energy for R=0.7
#And alpha:1.26816 1.46408 1.38079
#start diagonalization
#Res: E=-1.7995
#Get energy for R=0.7
#And alpha:1.26816 1.46308 1.38179
#start diagonalization
#Res: E=-1.79949
#length of grad(E) = 0.000759632
#energy E = -1.79948
# alpha: 1.26816 1.46308 1.38079 
#ITER 11
#Get energy for R=0.7
#And alpha:1.27553 1.47405 1.38852
#start diagonalization
#Res: E=-1.79989
#Get energy for R=0.7
#And alpha:1.27653 1.47405 1.38852
#start diagonalization
#Res: E=-1.7999
#Get energy for R=0.7
#And alpha:1.27553 1.47505 1.38852
#start diagonalization
#Res: E=-1.7999
#Get energy for R=0.7
#And alpha:1.27553 1.47405 1.38952
#start diagonalization
#Res: E=-1.7999
#length of grad(E) = 0.000644721
#energy E = -1.79989
# alpha: 1.27553 1.47405 1.38852 
#ITER 12
#Get energy for R=0.7
#And alpha:1.28192 1.48401 1.39621
#start diagonalization
#Res: E=-1.80023
#Get energy for R=0.7
#And alpha:1.28292 1.48401 1.39621
#start diagonalization
#Res: E=-1.80024
#Get energy for R=0.7
#And alpha:1.28192 1.48501 1.39621
#start diagonalization
#Res: E=-1.80025
#Get energy for R=0.7
#And alpha:1.28192 1.48401 1.39721
#start diagonalization
#Res: E=-1.80025
#length of grad(E) = 0.000553993
#energy E = -1.80023
# alpha: 1.28192 1.48401 1.39621 
#ITER 13
#Get energy for R=0.7
#And alpha:1.28746 1.49306 1.40384
#start diagonalization
#Res: E=-1.80053
#Get energy for R=0.7
#And alpha:1.28846 1.49306 1.40384
#start diagonalization
#Res: E=-1.80054
#Get energy for R=0.7
#And alpha:1.28746 1.49406 1.40384
#start diagonalization
#Res: E=-1.80055
#Get energy for R=0.7
#And alpha:1.28746 1.49306 1.40484
#start diagonalization
#Res: E=-1.80055
#length of grad(E) = 0.000481766
#energy E = -1.80053
# alpha: 1.28746 1.49306 1.40384 
#ITER 14
#Get energy for R=0.7
#And alpha:1.29229 1.50129 1.41143
#start diagonalization
#Res: E=-1.8008
#Get energy for R=0.7
#And alpha:1.29329 1.50129 1.41143
#start diagonalization
#Res: E=-1.8008
#Get energy for R=0.7
#And alpha:1.29229 1.50229 1.41143
#start diagonalization
#Res: E=-1.80081
#Get energy for R=0.7
#And alpha:1.29229 1.50129 1.41243
#start diagonalization
#Res: E=-1.80081
#length of grad(E) = 0.000423818
#energy E = -1.8008
# alpha: 1.29229 1.50129 1.41143 
#ITER 15
#Get energy for R=0.7
#And alpha:1.29651 1.50878 1.41896
#start diagonalization
#Res: E=-1.80103
#Get energy for R=0.7
#And alpha:1.29751 1.50878 1.41896
#start diagonalization
#Res: E=-1.80103
#Get energy for R=0.7
#And alpha:1.29651 1.50978 1.41896
#start diagonalization
#Res: E=-1.80104
#Get energy for R=0.7
#And alpha:1.29651 1.50878 1.41996
#start diagonalization
#Res: E=-1.80104
#length of grad(E) = 0.000376974
#energy E = -1.80103
# alpha: 1.29651 1.50878 1.41896 
#ITER 16
#Get energy for R=0.7
#And alpha:1.3002 1.51561 1.42644
#start diagonalization
#Res: E=-1.80123
#Get energy for R=0.7
#And alpha:1.3012 1.51561 1.42644
#start diagonalization
#Res: E=-1.80124
#Get energy for R=0.7
#And alpha:1.3002 1.51661 1.42644
#start diagonalization
#Res: E=-1.80124
#Get energy for R=0.7
#And alpha:1.3002 1.51561 1.42744
#start diagonalization
#Res: E=-1.80125
#length of grad(E) = 0.000338823
#energy E = -1.80123
# alpha: 1.3002 1.51561 1.42644 
#ITER 17
#Get energy for R=0.7
#And alpha:1.30343 1.52184 1.43387
#start diagonalization
#Res: E=-1.80142
#Get energy for R=0.7
#And alpha:1.30443 1.52184 1.43387
#start diagonalization
#Res: E=-1.80142
#Get energy for R=0.7
#And alpha:1.30343 1.52284 1.43387
#start diagonalization
#Res: E=-1.80143
#Get energy for R=0.7
#And alpha:1.30343 1.52184 1.43487
#start diagonalization
#Res: E=-1.80143
#length of grad(E) = 0.00030752
#energy E = -1.80142
# alpha: 1.30343 1.52184 1.43387 
#ITER 18
#Get energy for R=0.7
#And alpha:1.30628 1.52753 1.44124
#start diagonalization
#Res: E=-1.80159
#Get energy for R=0.7
#And alpha:1.30728 1.52753 1.44124
#start diagonalization
#Res: E=-1.80159
#Get energy for R=0.7
#And alpha:1.30628 1.52853 1.44124
#start diagonalization
#Res: E=-1.8016
#Get energy for R=0.7
#And alpha:1.30628 1.52753 1.44224
#start diagonalization
#Res: E=-1.8016
#length of grad(E) = 0.00028164
#energy E = -1.80159
# alpha: 1.30628 1.52753 1.44124 
#ITER 19
#Get energy for R=0.7
#And alpha:1.30879 1.53272 1.44856
#start diagonalization
#Res: E=-1.80174
#Get energy for R=0.7
#And alpha:1.30979 1.53272 1.44856
#start diagonalization
#Res: E=-1.80174
#Get energy for R=0.7
#And alpha:1.30879 1.53372 1.44856
#start diagonalization
#Res: E=-1.80175
#Get energy for R=0.7
#And alpha:1.30879 1.53272 1.44956
#start diagonalization
#Res: E=-1.80175
#length of grad(E) = 0.00026008
#energy E = -1.80174
# alpha: 1.30879 1.53272 1.44856 
#ITER 20
#Get energy for R=0.7
#And alpha:1.31101 1.53746 1.45582
#start diagonalization
#Res: E=-1.80188
#Get energy for R=0.7
#And alpha:1.31201 1.53746 1.45582
#start diagonalization
#Res: E=-1.80189
#Get energy for R=0.7
#And alpha:1.31101 1.53846 1.45582
#start diagonalization
#Res: E=-1.80189
#Get energy for R=0.7
#And alpha:1.31101 1.53746 1.45682
#start diagonalization
#Res: E=-1.8019
#length of grad(E) = 0.000241976
#energy E = -1.80188
# alpha: 1.31101 1.53746 1.45582 
#ITER 21
#Get energy for R=0.7
#And alpha:1.31298 1.54179 1.46302
#start diagonalization
#Res: E=-1.80202
#Get energy for R=0.7
#And alpha:1.31398 1.54179 1.46302
#start diagonalization
#Res: E=-1.80202
#Get energy for R=0.7
#And alpha:1.31298 1.54279 1.46302
#start diagonalization
#Res: E=-1.80202
#Get energy for R=0.7
#And alpha:1.31298 1.54179 1.46402
#start diagonalization
#Res: E=-1.80203
#length of grad(E) = 0.000226653
#energy E = -1.80202
# alpha: 1.31298 1.54179 1.46302 
#ITER 22
#Get energy for R=0.7
#And alpha:1.31474 1.54574 1.47017
#start diagonalization
#Res: E=-1.80214
#Get energy for R=0.7
#And alpha:1.31574 1.54574 1.47017
#start diagonalization
#Res: E=-1.80214
#Get energy for R=0.7
#And alpha:1.31474 1.54674 1.47017
#start diagonalization
#Res: E=-1.80215
#Get energy for R=0.7
#And alpha:1.31474 1.54574 1.47117
#start diagonalization
#Res: E=-1.80215
#length of grad(E) = 0.000213575
#energy E = -1.80214
# alpha: 1.31474 1.54574 1.47017 
#ITER 23
#Get energy for R=0.7
#And alpha:1.31631 1.54936 1.47725
#start diagonalization
#Res: E=-1.80226
#Get energy for R=0.7
#And alpha:1.31731 1.54936 1.47725
#start diagonalization
#Res: E=-1.80226
#Get energy for R=0.7
#And alpha:1.31631 1.55036 1.47725
#start diagonalization
#Res: E=-1.80227
#Get energy for R=0.7
#And alpha:1.31631 1.54936 1.47825
#start diagonalization
#Res: E=-1.80227
#length of grad(E) = 0.00020232
#energy E = -1.80226
# alpha: 1.31631 1.54936 1.47725 
#ITER 24
#Get energy for R=0.7
#And alpha:1.31772 1.55267 1.48428
#start diagonalization
#Res: E=-1.80237
#Get energy for R=0.7
#And alpha:1.31872 1.55267 1.48428
#start diagonalization
#Res: E=-1.80237
#Get energy for R=0.7
#And alpha:1.31772 1.55367 1.48428
#start diagonalization
#Res: E=-1.80238
#Get energy for R=0.7
#And alpha:1.31772 1.55267 1.48528
#start diagonalization
#Res: E=-1.80238
#length of grad(E) = 0.000192549
#energy E = -1.80237
# alpha: 1.31772 1.55267 1.48428 
#ITER 25
#Get energy for R=0.7
#And alpha:1.31899 1.5557 1.49124
#start diagonalization
#Res: E=-1.80248
#Get energy for R=0.7
#And alpha:1.31999 1.5557 1.49124
#start diagonalization
#Res: E=-1.80248
#Get energy for R=0.7
#And alpha:1.31899 1.5567 1.49124
#start diagonalization
#Res: E=-1.80248
#Get energy for R=0.7
#And alpha:1.31899 1.5557 1.49224
#start diagonalization
#Res: E=-1.80249
#length of grad(E) = 0.000183993
#energy E = -1.80248
# alpha: 1.31899 1.5557 1.49124 
#ITER 26
#Get energy for R=0.7
#And alpha:1.32013 1.55847 1.49815
#start diagonalization
#Res: E=-1.80258
#Get energy for R=0.7
#And alpha:1.32113 1.55847 1.49815
#start diagonalization
#Res: E=-1.80258
#Get energy for R=0.7
#And alpha:1.32013 1.55947 1.49815
#start diagonalization
#Res: E=-1.80258
#Get energy for R=0.7
#And alpha:1.32013 1.55847 1.49915
#start diagonalization
#Res: E=-1.80259
#length of grad(E) = 0.000176436
#energy E = -1.80258
# alpha: 1.32013 1.55847 1.49815 
#ITER 27
#Get energy for R=0.7
#And alpha:1.32116 1.561 1.50499
#start diagonalization
#Res: E=-1.80268
#Get energy for R=0.7
#And alpha:1.32216 1.561 1.50499
#start diagonalization
#Res: E=-1.80268
#Get energy for R=0.7
#And alpha:1.32116 1.562 1.50499
#start diagonalization
#Res: E=-1.80268
#Get energy for R=0.7
#And alpha:1.32116 1.561 1.50599
#start diagonalization
#Res: E=-1.80269
#length of grad(E) = 0.000169701
#energy E = -1.80268
# alpha: 1.32116 1.561 1.50499 
#ITER 28
#Get energy for R=0.7
#And alpha:1.32209 1.56332 1.51177
#start diagonalization
#Res: E=-1.80277
#Get energy for R=0.7
#And alpha:1.32309 1.56332 1.51177
#start diagonalization
#Res: E=-1.80277
#Get energy for R=0.7
#And alpha:1.32209 1.56432 1.51177
#start diagonalization
#Res: E=-1.80277
#Get energy for R=0.7
#And alpha:1.32209 1.56332 1.51277
#start diagonalization
#Res: E=-1.80278
#length of grad(E) = 0.000163648
#energy E = -1.80277
# alpha: 1.32209 1.56332 1.51177 
#ITER 29
#Get energy for R=0.7
#And alpha:1.32294 1.56544 1.51849
#start diagonalization
#Res: E=-1.80286
#Get energy for R=0.7
#And alpha:1.32394 1.56544 1.51849
#start diagonalization
#Res: E=-1.80286
#Get energy for R=0.7
#And alpha:1.32294 1.56644 1.51849
#start diagonalization
#Res: E=-1.80286
#Get energy for R=0.7
#And alpha:1.32294 1.56544 1.51949
#start diagonalization
#Res: E=-1.80287
#length of grad(E) = 0.000158162
#energy E = -1.80286
# alpha: 1.32294 1.56544 1.51849 
#ITER 30
#Get energy for R=0.7
#And alpha:1.32371 1.56739 1.52514
#start diagonalization
#Res: E=-1.80295
#Get energy for R=0.7
#And alpha:1.32471 1.56739 1.52514
#start diagonalization
#Res: E=-1.80295
#Get energy for R=0.7
#And alpha:1.32371 1.56839 1.52514
#start diagonalization
#Res: E=-1.80295
#Get energy for R=0.7
#And alpha:1.32371 1.56739 1.52614
#start diagonalization
#Res: E=-1.80296
#length of grad(E) = 0.000153149
#energy E = -1.80295
# alpha: 1.32371 1.56739 1.52514 
#ITER 31
#Get energy for R=0.7
#And alpha:1.32442 1.56917 1.53174
#start diagonalization
#Res: E=-1.80303
#Get energy for R=0.7
#And alpha:1.32542 1.56917 1.53174
#start diagonalization
#Res: E=-1.80303
#Get energy for R=0.7
#And alpha:1.32442 1.57017 1.53174
#start diagonalization
#Res: E=-1.80304
#Get energy for R=0.7
#And alpha:1.32442 1.56917 1.53274
#start diagonalization
#Res: E=-1.80305
#length of grad(E) = 0.000148533
#energy E = -1.80303
# alpha: 1.32442 1.56917 1.53174 
#ITER 32
#Get energy for R=0.7
#And alpha:1.32506 1.5708 1.53826
#start diagonalization
#Res: E=-1.80312
#Get energy for R=0.7
#And alpha:1.32606 1.5708 1.53826
#start diagonalization
#Res: E=-1.80312
#Get energy for R=0.7
#And alpha:1.32506 1.5718 1.53826
#start diagonalization
#Res: E=-1.80312
#Get energy for R=0.7
#And alpha:1.32506 1.5708 1.53926
#start diagonalization
#Res: E=-1.80313
#length of grad(E) = 0.000144252
#energy E = -1.80312
# alpha: 1.32506 1.5708 1.53826 
#ITER 33
#Get energy for R=0.7
#And alpha:1.32565 1.57229 1.54473
#start diagonalization
#Res: E=-1.8032
#Get energy for R=0.7
#And alpha:1.32665 1.57229 1.54473
#start diagonalization
#Res: E=-1.8032
#Get energy for R=0.7
#And alpha:1.32565 1.57329 1.54473
#start diagonalization
#Res: E=-1.8032
#Get energy for R=0.7
#And alpha:1.32565 1.57229 1.54573
#start diagonalization
#Res: E=-1.80321
#length of grad(E) = 0.000140254
#energy E = -1.8032
# alpha: 1.32565 1.57229 1.54473 
#ITER 34
#Get energy for R=0.7
#And alpha:1.32618 1.57366 1.55113
#start diagonalization
#Res: E=-1.80327
#Get energy for R=0.7
#And alpha:1.32718 1.57366 1.55113
#start diagonalization
#Res: E=-1.80327
#Get energy for R=0.7
#And alpha:1.32618 1.57466 1.55113
#start diagonalization
#Res: E=-1.80328
#Get energy for R=0.7
#And alpha:1.32618 1.57366 1.55213
#start diagonalization
#Res: E=-1.80328
#length of grad(E) = 0.000136499
#energy E = -1.80327
# alpha: 1.32618 1.57366 1.55113 
#ITER 35
#Get energy for R=0.7
#And alpha:1.32668 1.57491 1.55747
#start diagonalization
#Res: E=-1.80335
#Get energy for R=0.7
#And alpha:1.32768 1.57491 1.55747
#start diagonalization
#Res: E=-1.80335
#Get energy for R=0.7
#And alpha:1.32668 1.57591 1.55747
#start diagonalization
#Res: E=-1.80335
#Get energy for R=0.7
#And alpha:1.32668 1.57491 1.55847
#start diagonalization
#Res: E=-1.80336
#length of grad(E) = 0.00013295
#energy E = -1.80335
# alpha: 1.32668 1.57491 1.55747 
#ITER 36
#Get energy for R=0.7
#And alpha:1.32713 1.57606 1.56374
#start diagonalization
#Res: E=-1.80342
#Get energy for R=0.7
#And alpha:1.32813 1.57606 1.56374
#start diagonalization
#Res: E=-1.80342
#Get energy for R=0.7
#And alpha:1.32713 1.57706 1.56374
#start diagonalization
#Res: E=-1.80342
#Get energy for R=0.7
#And alpha:1.32713 1.57606 1.56474
#start diagonalization
#Res: E=-1.80343
#length of grad(E) = 0.00012958
#energy E = -1.80342
# alpha: 1.32713 1.57606 1.56374 
#ITER 37
#Get energy for R=0.7
#And alpha:1.32755 1.57711 1.56995
#start diagonalization
#Res: E=-1.80349
#Get energy for R=0.7
#And alpha:1.32855 1.57711 1.56995
#start diagonalization
#Res: E=-1.80349
#Get energy for R=0.7
#And alpha:1.32755 1.57811 1.56995
#start diagonalization
#Res: E=-1.8035
#Get energy for R=0.7
#And alpha:1.32755 1.57711 1.57095
#start diagonalization
#Res: E=-1.8035
#length of grad(E) = 0.000126366
#energy E = -1.80349
# alpha: 1.32755 1.57711 1.56995 
#ITER 38
#Get energy for R=0.7
#And alpha:1.32793 1.57807 1.5761
#start diagonalization
#Res: E=-1.80356
#Get energy for R=0.7
#And alpha:1.32893 1.57807 1.5761
#start diagonalization
#Res: E=-1.80356
#Get energy for R=0.7
#And alpha:1.32793 1.57907 1.5761
#start diagonalization
#Res: E=-1.80357
#Get energy for R=0.7
#And alpha:1.32793 1.57807 1.5771
#start diagonalization
#Res: E=-1.80357
#length of grad(E) = 0.000123288
#energy E = -1.80356
# alpha: 1.32793 1.57807 1.5761 
#ITER 39
#Get energy for R=0.7
#And alpha:1.32828 1.57896 1.58218
#start diagonalization
#Res: E=-1.80363
#Get energy for R=0.7
#And alpha:1.32928 1.57896 1.58218
#start diagonalization
#Res: E=-1.80363
#Get energy for R=0.7
#And alpha:1.32828 1.57996 1.58218
#start diagonalization
#Res: E=-1.80363
#Get energy for R=0.7
#And alpha:1.32828 1.57896 1.58318
#start diagonalization
#Res: E=-1.80364
#length of grad(E) = 0.00012033
#energy E = -1.80363
# alpha: 1.32828 1.57896 1.58218 
#ITER 40
#Get energy for R=0.7
#And alpha:1.32861 1.57977 1.5882
#start diagonalization
#Res: E=-1.8037
#Get energy for R=0.7
#And alpha:1.32961 1.57977 1.5882
#start diagonalization
#Res: E=-1.8037
#Get energy for R=0.7
#And alpha:1.32861 1.58077 1.5882
#start diagonalization
#Res: E=-1.8037
#Get energy for R=0.7
#And alpha:1.32861 1.57977 1.5892
#start diagonalization
#Res: E=-1.80371
#length of grad(E) = 0.000117479
#energy E = -1.8037
# alpha: 1.32861 1.57977 1.5882 
#ITER 41
#Get energy for R=0.7
#And alpha:1.32891 1.58051 1.59415
#start diagonalization
#Res: E=-1.80376
#Get energy for R=0.7
#And alpha:1.32991 1.58051 1.59415
#start diagonalization
#Res: E=-1.80376
#Get energy for R=0.7
#And alpha:1.32891 1.58151 1.59415
#start diagonalization
#Res: E=-1.80376
#Get energy for R=0.7
#And alpha:1.32891 1.58051 1.59515
#start diagonalization
#Res: E=-1.80377
#length of grad(E) = 0.000114724
#energy E = -1.80376
# alpha: 1.32891 1.58051 1.59415 
#ITER 42
#Get energy for R=0.7
#And alpha:1.32919 1.58118 1.60005
#start diagonalization
#Res: E=-1.80383
#Get energy for R=0.7
#And alpha:1.33019 1.58118 1.60005
#start diagonalization
#Res: E=-1.80383
#Get energy for R=0.7
#And alpha:1.32919 1.58218 1.60005
#start diagonalization
#Res: E=-1.80383
#Get energy for R=0.7
#And alpha:1.32919 1.58118 1.60105
#start diagonalization
#Res: E=-1.80384
#length of grad(E) = 0.000112056
#energy E = -1.80383
# alpha: 1.32919 1.58118 1.60005 
#ITER 43
#Get energy for R=0.7
#And alpha:1.32945 1.58181 1.60588
#start diagonalization
#Res: E=-1.80389
#Get energy for R=0.7
#And alpha:1.33045 1.58181 1.60588
#start diagonalization
#Res: E=-1.80389
#Get energy for R=0.7
#And alpha:1.32945 1.58281 1.60588
#start diagonalization
#Res: E=-1.80389
#Get energy for R=0.7
#And alpha:1.32945 1.58181 1.60688
#start diagonalization
#Res: E=-1.8039
#length of grad(E) = 0.000109468
#energy E = -1.80389
# alpha: 1.32945 1.58181 1.60588 
#ITER 44
#Get energy for R=0.7
#And alpha:1.32969 1.58238 1.61164
#start diagonalization
#Res: E=-1.80395
#Get energy for R=0.7
#And alpha:1.33069 1.58238 1.61164
#start diagonalization
#Res: E=-1.80395
#Get energy for R=0.7
#And alpha:1.32969 1.58338 1.61164
#start diagonalization
#Res: E=-1.80395
#Get energy for R=0.7
#And alpha:1.32969 1.58238 1.61264
#start diagonalization
#Res: E=-1.80396
#length of grad(E) = 0.000106953
#energy E = -1.80395
# alpha: 1.32969 1.58238 1.61164 
#ITER 45
#Get energy for R=0.7
#And alpha:1.32992 1.5829 1.61735
#start diagonalization
#Res: E=-1.80401
#Get energy for R=0.7
#And alpha:1.33092 1.5829 1.61735
#start diagonalization
#Res: E=-1.80401
#Get energy for R=0.7
#And alpha:1.32992 1.5839 1.61735
#start diagonalization
#Res: E=-1.80401
#Get energy for R=0.7
#And alpha:1.32992 1.5829 1.61835
#start diagonalization
#Res: E=-1.80402
#length of grad(E) = 0.000104505
#energy E = -1.80401
# alpha: 1.32992 1.5829 1.61735 
#ITER 46
#Get energy for R=0.7
#And alpha:1.33012 1.58338 1.62299
#start diagonalization
#Res: E=-1.80407
#Get energy for R=0.7
#And alpha:1.33112 1.58338 1.62299
#start diagonalization
#Res: E=-1.80407
#Get energy for R=0.7
#And alpha:1.33012 1.58438 1.62299
#start diagonalization
#Res: E=-1.80407
#Get energy for R=0.7
#And alpha:1.33012 1.58338 1.62399
#start diagonalization
#Res: E=-1.80408
#length of grad(E) = 0.000102121
#energy E = -1.80407
# alpha: 1.33012 1.58338 1.62299 
#ITER 47
#Get energy for R=0.7
#And alpha:1.33032 1.58381 1.62857
#start diagonalization
#Res: E=-1.80412
#Get energy for R=0.7
#And alpha:1.33132 1.58381 1.62857
#start diagonalization
#Res: E=-1.80412
#Get energy for R=0.7
#And alpha:1.33032 1.58481 1.62857
#start diagonalization
#Res: E=-1.80412
#Get energy for R=0.7
#And alpha:1.33032 1.58381 1.62957
#start diagonalization
#Res: E=-1.80413
#length of grad(E) = 9.97966e-05
#energy E = -1.80412
# alpha: 1.33032 1.58381 1.62857 
#ITER 48
#Get energy for R=0.7
#And alpha:1.3305 1.58421 1.63409
#start diagonalization
#Res: E=-1.80418
#Get energy for R=0.7
#And alpha:1.3315 1.58421 1.63409
#start diagonalization
#Res: E=-1.80418
#Get energy for R=0.7
#And alpha:1.3305 1.58521 1.63409
#start diagonalization
#Res: E=-1.80418
#Get energy for R=0.7
#And alpha:1.3305 1.58421 1.63509
#start diagonalization
#Res: E=-1.80419
#length of grad(E) = 9.75292e-05
#energy E = -1.80418
# alpha: 1.3305 1.58421 1.63409 
#ITER 49
#Get energy for R=0.7
#And alpha:1.33066 1.58458 1.63955
#start diagonalization
#Res: E=-1.80423
#Get energy for R=0.7
#And alpha:1.33166 1.58458 1.63955
#start diagonalization
#Res: E=-1.80423
#Get energy for R=0.7
#And alpha:1.33066 1.58558 1.63955
#start diagonalization
#Res: E=-1.80423
#Get energy for R=0.7
#And alpha:1.33066 1.58458 1.64055
#start diagonalization
#Res: E=-1.80424
#length of grad(E) = 9.53154e-05
#energy E = -1.80423
# alpha: 1.33066 1.58458 1.63955 
#ITER 50
#Get energy for R=0.7
#And alpha:1.33082 1.58491 1.64495
#start diagonalization
#Res: E=-1.80428
#Get energy for R=0.7
#And alpha:1.33182 1.58491 1.64495
#start diagonalization
#Res: E=-1.80428
#Get energy for R=0.7
#And alpha:1.33082 1.58591 1.64495
#start diagonalization
#Res: E=-1.80428
#Get energy for R=0.7
#And alpha:1.33082 1.58491 1.64595
#start diagonalization
#Res: E=-1.80429
#length of grad(E) = 9.31531e-05
#energy E = -1.80428
# alpha: 1.33082 1.58491 1.64495 
0.7 1.33082 1.58491 1.64495 -1.80428
#ITER 0
#Get energy for R=0.9
#And alpha:1.1 1.2 1.3
#start diagonalization
#Res: E=-2.11567
#Get energy for R=0.9
#And alpha:1.101 1.2 1.3
#start diagonalization
#Res: E=-2.11569
#Get energy for R=0.9
#And alpha:1.1 1.201 1.3
#start diagonalization
#Res: E=-2.11573
#Get energy for R=0.9
#And alpha:1.1 1.2 1.301
#start diagonalization
#Res: E=-2.11568
#length of grad(E) = 0.00553735
#energy E = -2.11567
# alpha: 1.1 1.2 1.3 
#ITER 1
#Get energy for R=0.9
#And alpha:1.11272 1.23206 1.3069
#start diagonalization
#Res: E=-2.11803
#Get energy for R=0.9
#And alpha:1.11372 1.23206 1.3069
#start diagonalization
#Res: E=-2.11806
#Get energy for R=0.9
#And alpha:1.11272 1.23306 1.3069
#start diagonalization
#Res: E=-2.11808
#Get energy for R=0.9
#And alpha:1.11272 1.23206 1.3079
#start diagonalization
#Res: E=-2.11804
#length of grad(E) = 0.00361644
#energy E = -2.11803
# alpha: 1.11272 1.23206 1.3069 
#ITER 2
#Get energy for R=0.9
#And alpha:1.12597 1.25624 1.31368
#start diagonalization
#Res: E=-2.11962
#Get energy for R=0.9
#And alpha:1.12697 1.25624 1.31368
#start diagonalization
#Res: E=-2.11965
#Get energy for R=0.9
#And alpha:1.12597 1.25724 1.31368
#start diagonalization
#Res: E=-2.11966
#Get energy for R=0.9
#And alpha:1.12597 1.25624 1.31468
#start diagonalization
#Res: E=-2.11963
#length of grad(E) = 0.00266456
#energy E = -2.11962
# alpha: 1.12597 1.25624 1.31368 
#ITER 3
#Get energy for R=0.9
#And alpha:1.13916 1.27558 1.32038
#start diagonalization
#Res: E=-2.12081
#Get energy for R=0.9
#And alpha:1.14016 1.27558 1.32038
#start diagonalization
#Res: E=-2.12084
#Get energy for R=0.9
#And alpha:1.13916 1.27658 1.32038
#start diagonalization
#Res: E=-2.12085
#Get energy for R=0.9
#And alpha:1.13916 1.27558 1.32138
#start diagonalization
#Res: E=-2.12082
#length of grad(E) = 0.00209591
#energy E = -2.12081
# alpha: 1.13916 1.27558 1.32038 
#ITER 4
#Get energy for R=0.9
#And alpha:1.15164 1.2919 1.327
#start diagonalization
#Res: E=-2.12176
#Get energy for R=0.9
#And alpha:1.15264 1.2919 1.327
#start diagonalization
#Res: E=-2.12178
#Get energy for R=0.9
#And alpha:1.15164 1.2929 1.327
#start diagonalization
#Res: E=-2.12179
#Get energy for R=0.9
#And alpha:1.15164 1.2919 1.328
#start diagonalization
#Res: E=-2.12177
#length of grad(E) = 0.00170172
#energy E = -2.12176
# alpha: 1.15164 1.2919 1.327 
#ITER 5
#Get energy for R=0.9
#And alpha:1.16311 1.30616 1.33357
#start diagonalization
#Res: E=-2.12253
#Get energy for R=0.9
#And alpha:1.16411 1.30616 1.33357
#start diagonalization
#Res: E=-2.12255
#Get energy for R=0.9
#And alpha:1.16311 1.30716 1.33357
#start diagonalization
#Res: E=-2.12255
#Get energy for R=0.9
#And alpha:1.16311 1.30616 1.33457
#start diagonalization
#Res: E=-2.12254
#length of grad(E) = 0.0014074
#energy E = -2.12253
# alpha: 1.16311 1.30616 1.33357 
#ITER 6
#Get energy for R=0.9
#And alpha:1.1735 1.31889 1.34008
#start diagonalization
#Res: E=-2.12317
#Get energy for R=0.9
#And alpha:1.1745 1.31889 1.34008
#start diagonalization
#Res: E=-2.12319
#Get energy for R=0.9
#And alpha:1.1735 1.31989 1.34008
#start diagonalization
#Res: E=-2.12319
#Get energy for R=0.9
#And alpha:1.1735 1.31889 1.34108
#start diagonalization
#Res: E=-2.12318
#length of grad(E) = 0.00117974
#energy E = -2.12317
# alpha: 1.1735 1.31889 1.34008 
#ITER 7
#Get energy for R=0.9
#And alpha:1.18286 1.3304 1.34654
#start diagonalization
#Res: E=-2.12371
#Get energy for R=0.9
#And alpha:1.18386 1.3304 1.34654
#start diagonalization
#Res: E=-2.12372
#Get energy for R=0.9
#And alpha:1.18286 1.3314 1.34654
#start diagonalization
#Res: E=-2.12373
#Get energy for R=0.9
#And alpha:1.18286 1.3304 1.34754
#start diagonalization
#Res: E=-2.12372
#length of grad(E) = 0.00100007
#energy E = -2.12371
# alpha: 1.18286 1.3304 1.34654 
#ITER 8
#Get energy for R=0.9
#And alpha:1.19125 1.34089 1.35295
#start diagonalization
#Res: E=-2.12416
#Get energy for R=0.9
#And alpha:1.19225 1.34089 1.35295
#start diagonalization
#Res: E=-2.12418
#Get energy for R=0.9
#And alpha:1.19125 1.34189 1.35295
#start diagonalization
#Res: E=-2.12418
#Get energy for R=0.9
#And alpha:1.19125 1.34089 1.35395
#start diagonalization
#Res: E=-2.12418
#length of grad(E) = 0.000856287
#energy E = -2.12416
# alpha: 1.19125 1.34089 1.35295 
#ITER 9
#Get energy for R=0.9
#And alpha:1.19878 1.35051 1.35932
#start diagonalization
#Res: E=-2.12456
#Get energy for R=0.9
#And alpha:1.19978 1.35051 1.35932
#start diagonalization
#Res: E=-2.12457
#Get energy for R=0.9
#And alpha:1.19878 1.35151 1.35932
#start diagonalization
#Res: E=-2.12457
#Get energy for R=0.9
#And alpha:1.19878 1.35051 1.36032
#start diagonalization
#Res: E=-2.12457
#length of grad(E) = 0.000739973
#energy E = -2.12456
# alpha: 1.19878 1.35051 1.35932 
#ITER 10
#Get energy for R=0.9
#And alpha:1.20554 1.35937 1.36563
#start diagonalization
#Res: E=-2.12489
#Get energy for R=0.9
#And alpha:1.20654 1.35937 1.36563
#start diagonalization
#Res: E=-2.12491
#Get energy for R=0.9
#And alpha:1.20554 1.36037 1.36563
#start diagonalization
#Res: E=-2.12491
#Get energy for R=0.9
#And alpha:1.20554 1.35937 1.36663
#start diagonalization
#Res: E=-2.12491
#length of grad(E) = 0.000645024
#energy E = -2.12489
# alpha: 1.20554 1.35937 1.36563 
#ITER 11
#Get energy for R=0.9
#And alpha:1.2116 1.36755 1.37189
#start diagonalization
#Res: E=-2.12519
#Get energy for R=0.9
#And alpha:1.2126 1.36755 1.37189
#start diagonalization
#Res: E=-2.1252
#Get energy for R=0.9
#And alpha:1.2116 1.36855 1.37189
#start diagonalization
#Res: E=-2.12521
#Get energy for R=0.9
#And alpha:1.2116 1.36755 1.37289
#start diagonalization
#Res: E=-2.1252
#length of grad(E) = 0.000566905
#energy E = -2.12519
# alpha: 1.2116 1.36755 1.37189 
#ITER 12
#Get energy for R=0.9
#And alpha:1.21705 1.37511 1.37811
#start diagonalization
#Res: E=-2.12545
#Get energy for R=0.9
#And alpha:1.21805 1.37511 1.37811
#start diagonalization
#Res: E=-2.12546
#Get energy for R=0.9
#And alpha:1.21705 1.37611 1.37811
#start diagonalization
#Res: E=-2.12547
#Get energy for R=0.9
#And alpha:1.21705 1.37511 1.37911
#start diagonalization
#Res: E=-2.12547
#length of grad(E) = 0.000502179
#energy E = -2.12545
# alpha: 1.21705 1.37511 1.37811 
#ITER 13
#Get energy for R=0.9
#And alpha:1.22194 1.38212 1.38428
#start diagonalization
#Res: E=-2.12568
#Get energy for R=0.9
#And alpha:1.22294 1.38212 1.38428
#start diagonalization
#Res: E=-2.12569
#Get energy for R=0.9
#And alpha:1.22194 1.38312 1.38428
#start diagonalization
#Res: E=-2.1257
#Get energy for R=0.9
#And alpha:1.22194 1.38212 1.38528
#start diagonalization
#Res: E=-2.1257
#length of grad(E) = 0.000448206
#energy E = -2.12568
# alpha: 1.22194 1.38212 1.38428 
#ITER 14
#Get energy for R=0.9
#And alpha:1.22634 1.38863 1.3904
#start diagonalization
#Res: E=-2.12589
#Get energy for R=0.9
#And alpha:1.22734 1.38863 1.3904
#start diagonalization
#Res: E=-2.1259
#Get energy for R=0.9
#And alpha:1.22634 1.38963 1.3904
#start diagonalization
#Res: E=-2.1259
#Get energy for R=0.9
#And alpha:1.22634 1.38863 1.3914
#start diagonalization
#Res: E=-2.1259
#length of grad(E) = 0.000402929
#energy E = -2.12589
# alpha: 1.22634 1.38863 1.3904 
#ITER 15
#Get energy for R=0.9
#And alpha:1.2303 1.39467 1.39648
#start diagonalization
#Res: E=-2.12608
#Get energy for R=0.9
#And alpha:1.2313 1.39467 1.39648
#start diagonalization
#Res: E=-2.12609
#Get energy for R=0.9
#And alpha:1.2303 1.39567 1.39648
#start diagonalization
#Res: E=-2.12609
#Get energy for R=0.9
#And alpha:1.2303 1.39467 1.39748
#start diagonalization
#Res: E=-2.12609
#length of grad(E) = 0.000364733
#energy E = -2.12608
# alpha: 1.2303 1.39467 1.39648 
#ITER 16
#Get energy for R=0.9
#And alpha:1.23388 1.4003 1.4025
#start diagonalization
#Res: E=-2.12625
#Get energy for R=0.9
#And alpha:1.23488 1.4003 1.4025
#start diagonalization
#Res: E=-2.12625
#Get energy for R=0.9
#And alpha:1.23388 1.4013 1.4025
#start diagonalization
#Res: E=-2.12626
#Get energy for R=0.9
#And alpha:1.23388 1.4003 1.4035
#start diagonalization
#Res: E=-2.12626
#length of grad(E) = 0.000332333
#energy E = -2.12625
# alpha: 1.23388 1.4003 1.4025 
#ITER 17
#Get energy for R=0.9
#And alpha:1.2371 1.40553 1.40848
#start diagonalization
#Res: E=-2.1264
#Get energy for R=0.9
#And alpha:1.2381 1.40553 1.40848
#start diagonalization
#Res: E=-2.12641
#Get energy for R=0.9
#And alpha:1.2371 1.40653 1.40848
#start diagonalization
#Res: E=-2.12641
#Get energy for R=0.9
#And alpha:1.2371 1.40553 1.40948
#start diagonalization
#Res: E=-2.12641
#length of grad(E) = 0.000304703
#energy E = -2.1264
# alpha: 1.2371 1.40553 1.40848 
#ITER 18
#Get energy for R=0.9
#And alpha:1.24002 1.4104 1.41441
#start diagonalization
#Res: E=-2.12654
#Get energy for R=0.9
#And alpha:1.24102 1.4104 1.41441
#start diagonalization
#Res: E=-2.12655
#Get energy for R=0.9
#And alpha:1.24002 1.4114 1.41441
#start diagonalization
#Res: E=-2.12655
#Get energy for R=0.9
#And alpha:1.24002 1.4104 1.41541
#start diagonalization
#Res: E=-2.12656
#length of grad(E) = 0.000281017
#energy E = -2.12654
# alpha: 1.24002 1.4104 1.41441 
#ITER 19
#Get energy for R=0.9
#And alpha:1.24265 1.41494 1.42029
#start diagonalization
#Res: E=-2.12667
#Get energy for R=0.9
#And alpha:1.24365 1.41494 1.42029
#start diagonalization
#Res: E=-2.12668
#Get energy for R=0.9
#And alpha:1.24265 1.41594 1.42029
#start diagonalization
#Res: E=-2.12668
#Get energy for R=0.9
#And alpha:1.24265 1.41494 1.42129
#start diagonalization
#Res: E=-2.12669
#length of grad(E) = 0.000260606
#energy E = -2.12667
# alpha: 1.24265 1.41494 1.42029 
#ITER 20
#Get energy for R=0.9
#And alpha:1.24504 1.41917 1.42612
#start diagonalization
#Res: E=-2.1268
#Get energy for R=0.9
#And alpha:1.24604 1.41917 1.42612
#start diagonalization
#Res: E=-2.1268
#Get energy for R=0.9
#And alpha:1.24504 1.42017 1.42612
#start diagonalization
#Res: E=-2.1268
#Get energy for R=0.9
#And alpha:1.24504 1.41917 1.42712
#start diagonalization
#Res: E=-2.12681
#length of grad(E) = 0.000242924
#energy E = -2.1268
# alpha: 1.24504 1.41917 1.42612 
#ITER 21
#Get energy for R=0.9
#And alpha:1.24721 1.42312 1.43191
#start diagonalization
#Res: E=-2.12691
#Get energy for R=0.9
#And alpha:1.24821 1.42312 1.43191
#start diagonalization
#Res: E=-2.12691
#Get energy for R=0.9
#And alpha:1.24721 1.42412 1.43191
#start diagonalization
#Res: E=-2.12692
#Get energy for R=0.9
#And alpha:1.24721 1.42312 1.43291
#start diagonalization
#Res: E=-2.12692
#length of grad(E) = 0.000227527
#energy E = -2.12691
# alpha: 1.24721 1.42312 1.43191 
#ITER 22
#Get energy for R=0.9
#And alpha:1.24918 1.4268 1.43764
#start diagonalization
#Res: E=-2.12701
#Get energy for R=0.9
#And alpha:1.25018 1.4268 1.43764
#start diagonalization
#Res: E=-2.12702
#Get energy for R=0.9
#And alpha:1.24918 1.4278 1.43764
#start diagonalization
#Res: E=-2.12702
#Get energy for R=0.9
#And alpha:1.24918 1.4268 1.43864
#start diagonalization
#Res: E=-2.12703
#length of grad(E) = 0.000214048
#energy E = -2.12701
# alpha: 1.24918 1.4268 1.43764 
#ITER 23
#Get energy for R=0.9
#And alpha:1.25097 1.43024 1.44332
#start diagonalization
#Res: E=-2.12711
#Get energy for R=0.9
#And alpha:1.25197 1.43024 1.44332
#start diagonalization
#Res: E=-2.12712
#Get energy for R=0.9
#And alpha:1.25097 1.43124 1.44332
#start diagonalization
#Res: E=-2.12712
#Get energy for R=0.9
#And alpha:1.25097 1.43024 1.44432
#start diagonalization
#Res: E=-2.12713
#length of grad(E) = 0.000202186
#energy E = -2.12711
# alpha: 1.25097 1.43024 1.44332 
#ITER 24
#Get energy for R=0.9
#And alpha:1.2526 1.43344 1.44896
#start diagonalization
#Res: E=-2.12721
#Get energy for R=0.9
#And alpha:1.2536 1.43344 1.44896
#start diagonalization
#Res: E=-2.12721
#Get energy for R=0.9
#And alpha:1.2526 1.43444 1.44896
#start diagonalization
#Res: E=-2.12722
#Get energy for R=0.9
#And alpha:1.2526 1.43344 1.44996
#start diagonalization
#Res: E=-2.12722
#length of grad(E) = 0.000191691
#energy E = -2.12721
# alpha: 1.2526 1.43344 1.44896 
#ITER 25
#Get energy for R=0.9
#And alpha:1.25409 1.43643 1.45454
#start diagonalization
#Res: E=-2.1273
#Get energy for R=0.9
#And alpha:1.25509 1.43643 1.45454
#start diagonalization
#Res: E=-2.1273
#Get energy for R=0.9
#And alpha:1.25409 1.43743 1.45454
#start diagonalization
#Res: E=-2.1273
#Get energy for R=0.9
#And alpha:1.25409 1.43643 1.45554
#start diagonalization
#Res: E=-2.12731
#length of grad(E) = 0.000182356
#energy E = -2.1273
# alpha: 1.25409 1.43643 1.45454 
#ITER 26
#Get energy for R=0.9
#And alpha:1.25545 1.43923 1.46008
#start diagonalization
#Res: E=-2.12738
#Get energy for R=0.9
#And alpha:1.25645 1.43923 1.46008
#start diagonalization
#Res: E=-2.12739
#Get energy for R=0.9
#And alpha:1.25545 1.44023 1.46008
#start diagonalization
#Res: E=-2.12739
#Get energy for R=0.9
#And alpha:1.25545 1.43923 1.46108
#start diagonalization
#Res: E=-2.1274
#length of grad(E) = 0.000174009
#energy E = -2.12738
# alpha: 1.25545 1.43923 1.46008 
#ITER 27
#Get energy for R=0.9
#And alpha:1.2567 1.44184 1.46556
#start diagonalization
#Res: E=-2.12747
#Get energy for R=0.9
#And alpha:1.2577 1.44184 1.46556
#start diagonalization
#Res: E=-2.12747
#Get energy for R=0.9
#And alpha:1.2567 1.44284 1.46556
#start diagonalization
#Res: E=-2.12747
#Get energy for R=0.9
#And alpha:1.2567 1.44184 1.46656
#start diagonalization
#Res: E=-2.12748
#length of grad(E) = 0.000166506
#energy E = -2.12747
# alpha: 1.2567 1.44184 1.46556 
#ITER 28
#Get energy for R=0.9
#And alpha:1.25785 1.44428 1.471
#start diagonalization
#Res: E=-2.12754
#Get energy for R=0.9
#And alpha:1.25885 1.44428 1.471
#start diagonalization
#Res: E=-2.12755
#Get energy for R=0.9
#And alpha:1.25785 1.44528 1.471
#start diagonalization
#Res: E=-2.12755
#Get energy for R=0.9
#And alpha:1.25785 1.44428 1.472
#start diagonalization
#Res: E=-2.12756
#length of grad(E) = 0.000159726
#energy E = -2.12754
# alpha: 1.25785 1.44428 1.471 
#ITER 29
#Get energy for R=0.9
#And alpha:1.2589 1.44655 1.47638
