%!PS-Adobe-2.0 EPSF-2.0
%%Title: QMTE.eps
%%Creator: gnuplot 5.0 patchlevel 3
%%CreationDate: Tue Apr 30 11:48:48 2019
%%DocumentFonts: (atend)
%%BoundingBox: 50 50 410 302
%%EndComments
%%BeginProlog
/gnudict 256 dict def
gnudict begin
%
% The following true/false flags may be edited by hand if desired.
% The unit line width and grayscale image gamma correction may also be changed.
%
/Color true def
/Blacktext false def
/Solid false def
/Dashlength 1 def
/Landscape false def
/Level1 false def
/Level3 false def
/Rounded false def
/ClipToBoundingBox false def
/SuppressPDFMark false def
/TransparentPatterns false def
/gnulinewidth 5.000 def
/userlinewidth gnulinewidth def
/Gamma 1.0 def
/BackgroundColor {-1.000 -1.000 -1.000} def
%
/vshift -46 def
/dl1 {
  10.0 Dashlength userlinewidth gnulinewidth div mul mul mul
  Rounded { currentlinewidth 0.75 mul sub dup 0 le { pop 0.01 } if } if
} def
/dl2 {
  10.0 Dashlength userlinewidth gnulinewidth div mul mul mul
  Rounded { currentlinewidth 0.75 mul add } if
} def
/hpt_ 31.5 def
/vpt_ 31.5 def
/hpt hpt_ def
/vpt vpt_ def
/doclip {
  ClipToBoundingBox {
    newpath 50 50 moveto 410 50 lineto 410 302 lineto 50 302 lineto closepath
    clip
  } if
} def
%
% Gnuplot Prolog Version 5.1 (Oct 2015)
%
%/SuppressPDFMark true def
%
/M {moveto} bind def
/L {lineto} bind def
/R {rmoveto} bind def
/V {rlineto} bind def
/N {newpath moveto} bind def
/Z {closepath} bind def
/C {setrgbcolor} bind def
/f {rlineto fill} bind def
/g {setgray} bind def
/Gshow {show} def   % May be redefined later in the file to support UTF-8
/vpt2 vpt 2 mul def
/hpt2 hpt 2 mul def
/Lshow {currentpoint stroke M 0 vshift R 
	Blacktext {gsave 0 setgray textshow grestore} {textshow} ifelse} def
/Rshow {currentpoint stroke M dup stringwidth pop neg vshift R
	Blacktext {gsave 0 setgray textshow grestore} {textshow} ifelse} def
/Cshow {currentpoint stroke M dup stringwidth pop -2 div vshift R 
	Blacktext {gsave 0 setgray textshow grestore} {textshow} ifelse} def
/UP {dup vpt_ mul /vpt exch def hpt_ mul /hpt exch def
  /hpt2 hpt 2 mul def /vpt2 vpt 2 mul def} def
/DL {Color {setrgbcolor Solid {pop []} if 0 setdash}
 {pop pop pop 0 setgray Solid {pop []} if 0 setdash} ifelse} def
/BL {stroke userlinewidth 2 mul setlinewidth
	Rounded {1 setlinejoin 1 setlinecap} if} def
/AL {stroke userlinewidth 2 div setlinewidth
	Rounded {1 setlinejoin 1 setlinecap} if} def
/UL {dup gnulinewidth mul /userlinewidth exch def
	dup 1 lt {pop 1} if 10 mul /udl exch def} def
/PL {stroke userlinewidth setlinewidth
	Rounded {1 setlinejoin 1 setlinecap} if} def
3.8 setmiterlimit
% Classic Line colors (version 5.0)
/LCw {1 1 1} def
/LCb {0 0 0} def
/LCa {0 0 0} def
/LC0 {1 0 0} def
/LC1 {0 1 0} def
/LC2 {0 0 1} def
/LC3 {1 0 1} def
/LC4 {0 1 1} def
/LC5 {1 1 0} def
/LC6 {0 0 0} def
/LC7 {1 0.3 0} def
/LC8 {0.5 0.5 0.5} def
% Default dash patterns (version 5.0)
/LTB {BL [] LCb DL} def
/LTw {PL [] 1 setgray} def
/LTb {PL [] LCb DL} def
/LTa {AL [1 udl mul 2 udl mul] 0 setdash LCa setrgbcolor} def
/LT0 {PL [] LC0 DL} def
/LT1 {PL [2 dl1 3 dl2] LC1 DL} def
/LT2 {PL [1 dl1 1.5 dl2] LC2 DL} def
/LT3 {PL [6 dl1 2 dl2 1 dl1 2 dl2] LC3 DL} def
/LT4 {PL [1 dl1 2 dl2 6 dl1 2 dl2 1 dl1 2 dl2] LC4 DL} def
/LT5 {PL [4 dl1 2 dl2] LC5 DL} def
/LT6 {PL [1.5 dl1 1.5 dl2 1.5 dl1 1.5 dl2 1.5 dl1 6 dl2] LC6 DL} def
/LT7 {PL [3 dl1 3 dl2 1 dl1 3 dl2] LC7 DL} def
/LT8 {PL [2 dl1 2 dl2 2 dl1 6 dl2] LC8 DL} def
/SL {[] 0 setdash} def
/Pnt {stroke [] 0 setdash gsave 1 setlinecap M 0 0 V stroke grestore} def
/Dia {stroke [] 0 setdash 2 copy vpt add M
  hpt neg vpt neg V hpt vpt neg V
  hpt vpt V hpt neg vpt V closepath stroke
  Pnt} def
/Pls {stroke [] 0 setdash vpt sub M 0 vpt2 V
  currentpoint stroke M
  hpt neg vpt neg R hpt2 0 V stroke
 } def
/Box {stroke [] 0 setdash 2 copy exch hpt sub exch vpt add M
  0 vpt2 neg V hpt2 0 V 0 vpt2 V
  hpt2 neg 0 V closepath stroke
  Pnt} def
/Crs {stroke [] 0 setdash exch hpt sub exch vpt add M
  hpt2 vpt2 neg V currentpoint stroke M
  hpt2 neg 0 R hpt2 vpt2 V stroke} def
/TriU {stroke [] 0 setdash 2 copy vpt 1.12 mul add M
  hpt neg vpt -1.62 mul V
  hpt 2 mul 0 V
  hpt neg vpt 1.62 mul V closepath stroke
  Pnt} def
/Star {2 copy Pls Crs} def
/BoxF {stroke [] 0 setdash exch hpt sub exch vpt add M
  0 vpt2 neg V hpt2 0 V 0 vpt2 V
  hpt2 neg 0 V closepath fill} def
/TriUF {stroke [] 0 setdash vpt 1.12 mul add M
  hpt neg vpt -1.62 mul V
  hpt 2 mul 0 V
  hpt neg vpt 1.62 mul V closepath fill} def
/TriD {stroke [] 0 setdash 2 copy vpt 1.12 mul sub M
  hpt neg vpt 1.62 mul V
  hpt 2 mul 0 V
  hpt neg vpt -1.62 mul V closepath stroke
  Pnt} def
/TriDF {stroke [] 0 setdash vpt 1.12 mul sub M
  hpt neg vpt 1.62 mul V
  hpt 2 mul 0 V
  hpt neg vpt -1.62 mul V closepath fill} def
/DiaF {stroke [] 0 setdash vpt add M
  hpt neg vpt neg V hpt vpt neg V
  hpt vpt V hpt neg vpt V closepath fill} def
/Pent {stroke [] 0 setdash 2 copy gsave
  translate 0 hpt M 4 {72 rotate 0 hpt L} repeat
  closepath stroke grestore Pnt} def
/PentF {stroke [] 0 setdash gsave
  translate 0 hpt M 4 {72 rotate 0 hpt L} repeat
  closepath fill grestore} def
/Circle {stroke [] 0 setdash 2 copy
  hpt 0 360 arc stroke Pnt} def
/CircleF {stroke [] 0 setdash hpt 0 360 arc fill} def
/C0 {BL [] 0 setdash 2 copy moveto vpt 90 450 arc} bind def
/C1 {BL [] 0 setdash 2 copy moveto
	2 copy vpt 0 90 arc closepath fill
	vpt 0 360 arc closepath} bind def
/C2 {BL [] 0 setdash 2 copy moveto
	2 copy vpt 90 180 arc closepath fill
	vpt 0 360 arc closepath} bind def
/C3 {BL [] 0 setdash 2 copy moveto
	2 copy vpt 0 180 arc closepath fill
	vpt 0 360 arc closepath} bind def
/C4 {BL [] 0 setdash 2 copy moveto
	2 copy vpt 180 270 arc closepath fill
	vpt 0 360 arc closepath} bind def
/C5 {BL [] 0 setdash 2 copy moveto
	2 copy vpt 0 90 arc
	2 copy moveto
	2 copy vpt 180 270 arc closepath fill
	vpt 0 360 arc} bind def
/C6 {BL [] 0 setdash 2 copy moveto
	2 copy vpt 90 270 arc closepath fill
	vpt 0 360 arc closepath} bind def
/C7 {BL [] 0 setdash 2 copy moveto
	2 copy vpt 0 270 arc closepath fill
	vpt 0 360 arc closepath} bind def
/C8 {BL [] 0 setdash 2 copy moveto
	2 copy vpt 270 360 arc closepath fill
	vpt 0 360 arc closepath} bind def
/C9 {BL [] 0 setdash 2 copy moveto
	2 copy vpt 270 450 arc closepath fill
	vpt 0 360 arc closepath} bind def
/C10 {BL [] 0 setdash 2 copy 2 copy moveto vpt 270 360 arc closepath fill
	2 copy moveto
	2 copy vpt 90 180 arc closepath fill
	vpt 0 360 arc closepath} bind def
/C11 {BL [] 0 setdash 2 copy moveto
	2 copy vpt 0 180 arc closepath fill
	2 copy moveto
	2 copy vpt 270 360 arc closepath fill
	vpt 0 360 arc closepath} bind def
/C12 {BL [] 0 setdash 2 copy moveto
	2 copy vpt 180 360 arc closepath fill
	vpt 0 360 arc closepath} bind def
/C13 {BL [] 0 setdash 2 copy moveto
	2 copy vpt 0 90 arc closepath fill
	2 copy moveto
	2 copy vpt 180 360 arc closepath fill
	vpt 0 360 arc closepath} bind def
/C14 {BL [] 0 setdash 2 copy moveto
	2 copy vpt 90 360 arc closepath fill
	vpt 0 360 arc} bind def
/C15 {BL [] 0 setdash 2 copy vpt 0 360 arc closepath fill
	vpt 0 360 arc closepath} bind def
/Rec {newpath 4 2 roll moveto 1 index 0 rlineto 0 exch rlineto
	neg 0 rlineto closepath} bind def
/Square {dup Rec} bind def
/Bsquare {vpt sub exch vpt sub exch vpt2 Square} bind def
/S0 {BL [] 0 setdash 2 copy moveto 0 vpt rlineto BL Bsquare} bind def
/S1 {BL [] 0 setdash 2 copy vpt Square fill Bsquare} bind def
/S2 {BL [] 0 setdash 2 copy exch vpt sub exch vpt Square fill Bsquare} bind def
/S3 {BL [] 0 setdash 2 copy exch vpt sub exch vpt2 vpt Rec fill Bsquare} bind def
/S4 {BL [] 0 setdash 2 copy exch vpt sub exch vpt sub vpt Square fill Bsquare} bind def
/S5 {BL [] 0 setdash 2 copy 2 copy vpt Square fill
	exch vpt sub exch vpt sub vpt Square fill Bsquare} bind def
/S6 {BL [] 0 setdash 2 copy exch vpt sub exch vpt sub vpt vpt2 Rec fill Bsquare} bind def
/S7 {BL [] 0 setdash 2 copy exch vpt sub exch vpt sub vpt vpt2 Rec fill
	2 copy vpt Square fill Bsquare} bind def
/S8 {BL [] 0 setdash 2 copy vpt sub vpt Square fill Bsquare} bind def
/S9 {BL [] 0 setdash 2 copy vpt sub vpt vpt2 Rec fill Bsquare} bind def
/S10 {BL [] 0 setdash 2 copy vpt sub vpt Square fill 2 copy exch vpt sub exch vpt Square fill
	Bsquare} bind def
/S11 {BL [] 0 setdash 2 copy vpt sub vpt Square fill 2 copy exch vpt sub exch vpt2 vpt Rec fill
	Bsquare} bind def
/S12 {BL [] 0 setdash 2 copy exch vpt sub exch vpt sub vpt2 vpt Rec fill Bsquare} bind def
/S13 {BL [] 0 setdash 2 copy exch vpt sub exch vpt sub vpt2 vpt Rec fill
	2 copy vpt Square fill Bsquare} bind def
/S14 {BL [] 0 setdash 2 copy exch vpt sub exch vpt sub vpt2 vpt Rec fill
	2 copy exch vpt sub exch vpt Square fill Bsquare} bind def
/S15 {BL [] 0 setdash 2 copy Bsquare fill Bsquare} bind def
/D0 {gsave translate 45 rotate 0 0 S0 stroke grestore} bind def
/D1 {gsave translate 45 rotate 0 0 S1 stroke grestore} bind def
/D2 {gsave translate 45 rotate 0 0 S2 stroke grestore} bind def
/D3 {gsave translate 45 rotate 0 0 S3 stroke grestore} bind def
/D4 {gsave translate 45 rotate 0 0 S4 stroke grestore} bind def
/D5 {gsave translate 45 rotate 0 0 S5 stroke grestore} bind def
/D6 {gsave translate 45 rotate 0 0 S6 stroke grestore} bind def
/D7 {gsave translate 45 rotate 0 0 S7 stroke grestore} bind def
/D8 {gsave translate 45 rotate 0 0 S8 stroke grestore} bind def
/D9 {gsave translate 45 rotate 0 0 S9 stroke grestore} bind def
/D10 {gsave translate 45 rotate 0 0 S10 stroke grestore} bind def
/D11 {gsave translate 45 rotate 0 0 S11 stroke grestore} bind def
/D12 {gsave translate 45 rotate 0 0 S12 stroke grestore} bind def
/D13 {gsave translate 45 rotate 0 0 S13 stroke grestore} bind def
/D14 {gsave translate 45 rotate 0 0 S14 stroke grestore} bind def
/D15 {gsave translate 45 rotate 0 0 S15 stroke grestore} bind def
/DiaE {stroke [] 0 setdash vpt add M
  hpt neg vpt neg V hpt vpt neg V
  hpt vpt V hpt neg vpt V closepath stroke} def
/BoxE {stroke [] 0 setdash exch hpt sub exch vpt add M
  0 vpt2 neg V hpt2 0 V 0 vpt2 V
  hpt2 neg 0 V closepath stroke} def
/TriUE {stroke [] 0 setdash vpt 1.12 mul add M
  hpt neg vpt -1.62 mul V
  hpt 2 mul 0 V
  hpt neg vpt 1.62 mul V closepath stroke} def
/TriDE {stroke [] 0 setdash vpt 1.12 mul sub M
  hpt neg vpt 1.62 mul V
  hpt 2 mul 0 V
  hpt neg vpt -1.62 mul V closepath stroke} def
/PentE {stroke [] 0 setdash gsave
  translate 0 hpt M 4 {72 rotate 0 hpt L} repeat
  closepath stroke grestore} def
/CircE {stroke [] 0 setdash 
  hpt 0 360 arc stroke} def
/Opaque {gsave closepath 1 setgray fill grestore 0 setgray closepath} def
/DiaW {stroke [] 0 setdash vpt add M
  hpt neg vpt neg V hpt vpt neg V
  hpt vpt V hpt neg vpt V Opaque stroke} def
/BoxW {stroke [] 0 setdash exch hpt sub exch vpt add M
  0 vpt2 neg V hpt2 0 V 0 vpt2 V
  hpt2 neg 0 V Opaque stroke} def
/TriUW {stroke [] 0 setdash vpt 1.12 mul add M
  hpt neg vpt -1.62 mul V
  hpt 2 mul 0 V
  hpt neg vpt 1.62 mul V Opaque stroke} def
/TriDW {stroke [] 0 setdash vpt 1.12 mul sub M
  hpt neg vpt 1.62 mul V
  hpt 2 mul 0 V
  hpt neg vpt -1.62 mul V Opaque stroke} def
/PentW {stroke [] 0 setdash gsave
  translate 0 hpt M 4 {72 rotate 0 hpt L} repeat
  Opaque stroke grestore} def
/CircW {stroke [] 0 setdash 
  hpt 0 360 arc Opaque stroke} def
/BoxFill {gsave Rec 1 setgray fill grestore} def
/Density {
  /Fillden exch def
  currentrgbcolor
  /ColB exch def /ColG exch def /ColR exch def
  /ColR ColR Fillden mul Fillden sub 1 add def
  /ColG ColG Fillden mul Fillden sub 1 add def
  /ColB ColB Fillden mul Fillden sub 1 add def
  ColR ColG ColB setrgbcolor} def
/BoxColFill {gsave Rec PolyFill} def
/PolyFill {gsave Density fill grestore grestore} def
/h {rlineto rlineto rlineto gsave closepath fill grestore} bind def
%
% PostScript Level 1 Pattern Fill routine for rectangles
% Usage: x y w h s a XX PatternFill
%	x,y = lower left corner of box to be filled
%	w,h = width and height of box
%	  a = angle in degrees between lines and x-axis
%	 XX = 0/1 for no/yes cross-hatch
%
/PatternFill {gsave /PFa [ 9 2 roll ] def
  PFa 0 get PFa 2 get 2 div add PFa 1 get PFa 3 get 2 div add translate
  PFa 2 get -2 div PFa 3 get -2 div PFa 2 get PFa 3 get Rec
  TransparentPatterns {} {gsave 1 setgray fill grestore} ifelse
  clip
  currentlinewidth 0.5 mul setlinewidth
  /PFs PFa 2 get dup mul PFa 3 get dup mul add sqrt def
  0 0 M PFa 5 get rotate PFs -2 div dup translate
  0 1 PFs PFa 4 get div 1 add floor cvi
	{PFa 4 get mul 0 M 0 PFs V} for
  0 PFa 6 get ne {
	0 1 PFs PFa 4 get div 1 add floor cvi
	{PFa 4 get mul 0 2 1 roll M PFs 0 V} for
 } if
  stroke grestore} def
%
/languagelevel where
 {pop languagelevel} {1} ifelse
dup 2 lt
	{/InterpretLevel1 true def
	 /InterpretLevel3 false def}
	{/InterpretLevel1 Level1 def
	 2 gt
	    {/InterpretLevel3 Level3 def}
	    {/InterpretLevel3 false def}
	 ifelse }
 ifelse
%
% PostScript level 2 pattern fill definitions
%
/Level2PatternFill {
/Tile8x8 {/PaintType 2 /PatternType 1 /TilingType 1 /BBox [0 0 8 8] /XStep 8 /YStep 8}
	bind def
/KeepColor {currentrgbcolor [/Pattern /DeviceRGB] setcolorspace} bind def
<< Tile8x8
 /PaintProc {0.5 setlinewidth pop 0 0 M 8 8 L 0 8 M 8 0 L stroke} 
>> matrix makepattern
/Pat1 exch def
<< Tile8x8
 /PaintProc {0.5 setlinewidth pop 0 0 M 8 8 L 0 8 M 8 0 L stroke
	0 4 M 4 8 L 8 4 L 4 0 L 0 4 L stroke}
>> matrix makepattern
/Pat2 exch def
<< Tile8x8
 /PaintProc {0.5 setlinewidth pop 0 0 M 0 8 L
	8 8 L 8 0 L 0 0 L fill}
>> matrix makepattern
/Pat3 exch def
<< Tile8x8
 /PaintProc {0.5 setlinewidth pop -4 8 M 8 -4 L
	0 12 M 12 0 L stroke}
>> matrix makepattern
/Pat4 exch def
<< Tile8x8
 /PaintProc {0.5 setlinewidth pop -4 0 M 8 12 L
	0 -4 M 12 8 L stroke}
>> matrix makepattern
/Pat5 exch def
<< Tile8x8
 /PaintProc {0.5 setlinewidth pop -2 8 M 4 -4 L
	0 12 M 8 -4 L 4 12 M 10 0 L stroke}
>> matrix makepattern
/Pat6 exch def
<< Tile8x8
 /PaintProc {0.5 setlinewidth pop -2 0 M 4 12 L
	0 -4 M 8 12 L 4 -4 M 10 8 L stroke}
>> matrix makepattern
/Pat7 exch def
<< Tile8x8
 /PaintProc {0.5 setlinewidth pop 8 -2 M -4 4 L
	12 0 M -4 8 L 12 4 M 0 10 L stroke}
>> matrix makepattern
/Pat8 exch def
<< Tile8x8
 /PaintProc {0.5 setlinewidth pop 0 -2 M 12 4 L
	-4 0 M 12 8 L -4 4 M 8 10 L stroke}
>> matrix makepattern
/Pat9 exch def
/Pattern1 {PatternBgnd KeepColor Pat1 setpattern} bind def
/Pattern2 {PatternBgnd KeepColor Pat2 setpattern} bind def
/Pattern3 {PatternBgnd KeepColor Pat3 setpattern} bind def
/Pattern4 {PatternBgnd KeepColor Landscape {Pat5} {Pat4} ifelse setpattern} bind def
/Pattern5 {PatternBgnd KeepColor Landscape {Pat4} {Pat5} ifelse setpattern} bind def
/Pattern6 {PatternBgnd KeepColor Landscape {Pat9} {Pat6} ifelse setpattern} bind def
/Pattern7 {PatternBgnd KeepColor Landscape {Pat8} {Pat7} ifelse setpattern} bind def
} def
%
%
%End of PostScript Level 2 code
%
/PatternBgnd {
  TransparentPatterns {} {gsave 1 setgray fill grestore} ifelse
} def
%
% Substitute for Level 2 pattern fill codes with
% grayscale if Level 2 support is not selected.
%
/Level1PatternFill {
/Pattern1 {0.250 Density} bind def
/Pattern2 {0.500 Density} bind def
/Pattern3 {0.750 Density} bind def
/Pattern4 {0.125 Density} bind def
/Pattern5 {0.375 Density} bind def
/Pattern6 {0.625 Density} bind def
/Pattern7 {0.875 Density} bind def
} def
%
% Now test for support of Level 2 code
%
Level1 {Level1PatternFill} {Level2PatternFill} ifelse
%
/Symbol-Oblique /Symbol findfont [1 0 .167 1 0 0] makefont
dup length dict begin {1 index /FID eq {pop pop} {def} ifelse} forall
currentdict end definefont pop
%
/MFshow {
   { dup 5 get 3 ge
     { 5 get 3 eq {gsave} {grestore} ifelse }
     {dup dup 0 get findfont exch 1 get scalefont setfont
     [ currentpoint ] exch dup 2 get 0 exch R dup 5 get 2 ne {dup dup 6
     get exch 4 get {textshow} {stringwidth pop 0 R} ifelse }if dup 5 get 0 eq
     {dup 3 get {2 get neg 0 exch R pop} {pop aload pop M} ifelse} {dup 5
     get 1 eq {dup 2 get exch dup 3 get exch 6 get stringwidth pop -2 div
     dup 0 R} {dup 6 get stringwidth pop -2 div 0 R 6 get
     textshow 2 index {aload pop M neg 3 -1 roll neg R pop pop} {pop pop pop
     pop aload pop M} ifelse }ifelse }ifelse }
     ifelse }
   forall} def
/Gswidth {dup type /stringtype eq {stringwidth} {pop (n) stringwidth} ifelse} def
/MFwidth {0 exch { dup 5 get 3 ge { 5 get 3 eq { 0 } { pop } ifelse }
 {dup 3 get{dup dup 0 get findfont exch 1 get scalefont setfont
     6 get Gswidth pop add} {pop} ifelse} ifelse} forall} def
/MLshow { currentpoint stroke M
  0 exch R
  Blacktext {gsave 0 setgray MFshow grestore} {MFshow} ifelse } bind def
/MRshow { currentpoint stroke M
  exch dup MFwidth neg 3 -1 roll R
  Blacktext {gsave 0 setgray MFshow grestore} {MFshow} ifelse } bind def
/MCshow { currentpoint stroke M
  exch dup MFwidth -2 div 3 -1 roll R
  Blacktext {gsave 0 setgray MFshow grestore} {MFshow} ifelse } bind def
/XYsave    { [( ) 1 2 true false 3 ()] } bind def
/XYrestore { [( ) 1 2 true false 4 ()] } bind def
Level1 SuppressPDFMark or 
{} {
/SDict 10 dict def
systemdict /pdfmark known not {
  userdict /pdfmark systemdict /cleartomark get put
} if
SDict begin [
  /Title (QMTE.eps)
  /Subject (gnuplot plot)
  /Creator (gnuplot 5.0 patchlevel 3)
  /Author (michal)
%  /Producer (gnuplot)
%  /Keywords ()
  /CreationDate (Tue Apr 30 11:48:48 2019)
  /DOCINFO pdfmark
end
} ifelse
%
% Support for boxed text - Ethan A Merritt May 2005
%
/InitTextBox { userdict /TBy2 3 -1 roll put userdict /TBx2 3 -1 roll put
           userdict /TBy1 3 -1 roll put userdict /TBx1 3 -1 roll put
	   /Boxing true def } def
/ExtendTextBox { Boxing
    { gsave dup false charpath pathbbox
      dup TBy2 gt {userdict /TBy2 3 -1 roll put} {pop} ifelse
      dup TBx2 gt {userdict /TBx2 3 -1 roll put} {pop} ifelse
      dup TBy1 lt {userdict /TBy1 3 -1 roll put} {pop} ifelse
      dup TBx1 lt {userdict /TBx1 3 -1 roll put} {pop} ifelse
      grestore } if } def
/PopTextBox { newpath TBx1 TBxmargin sub TBy1 TBymargin sub M
               TBx1 TBxmargin sub TBy2 TBymargin add L
	       TBx2 TBxmargin add TBy2 TBymargin add L
	       TBx2 TBxmargin add TBy1 TBymargin sub L closepath } def
/DrawTextBox { PopTextBox stroke /Boxing false def} def
/FillTextBox { gsave PopTextBox 1 1 1 setrgbcolor fill grestore /Boxing false def} def
0 0 0 0 InitTextBox
/TBxmargin 20 def
/TBymargin 20 def
/Boxing false def
/textshow { ExtendTextBox Gshow } def
%
% redundant definitions for compatibility with prologue.ps older than 5.0.2
/LTB {BL [] LCb DL} def
/LTb {PL [] LCb DL} def
end
%%EndProlog
%%Page: 1 1
gnudict begin
gsave
doclip
50 50 translate
0.050 0.050 scale
0 setgray
newpath
(Helvetica) findfont 140 scalefont setfont
BackgroundColor 0 lt 3 1 roll 0 lt exch 0 lt or or not {BackgroundColor C 1.000 0 0 7200.00 5040.00 BoxColFill} if
1.000 UL
LTb
LCb setrgbcolor
757 588 M
63 0 V
6056 0 R
-63 0 V
stroke
673 588 M
[ [(Helvetica) 140.0 0.0 true true 0 (-4)]
] -46.7 MRshow
1.000 UL
LTb
LCb setrgbcolor
757 1123 M
63 0 V
6056 0 R
-63 0 V
stroke
673 1123 M
[ [(Helvetica) 140.0 0.0 true true 0 (-3.5)]
] -46.7 MRshow
1.000 UL
LTb
LCb setrgbcolor
757 1659 M
63 0 V
6056 0 R
-63 0 V
stroke
673 1659 M
[ [(Helvetica) 140.0 0.0 true true 0 (-3)]
] -46.7 MRshow
1.000 UL
LTb
LCb setrgbcolor
757 2194 M
63 0 V
6056 0 R
-63 0 V
stroke
673 2194 M
[ [(Helvetica) 140.0 0.0 true true 0 (-2.5)]
] -46.7 MRshow
1.000 UL
LTb
LCb setrgbcolor
757 2730 M
63 0 V
6056 0 R
-63 0 V
stroke
673 2730 M
[ [(Helvetica) 140.0 0.0 true true 0 (-2)]
] -46.7 MRshow
1.000 UL
LTb
LCb setrgbcolor
757 3265 M
63 0 V
6056 0 R
-63 0 V
stroke
673 3265 M
[ [(Helvetica) 140.0 0.0 true true 0 (-1.5)]
] -46.7 MRshow
1.000 UL
LTb
LCb setrgbcolor
757 3800 M
63 0 V
6056 0 R
-63 0 V
stroke
673 3800 M
[ [(Helvetica) 140.0 0.0 true true 0 (-1)]
] -46.7 MRshow
1.000 UL
LTb
LCb setrgbcolor
757 4336 M
63 0 V
6056 0 R
-63 0 V
stroke
673 4336 M
[ [(Helvetica) 140.0 0.0 true true 0 (-0.5)]
] -46.7 MRshow
1.000 UL
LTb
LCb setrgbcolor
757 4871 M
63 0 V
6056 0 R
-63 0 V
stroke
673 4871 M
[ [(Helvetica) 140.0 0.0 true true 0 ( 0)]
] -46.7 MRshow
1.000 UL
LTb
LCb setrgbcolor
757 588 M
0 63 V
0 4220 R
0 -63 V
stroke
757 448 M
[ [(Helvetica) 140.0 0.0 true true 0 ( 0)]
] -46.7 MCshow
1.000 UL
LTb
LCb setrgbcolor
1777 588 M
0 63 V
0 4220 R
0 -63 V
stroke
1777 448 M
[ [(Helvetica) 140.0 0.0 true true 0 ( 1)]
] -46.7 MCshow
1.000 UL
LTb
LCb setrgbcolor
2797 588 M
0 63 V
0 4220 R
0 -63 V
stroke
2797 448 M
[ [(Helvetica) 140.0 0.0 true true 0 ( 2)]
] -46.7 MCshow
1.000 UL
LTb
LCb setrgbcolor
3817 588 M
0 63 V
0 4220 R
0 -63 V
stroke
3817 448 M
[ [(Helvetica) 140.0 0.0 true true 0 ( 3)]
] -46.7 MCshow
1.000 UL
LTb
LCb setrgbcolor
4836 588 M
0 63 V
0 4220 R
0 -63 V
stroke
4836 448 M
[ [(Helvetica) 140.0 0.0 true true 0 ( 4)]
] -46.7 MCshow
1.000 UL
LTb
LCb setrgbcolor
5856 588 M
0 63 V
0 4220 R
0 -63 V
stroke
5856 448 M
[ [(Helvetica) 140.0 0.0 true true 0 ( 5)]
] -46.7 MCshow
1.000 UL
LTb
LCb setrgbcolor
6876 588 M
0 63 V
0 4220 R
0 -63 V
stroke
6876 448 M
[ [(Helvetica) 140.0 0.0 true true 0 ( 6)]
] -46.7 MCshow
1.000 UL
LTb
LCb setrgbcolor
1.000 UL
LTB
LCb setrgbcolor
757 4871 N
757 588 L
6119 0 V
0 4283 V
-6119 0 V
Z stroke
1.000 UP
1.500 UL
LTb
LT1
0.00 0.62 0.45 C 2215 588 M
0 4283 V
stroke
LTb
LT1
0.00 0.62 0.45 C 757 2413 M
8159 0 V
stroke
1.000 UL
LTb
[25.0 dl1 3.0 dl2 1.0 dl1 3.0 dl2 ] 0 setdash
LCb setrgbcolor
757 2730 M
8159 0 V
stroke
LTb
LCb setrgbcolor
LCb setrgbcolor
183 2729 M
currentpoint gsave translate -270 rotate 0 0 moveto
[ [(Helvetica) 140.0 0.0 true true 0 (E)]
[(Helvetica) 112.0 -42.0 true true 0 (G)]
[(Helvetica) 140.0 0.0 true true 0 ( [Ry])]
] -32.7 MCshow
grestore
LTb
LCb setrgbcolor
3816 238 M
[ [(Helvetica) 140.0 0.0 true true 0 (R [a)]
[(Helvetica) 112.0 -42.0 true true 0 (0)]
[(Helvetica) 140.0 0.0 true true 0 (])]
] -32.7 MCshow
LTb
% Begin plot #1
0.500 UL
LTb
1.00 0.00 0.00 C LCb setrgbcolor
6225 4738 M
[ [(Helvetica) 140.0 0.0 true true 0 (EDABI)]
] -46.7 MRshow
0.500 UL
LTb
1.00 0.00 0.00 C 6309 4738 M
399 0 V
1150 4871 M
1 -5 V
1 -13 V
1 -12 V
1 -12 V
1 -12 V
1 -12 V
1 -12 V
1 -12 V
1 -12 V
1 -12 V
1 -12 V
1 -11 V
1 -12 V
1 -11 V
1 -12 V
1 -11 V
1 -12 V
1 -11 V
1 -11 V
1 -11 V
1 -11 V
1 -11 V
1 -11 V
1 -11 V
1 -11 V
1 -11 V
1 -10 V
1 -11 V
1 -10 V
1 -11 V
1 -10 V
1 -11 V
1 -10 V
1 -10 V
1 -10 V
1 -11 V
1 -10 V
1 -10 V
1 -10 V
1 -10 V
1 -9 V
1 -10 V
1 -10 V
2 -10 V
1 -9 V
1 -10 V
1 -9 V
1 -10 V
1 -9 V
1 -10 V
1 -9 V
1 -9 V
1 -10 V
1 -9 V
1 -9 V
1 -9 V
1 -9 V
1 -9 V
1 -9 V
1 -9 V
1 -9 V
1 -8 V
1 -9 V
1 -9 V
1 -8 V
1 -9 V
1 -9 V
1 -8 V
1 -9 V
1 -8 V
1 -8 V
1 -9 V
1 -8 V
1 -8 V
1 -8 V
1 -8 V
1 -9 V
1 -8 V
1 -8 V
1 -8 V
1 -7 V
1 -8 V
1 -8 V
1 -8 V
1 -8 V
1 -8 V
1 -7 V
1 -8 V
1 -7 V
1 -8 V
1 -8 V
1 -7 V
1 -7 V
2 -8 V
1 -7 V
1 -8 V
1 -7 V
1 -7 V
1 -7 V
1 -7 V
1 -8 V
1 -7 V
stroke 1254 3913 M
1 -7 V
1 -7 V
1 -7 V
1 -7 V
1 -7 V
1 -7 V
1 -6 V
1 -7 V
1 -7 V
1 -7 V
1 -7 V
1 -6 V
1 -7 V
1 -6 V
1 -7 V
1 -7 V
1 -6 V
1 -7 V
1 -6 V
1 -6 V
1 -7 V
1 -6 V
1 -7 V
1 -6 V
1 -6 V
1 -6 V
1 -7 V
1 -6 V
1 -6 V
1 -6 V
1 -6 V
1 -6 V
1 -6 V
1 -6 V
1 -6 V
1 -6 V
1 -6 V
1 -6 V
1 -6 V
1 -5 V
1 -6 V
1 -6 V
2 -6 V
1 -5 V
1 -6 V
1 -6 V
1 -5 V
1 -6 V
1 -5 V
1 -6 V
1 -5 V
1 -6 V
1 -5 V
1 -6 V
1 -5 V
1 -5 V
1 -6 V
1 -5 V
1 -5 V
1 -6 V
1 -5 V
1 -5 V
1 -5 V
1 -6 V
1 -5 V
1 -5 V
1 -5 V
1 -5 V
1 -5 V
1 -5 V
1 -5 V
1 -5 V
1 -5 V
1 -5 V
1 -5 V
1 -5 V
1 -5 V
1 -4 V
1 -5 V
1 -5 V
1 -5 V
1 -5 V
1 -4 V
1 -5 V
1 -5 V
1 -4 V
1 -5 V
1 -5 V
1 -4 V
1 -5 V
1 -4 V
1 -5 V
2 -4 V
1 -5 V
1 -4 V
1 -5 V
1 -4 V
1 -4 V
1 -5 V
1 -4 V
1 -5 V
1 -4 V
1 -4 V
1 -4 V
stroke 1360 3338 M
1 -5 V
1 -4 V
1 -4 V
1 -4 V
1 -5 V
1 -4 V
1 -4 V
1 -4 V
1 -4 V
1 -4 V
1 -4 V
1 -4 V
1 -4 V
1 -4 V
1 -4 V
1 -4 V
1 -4 V
1 -4 V
1 -4 V
1 -4 V
1 -4 V
1 -4 V
1 -4 V
1 -3 V
1 -4 V
1 -4 V
1 -4 V
1 -4 V
1 -3 V
1 -4 V
1 -4 V
1 -3 V
1 -4 V
1 -4 V
1 -3 V
1 -4 V
1 -4 V
1 -3 V
1 -4 V
2 -3 V
1 -4 V
1 -4 V
1 -3 V
1 -4 V
1 -3 V
1 -3 V
1 -4 V
1 -3 V
1 -4 V
1 -3 V
1 -4 V
1 -3 V
1 -3 V
1 -4 V
1 -3 V
1 -3 V
1 -4 V
1 -3 V
1 -3 V
1 -3 V
1 -4 V
1 -3 V
1 -3 V
1 -3 V
1 -4 V
1 -3 V
1 -3 V
1 -3 V
1 -3 V
1 -3 V
1 -3 V
1 -3 V
1 -4 V
1 -3 V
1 -3 V
1 -3 V
1 -3 V
1 -3 V
1 -3 V
1 -3 V
1 -3 V
1 -3 V
1 -3 V
1 -2 V
1 -3 V
1 -3 V
1 -3 V
1 -3 V
1 -3 V
2 -3 V
1 -3 V
1 -2 V
1 -3 V
1 -3 V
1 -3 V
1 -3 V
1 -2 V
1 -3 V
1 -3 V
1 -3 V
1 -2 V
1 -3 V
1 -3 V
1 -2 V
stroke 1466 2984 M
1 -3 V
1 -3 V
1 -2 V
1 -3 V
1 -3 V
1 -2 V
1 -3 V
1 -2 V
1 -3 V
1 -3 V
1 -2 V
1 -3 V
1 -2 V
1 -3 V
1 -2 V
1 -3 V
1 -2 V
1 -3 V
1 -2 V
1 -3 V
1 -2 V
1 -3 V
1 -2 V
1 -2 V
1 -3 V
1 -2 V
1 -3 V
1 -2 V
1 -2 V
1 -3 V
1 -2 V
1 -2 V
1 -3 V
1 -2 V
1 -2 V
2 -3 V
1 -2 V
1 -2 V
1 -2 V
1 -3 V
1 -2 V
1 -2 V
1 -2 V
1 -3 V
1 -2 V
1 -2 V
1 -2 V
1 -2 V
1 -3 V
1 -2 V
1 -2 V
1 -2 V
1 -2 V
1 -2 V
1 -2 V
1 -3 V
1 -2 V
1 -2 V
1 -2 V
1 -2 V
1 -2 V
1 -2 V
1 -2 V
1 -2 V
1 -2 V
1 -2 V
1 -2 V
1 -2 V
1 -2 V
1 -2 V
1 -2 V
1 -2 V
1 -2 V
1 -2 V
1 -2 V
1 -2 V
1 -2 V
1 -2 V
1 -2 V
1 -1 V
1 -2 V
1 -2 V
1 -2 V
1 -2 V
1 -2 V
1 -2 V
2 -2 V
1 -1 V
1 -2 V
1 -2 V
1 -2 V
1 -2 V
1 -1 V
1 -2 V
1 -2 V
1 -2 V
1 -2 V
1 -1 V
1 -2 V
1 -2 V
1 -2 V
1 -1 V
1 -2 V
1 -2 V
stroke 1572 2759 M
1 -1 V
1 -2 V
1 -2 V
1 -1 V
1 -2 V
1 -2 V
1 -1 V
1 -2 V
1 -2 V
1 -1 V
1 -2 V
1 -2 V
1 -1 V
1 -2 V
1 -2 V
1 -1 V
1 -2 V
1 -1 V
1 -2 V
1 -1 V
1 -2 V
1 -2 V
1 -1 V
1 -2 V
1 -1 V
1 -2 V
1 -1 V
1 -2 V
1 -1 V
1 -2 V
1 -1 V
1 -2 V
2 -1 V
1 -2 V
1 -1 V
1 -2 V
1 -1 V
1 -2 V
1 -1 V
1 -2 V
1 -1 V
1 -1 V
1 -2 V
1 -1 V
1 -2 V
1 -1 V
1 -2 V
1 -1 V
1 -1 V
1 -2 V
1 -1 V
1 -2 V
1 -1 V
1 -1 V
1 -2 V
1 -1 V
1 -1 V
1 -2 V
1 -1 V
1 -1 V
1 -2 V
1 -1 V
1 -1 V
1 -2 V
1 -1 V
1 -1 V
1 -1 V
1 -2 V
1 -1 V
1 -1 V
1 -2 V
1 -1 V
1 -1 V
1 -1 V
1 -2 V
1 -1 V
1 -1 V
1 -1 V
1 -1 V
1 -2 V
1 -1 V
1 -1 V
1 -1 V
2 -2 V
1 -1 V
1 -1 V
1 -1 V
1 -1 V
1 -1 V
1 -2 V
1 -1 V
1 -1 V
1 -1 V
1 -1 V
1 -1 V
1 -1 V
1 -2 V
1 -1 V
1 -1 V
1 -1 V
1 -1 V
1 -1 V
1 -1 V
1 -1 V
stroke 1678 2616 M
1 -2 V
1 -1 V
1 -1 V
1 -1 V
1 -1 V
1 -1 V
1 -1 V
1 -1 V
1 -1 V
1 -1 V
1 -1 V
1 -1 V
1 -1 V
1 -1 V
1 -1 V
1 -1 V
1 -1 V
1 -1 V
1 -1 V
1 -1 V
1 -1 V
1 -1 V
1 -1 V
1 -1 V
1 -1 V
1 -1 V
1 -1 V
1 -1 V
1 -1 V
2 -1 V
1 -1 V
1 -1 V
1 -1 V
1 -1 V
1 -1 V
1 -1 V
1 -1 V
1 -1 V
1 -1 V
1 -1 V
1 -1 V
1 -1 V
1 0 V
1 -1 V
1 -1 V
1 -1 V
1 -1 V
1 -1 V
1 -1 V
1 -1 V
1 -1 V
1 0 V
1 -1 V
1 -1 V
1 -1 V
1 -1 V
1 -1 V
1 -1 V
1 0 V
1 -1 V
1 -1 V
1 -1 V
1 -1 V
1 -1 V
1 0 V
1 -1 V
1 -1 V
1 -1 V
1 -1 V
1 -1 V
1 0 V
1 -1 V
1 -1 V
1 -1 V
1 -1 V
1 0 V
1 -1 V
1 -1 V
1 -1 V
1 0 V
2 -1 V
1 -1 V
1 -1 V
1 -1 V
1 0 V
1 -1 V
1 -1 V
1 -1 V
1 0 V
1 -1 V
1 -1 V
1 0 V
1 -1 V
1 -1 V
1 -1 V
1 0 V
1 -1 V
1 -1 V
3 -2 V
4 -3 V
4 -2 V
3 -2 V
4 -3 V
3 -2 V
stroke 1799 2514 M
4 -2 V
3 -2 V
4 -3 V
4 -2 V
3 -2 V
4 -2 V
3 -2 V
4 -2 V
3 -2 V
4 -2 V
4 -2 V
3 -2 V
4 -1 V
3 -2 V
4 -2 V
3 -2 V
4 -1 V
4 -2 V
3 -2 V
4 -1 V
3 -2 V
4 -2 V
3 -1 V
4 -2 V
4 -1 V
3 -2 V
4 -1 V
3 -1 V
4 -2 V
3 -1 V
4 -1 V
3 -2 V
4 -1 V
4 -1 V
3 -2 V
4 -1 V
3 -1 V
4 -1 V
3 -1 V
4 -1 V
4 -1 V
3 -2 V
4 -1 V
3 -1 V
4 -1 V
3 -1 V
4 -1 V
4 -1 V
3 0 V
4 -1 V
3 -1 V
4 -1 V
3 -1 V
4 -1 V
4 -1 V
3 0 V
4 -1 V
3 -1 V
4 -1 V
3 0 V
4 -1 V
4 -1 V
3 0 V
4 -1 V
3 -1 V
4 0 V
3 -1 V
4 -1 V
4 0 V
3 -1 V
4 0 V
3 -1 V
4 0 V
3 -1 V
4 0 V
4 -1 V
3 0 V
4 -1 V
3 0 V
4 0 V
3 -1 V
4 0 V
4 -1 V
3 0 V
4 0 V
3 -1 V
4 0 V
3 0 V
4 -1 V
4 0 V
3 0 V
4 0 V
3 -1 V
4 0 V
3 0 V
4 0 V
4 0 V
3 -1 V
4 0 V
3 0 V
4 0 V
3 0 V
4 0 V
3 -1 V
stroke 2170 2413 M
4 0 V
4 0 V
3 0 V
4 0 V
3 0 V
4 0 V
3 0 V
4 0 V
4 0 V
3 0 V
4 0 V
3 0 V
4 0 V
3 0 V
4 0 V
4 0 V
3 0 V
4 0 V
3 0 V
4 0 V
3 0 V
4 0 V
4 0 V
3 0 V
4 0 V
3 0 V
4 1 V
3 0 V
4 0 V
4 0 V
3 0 V
4 0 V
3 0 V
4 1 V
3 0 V
4 0 V
4 0 V
3 0 V
4 0 V
3 1 V
4 0 V
3 0 V
4 0 V
4 0 V
3 1 V
4 0 V
3 0 V
4 0 V
3 1 V
4 0 V
4 0 V
3 1 V
4 0 V
3 0 V
4 0 V
3 1 V
4 0 V
4 0 V
3 1 V
4 0 V
3 0 V
4 0 V
3 1 V
4 0 V
4 0 V
3 1 V
4 0 V
3 1 V
4 0 V
3 0 V
4 1 V
3 0 V
4 0 V
4 1 V
3 0 V
4 0 V
3 1 V
4 0 V
3 1 V
4 0 V
4 0 V
3 1 V
4 0 V
3 1 V
4 0 V
3 1 V
4 0 V
4 0 V
3 1 V
4 0 V
3 1 V
4 0 V
3 1 V
4 0 V
4 0 V
3 1 V
4 0 V
3 1 V
4 0 V
3 1 V
4 0 V
4 1 V
3 0 V
4 1 V
stroke 2542 2439 M
3 0 V
4 1 V
3 0 V
4 1 V
4 0 V
3 1 V
4 0 V
3 1 V
4 0 V
3 1 V
4 0 V
4 1 V
3 0 V
4 1 V
3 0 V
4 1 V
3 0 V
4 1 V
4 0 V
3 1 V
4 0 V
3 1 V
4 0 V
3 1 V
4 0 V
4 1 V
3 0 V
4 1 V
3 0 V
4 1 V
3 0 V
4 1 V
3 1 V
4 0 V
4 1 V
3 0 V
4 1 V
3 0 V
4 1 V
3 0 V
4 1 V
4 1 V
3 0 V
4 1 V
3 0 V
4 1 V
3 0 V
4 1 V
4 0 V
3 1 V
4 1 V
3 0 V
4 1 V
3 0 V
4 1 V
4 0 V
3 1 V
4 1 V
3 0 V
4 1 V
3 0 V
4 1 V
4 1 V
3 0 V
4 1 V
3 0 V
4 1 V
3 0 V
4 1 V
4 1 V
3 0 V
4 1 V
3 0 V
4 1 V
3 1 V
4 0 V
4 1 V
3 0 V
4 1 V
3 0 V
4 1 V
3 1 V
4 0 V
4 1 V
3 0 V
4 1 V
3 1 V
4 0 V
3 1 V
4 0 V
4 1 V
3 1 V
4 0 V
3 1 V
4 0 V
3 1 V
4 1 V
4 0 V
3 1 V
4 0 V
3 1 V
4 1 V
3 0 V
4 1 V
stroke 2913 2497 M
3 0 V
4 1 V
4 1 V
3 0 V
4 1 V
3 0 V
4 1 V
3 1 V
4 0 V
4 1 V
3 0 V
4 1 V
3 1 V
4 0 V
3 1 V
4 0 V
4 1 V
3 1 V
4 0 V
3 1 V
4 0 V
3 1 V
4 1 V
4 0 V
3 1 V
4 0 V
3 1 V
4 1 V
3 0 V
4 1 V
4 0 V
3 1 V
4 0 V
3 1 V
4 1 V
3 0 V
4 1 V
4 0 V
3 1 V
4 1 V
3 0 V
4 1 V
3 0 V
4 1 V
4 1 V
3 0 V
4 1 V
3 0 V
4 1 V
3 1 V
4 0 V
4 1 V
3 0 V
4 1 V
3 0 V
4 1 V
3 1 V
4 0 V
4 1 V
3 0 V
4 1 V
3 1 V
4 0 V
3 1 V
4 0 V
4 1 V
3 0 V
4 1 V
3 1 V
4 0 V
3 1 V
4 0 V
3 1 V
4 1 V
4 0 V
3 1 V
4 0 V
3 1 V
4 0 V
3 1 V
4 1 V
4 0 V
3 1 V
4 0 V
3 1 V
4 0 V
3 1 V
4 0 V
4 1 V
3 1 V
4 0 V
3 1 V
4 0 V
3 1 V
4 0 V
4 1 V
3 1 V
4 0 V
3 1 V
4 0 V
3 1 V
4 0 V
4 1 V
3 0 V
stroke 3284 2557 M
4 1 V
3 1 V
4 0 V
3 1 V
4 0 V
4 1 V
3 0 V
4 1 V
3 0 V
4 1 V
3 0 V
4 1 V
4 1 V
3 0 V
4 1 V
3 0 V
4 1 V
3 0 V
4 1 V
4 0 V
3 1 V
4 0 V
3 1 V
4 0 V
3 1 V
4 1 V
4 0 V
3 1 V
4 0 V
3 1 V
4 0 V
3 1 V
4 0 V
4 1 V
3 0 V
4 1 V
3 0 V
4 1 V
3 0 V
4 1 V
3 0 V
4 1 V
4 0 V
3 1 V
4 0 V
3 1 V
4 0 V
3 1 V
4 0 V
4 1 V
3 0 V
4 1 V
3 0 V
4 1 V
3 0 V
4 1 V
4 0 V
3 1 V
4 0 V
3 1 V
4 0 V
3 1 V
4 0 V
4 1 V
3 0 V
4 1 V
3 0 V
4 1 V
3 0 V
4 1 V
4 0 V
3 1 V
4 0 V
3 1 V
4 0 V
3 1 V
4 0 V
4 1 V
3 0 V
4 1 V
3 0 V
4 1 V
3 0 V
4 1 V
4 0 V
3 1 V
4 0 V
3 0 V
4 1 V
3 0 V
4 1 V
4 0 V
3 1 V
4 0 V
3 1 V
4 0 V
3 1 V
4 0 V
4 1 V
3 0 V
4 0 V
3 1 V
4 0 V
3 1 V
stroke 3655 2610 M
4 0 V
4 1 V
3 0 V
4 1 V
3 0 V
4 0 V
3 1 V
4 0 V
3 1 V
4 0 V
4 1 V
3 0 V
4 1 V
3 0 V
4 0 V
3 1 V
4 0 V
4 1 V
3 0 V
4 1 V
3 0 V
4 0 V
3 1 V
4 0 V
4 1 V
3 0 V
4 1 V
3 0 V
4 0 V
3 1 V
4 0 V
4 1 V
3 0 V
4 0 V
3 1 V
4 0 V
3 1 V
4 0 V
4 0 V
3 1 V
4 0 V
3 1 V
4 0 V
3 0 V
4 1 V
4 0 V
3 1 V
4 0 V
3 0 V
4 1 V
3 0 V
4 1 V
4 0 V
3 0 V
4 1 V
3 0 V
4 1 V
3 0 V
4 0 V
4 1 V
3 0 V
4 1 V
3 0 V
4 0 V
3 1 V
4 0 V
4 0 V
3 1 V
4 0 V
3 1 V
4 0 V
3 0 V
4 1 V
4 0 V
3 0 V
4 1 V
3 0 V
4 0 V
3 1 V
4 0 V
3 1 V
4 0 V
4 0 V
3 1 V
4 0 V
3 0 V
4 1 V
3 0 V
4 0 V
4 1 V
3 0 V
4 0 V
3 1 V
4 0 V
3 0 V
4 1 V
4 0 V
3 1 V
4 0 V
3 0 V
4 1 V
3 0 V
4 0 V
4 1 V
stroke 4027 2651 M
3 0 V
4 0 V
3 1 V
4 0 V
3 0 V
4 1 V
4 0 V
3 0 V
4 0 V
3 1 V
4 0 V
3 0 V
4 1 V
4 0 V
3 0 V
4 1 V
3 0 V
4 0 V
3 1 V
4 0 V
4 0 V
3 1 V
4 0 V
3 0 V
4 1 V
3 0 V
4 0 V
4 0 V
3 1 V
4 0 V
3 0 V
4 1 V
3 0 V
4 0 V
4 1 V
3 0 V
4 0 V
3 0 V
4 1 V
3 0 V
4 0 V
4 1 V
3 0 V
4 0 V
3 1 V
4 0 V
3 0 V
4 0 V
3 1 V
4 0 V
4 0 V
3 1 V
4 0 V
3 0 V
4 0 V
3 1 V
4 0 V
4 0 V
3 0 V
4 1 V
3 0 V
4 0 V
3 1 V
4 0 V
4 0 V
3 0 V
4 1 V
3 0 V
4 0 V
3 0 V
4 1 V
4 0 V
3 0 V
4 0 V
3 1 V
4 0 V
3 0 V
4 0 V
4 1 V
3 0 V
4 0 V
3 0 V
4 1 V
3 0 V
4 0 V
4 0 V
3 1 V
4 0 V
3 0 V
4 0 V
3 1 V
4 0 V
4 0 V
3 0 V
4 1 V
3 0 V
4 0 V
3 0 V
4 1 V
4 0 V
3 0 V
4 0 V
3 1 V
4 0 V
stroke 4398 2680 M
3 0 V
4 0 V
4 0 V
3 1 V
4 0 V
3 0 V
4 0 V
3 1 V
4 0 V
3 0 V
4 0 V
4 1 V
3 0 V
4 0 V
3 0 V
4 0 V
3 1 V
4 0 V
4 0 V
3 0 V
4 0 V
3 1 V
4 0 V
3 0 V
4 0 V
4 1 V
3 0 V
4 0 V
3 0 V
4 0 V
3 1 V
4 0 V
4 0 V
3 0 V
4 0 V
3 1 V
4 0 V
3 0 V
4 0 V
4 0 V
3 1 V
4 0 V
3 0 V
4 0 V
3 0 V
4 1 V
4 0 V
3 0 V
4 0 V
3 0 V
4 0 V
3 1 V
4 0 V
4 0 V
3 0 V
4 0 V
3 1 V
4 0 V
3 0 V
4 0 V
4 0 V
3 0 V
4 1 V
3 0 V
4 0 V
3 0 V
4 0 V
4 1 V
3 0 V
4 0 V
3 0 V
4 0 V
3 0 V
4 1 V
4 0 V
3 0 V
4 0 V
3 0 V
4 0 V
3 1 V
4 0 V
3 0 V
4 0 V
4 0 V
3 0 V
4 1 V
3 0 V
4 0 V
3 0 V
4 0 V
4 0 V
3 1 V
4 0 V
3 0 V
4 0 V
3 0 V
4 0 V
4 1 V
3 0 V
4 0 V
3 0 V
4 0 V
3 0 V
4 0 V
stroke 4769 2699 M
4 1 V
3 0 V
4 0 V
3 0 V
4 0 V
3 0 V
4 0 V
4 1 V
3 0 V
4 0 V
3 0 V
4 0 V
3 0 V
4 0 V
4 1 V
3 0 V
4 0 V
3 0 V
4 0 V
3 0 V
4 0 V
4 1 V
3 0 V
4 0 V
3 0 V
4 0 V
3 0 V
4 0 V
4 1 V
3 0 V
4 0 V
3 0 V
4 0 V
3 0 V
4 0 V
4 0 V
3 1 V
4 0 V
3 0 V
4 0 V
3 0 V
4 0 V
4 0 V
3 0 V
4 1 V
3 0 V
4 0 V
3 0 V
4 0 V
3 0 V
4 0 V
4 0 V
3 1 V
4 0 V
3 0 V
4 0 V
3 0 V
4 0 V
4 0 V
3 0 V
4 0 V
3 1 V
4 0 V
3 0 V
4 0 V
4 0 V
3 0 V
4 0 V
3 0 V
4 0 V
3 1 V
4 0 V
4 0 V
3 0 V
4 0 V
3 0 V
4 0 V
3 0 V
4 0 V
4 0 V
3 1 V
4 0 V
3 0 V
4 0 V
3 0 V
4 0 V
4 0 V
3 0 V
4 0 V
3 1 V
4 0 V
3 0 V
4 0 V
4 0 V
3 0 V
4 0 V
3 0 V
4 0 V
3 0 V
4 0 V
4 1 V
3 0 V
4 0 V
3 0 V
stroke 5140 2712 M
4 0 V
3 0 V
4 0 V
4 0 V
3 0 V
4 0 V
3 0 V
4 1 V
3 0 V
4 0 V
4 0 V
3 0 V
4 0 V
3 0 V
4 0 V
3 0 V
4 0 V
3 0 V
4 1 V
4 0 V
3 0 V
4 0 V
3 0 V
4 0 V
3 0 V
4 0 V
4 0 V
3 0 V
4 0 V
3 0 V
4 1 V
3 0 V
4 0 V
4 0 V
3 0 V
4 0 V
3 0 V
4 0 V
3 0 V
4 0 V
4 0 V
3 0 V
4 0 V
3 1 V
4 0 V
3 0 V
4 0 V
4 0 V
3 0 V
4 0 V
3 0 V
4 0 V
3 0 V
4 0 V
4 0 V
3 0 V
4 0 V
3 1 V
4 0 V
3 0 V
4 0 V
4 0 V
3 0 V
4 0 V
3 0 V
4 0 V
3 0 V
4 0 V
4 0 V
3 0 V
4 0 V
3 0 V
4 1 V
3 0 V
4 0 V
4 0 V
3 0 V
4 0 V
3 0 V
4 0 V
3 0 V
4 0 V
4 0 V
3 0 V
4 0 V
3 0 V
4 0 V
3 0 V
4 1 V
3 0 V
4 0 V
4 0 V
3 0 V
4 0 V
3 0 V
4 0 V
3 0 V
4 0 V
4 0 V
3 0 V
4 0 V
3 0 V
4 0 V
3 0 V
stroke 5511 2719 M
4 0 V
4 0 V
3 1 V
4 0 V
3 0 V
4 0 V
3 0 V
4 0 V
4 0 V
3 0 V
4 0 V
3 0 V
4 0 V
3 0 V
4 0 V
4 0 V
3 0 V
4 0 V
3 0 V
4 0 V
3 0 V
4 1 V
4 0 V
3 0 V
4 0 V
3 0 V
4 0 V
3 0 V
4 0 V
4 0 V
3 0 V
4 0 V
3 0 V
4 0 V
3 0 V
4 0 V
4 0 V
3 0 V
4 0 V
3 0 V
4 0 V
3 0 V
4 1 V
4 0 V
3 0 V
4 0 V
3 0 V
4 0 V
3 0 V
4 0 V
4 0 V
3 0 V
4 0 V
3 0 V
4 0 V
3 0 V
4 0 V
3 0 V
4 0 V
4 0 V
3 0 V
4 0 V
3 0 V
4 0 V
3 0 V
4 0 V
4 0 V
3 1 V
4 0 V
3 0 V
4 0 V
3 0 V
4 0 V
4 0 V
3 0 V
4 0 V
3 0 V
4 0 V
3 0 V
4 0 V
4 0 V
3 0 V
4 0 V
3 0 V
4 0 V
3 0 V
4 0 V
4 0 V
3 0 V
4 0 V
3 0 V
4 0 V
3 0 V
4 0 V
4 1 V
3 0 V
4 0 V
3 0 V
4 0 V
3 0 V
4 0 V
4 0 V
3 0 V
4 0 V
stroke 5883 2724 M
3 0 V
4 0 V
3 0 V
4 0 V
4 0 V
3 0 V
4 0 V
3 0 V
4 0 V
3 0 V
4 0 V
4 0 V
3 0 V
4 0 V
3 0 V
4 0 V
3 0 V
4 0 V
4 0 V
3 0 V
4 0 V
3 0 V
4 0 V
3 1 V
4 0 V
3 0 V
4 0 V
4 0 V
3 0 V
4 0 V
3 0 V
4 0 V
3 0 V
4 0 V
4 0 V
3 0 V
4 0 V
3 0 V
4 0 V
3 0 V
4 0 V
4 0 V
3 0 V
4 0 V
3 0 V
4 0 V
3 0 V
4 0 V
4 0 V
3 0 V
4 0 V
3 0 V
4 0 V
3 0 V
4 0 V
4 0 V
3 0 V
4 0 V
3 0 V
4 0 V
3 0 V
4 0 V
4 0 V
3 1 V
4 0 V
3 0 V
4 0 V
3 0 V
4 0 V
4 0 V
3 0 V
4 0 V
3 0 V
4 0 V
3 0 V
4 0 V
4 0 V
3 0 V
4 0 V
3 0 V
4 0 V
3 0 V
4 0 V
4 0 V
3 0 V
4 0 V
3 0 V
4 0 V
3 0 V
4 0 V
3 0 V
4 0 V
4 0 V
3 0 V
4 0 V
3 0 V
4 0 V
3 0 V
4 0 V
4 0 V
3 0 V
4 0 V
3 0 V
4 0 V
stroke 6254 2726 M
3 0 V
4 0 V
4 0 V
3 0 V
4 0 V
3 0 V
4 0 V
3 0 V
4 0 V
4 1 V
3 0 V
4 0 V
3 0 V
4 0 V
3 0 V
4 0 V
4 0 V
3 0 V
4 0 V
3 0 V
4 0 V
3 0 V
4 0 V
4 0 V
3 0 V
4 0 V
3 0 V
4 0 V
3 0 V
4 0 V
4 0 V
3 0 V
4 0 V
3 0 V
4 0 V
3 0 V
4 0 V
4 0 V
3 0 V
4 0 V
3 0 V
4 0 V
3 0 V
4 0 V
4 0 V
3 0 V
4 0 V
3 0 V
4 0 V
3 0 V
4 0 V
4 0 V
3 0 V
4 0 V
3 0 V
4 0 V
3 0 V
4 0 V
3 0 V
4 0 V
4 0 V
3 0 V
4 0 V
3 0 V
4 0 V
3 0 V
4 0 V
4 0 V
3 0 V
4 0 V
3 0 V
4 0 V
3 0 V
4 0 V
4 0 V
3 0 V
4 0 V
3 0 V
4 0 V
3 0 V
4 0 V
4 1 V
3 0 V
4 0 V
3 0 V
4 0 V
3 0 V
4 0 V
4 0 V
3 0 V
4 0 V
3 0 V
4 0 V
3 0 V
4 0 V
4 0 V
3 0 V
4 0 V
3 0 V
4 0 V
3 0 V
4 0 V
4 0 V
3 0 V
stroke 6625 2728 M
4 0 V
3 0 V
4 0 V
3 0 V
4 0 V
4 0 V
3 0 V
4 0 V
3 0 V
4 0 V
3 0 V
4 0 V
4 0 V
3 0 V
4 0 V
3 0 V
4 0 V
3 0 V
4 0 V
4 0 V
3 0 V
4 0 V
3 0 V
4 0 V
3 0 V
4 0 V
3 0 V
4 0 V
4 0 V
3 0 V
4 0 V
3 0 V
4 0 V
3 0 V
4 0 V
4 0 V
3 0 V
4 0 V
3 0 V
4 0 V
3 0 V
4 0 V
4 0 V
3 0 V
4 0 V
3 0 V
4 0 V
3 0 V
4 0 V
4 0 V
3 0 V
4 0 V
3 0 V
4 0 V
3 0 V
4 0 V
4 0 V
3 0 V
4 0 V
3 0 V
4 0 V
3 0 V
4 0 V
4 0 V
3 0 V
4 0 V
3 0 V
4 0 V
3 0 V
4 0 V
1 0 V
% End plot #1
% Begin plot #2
stroke
LTb
0.58 0.00 0.83 C LCb setrgbcolor
6225 4598 M
[ [(Helvetica) 140.0 0.0 true true 0 (QMT EDABI 1s)]
] -46.7 MRshow
0.500 UL
LTb
0.58 0.00 0.83 C 6309 4598 M
399 0 V
1150 4871 M
2 -19 V
2 -24 V
2 -25 V
2 -24 V
2 -23 V
2 -23 V
2 -24 V
2 -22 V
2 -23 V
2 -22 V
2 -22 V
2 -22 V
2 -21 V
2 -22 V
2 -21 V
2 -20 V
2 -21 V
2 -20 V
2 -20 V
2 -20 V
2 -20 V
2 -19 V
2 -20 V
3 -19 V
2 -18 V
2 -19 V
2 -18 V
2 -19 V
2 -18 V
2 -17 V
2 -18 V
2 -17 V
2 -18 V
2 -17 V
2 -16 V
2 -17 V
2 -17 V
2 -16 V
2 -16 V
2 -16 V
2 -16 V
2 -15 V
2 -16 V
2 -15 V
2 -15 V
2 -15 V
2 -15 V
2 -15 V
2 -14 V
2 -15 V
2 -14 V
2 -14 V
3 -14 V
2 -14 V
2 -14 V
2 -13 V
2 -14 V
2 -13 V
2 -13 V
2 -13 V
2 -13 V
2 -13 V
2 -12 V
2 -13 V
2 -12 V
2 -12 V
2 -12 V
2 -12 V
2 -12 V
2 -12 V
2 -12 V
2 -11 V
2 -12 V
2 -11 V
2 -11 V
2 -11 V
2 -11 V
2 -11 V
2 -11 V
2 -11 V
2 -10 V
3 -11 V
2 -10 V
2 -10 V
2 -10 V
2 -11 V
2 -10 V
2 -9 V
2 -10 V
2 -10 V
2 -10 V
2 -9 V
2 -9 V
2 -10 V
2 -9 V
2 -9 V
2 -9 V
2 -9 V
2 -9 V
2 -9 V
2 -9 V
2 -8 V
stroke 1357 3346 M
2 -9 V
2 -9 V
2 -8 V
2 -8 V
2 -9 V
2 -8 V
2 -8 V
2 -8 V
3 -8 V
2 -8 V
2 -8 V
2 -7 V
2 -8 V
2 -8 V
2 -7 V
2 -8 V
2 -7 V
2 -8 V
2 -7 V
2 -7 V
2 -7 V
2 -7 V
2 -7 V
2 -7 V
2 -7 V
2 -7 V
2 -7 V
2 -7 V
2 -6 V
2 -7 V
2 -6 V
2 -7 V
2 -6 V
2 -7 V
2 -6 V
2 -6 V
3 -6 V
2 -7 V
2 -6 V
2 -6 V
2 -6 V
2 -6 V
2 -5 V
2 -6 V
2 -6 V
2 -6 V
2 -5 V
2 -6 V
2 -6 V
2 -5 V
2 -6 V
2 -5 V
2 -5 V
2 -6 V
2 -5 V
2 -5 V
2 -6 V
2 -5 V
2 -5 V
2 -5 V
2 -5 V
2 -5 V
2 -5 V
2 -5 V
2 -5 V
3 99 V
2 -108 V
2 -5 V
2 -5 V
2 -4 V
2 -5 V
2 -4 V
2 -5 V
2 -4 V
2 -5 V
2 -4 V
2 -5 V
2 -4 V
2 -4 V
2 -5 V
2 -4 V
2 -4 V
2 -4 V
2 -4 V
2 -4 V
2 -4 V
2 -4 V
2 -4 V
2 -4 V
2 -4 V
2 -4 V
2 -4 V
2 -4 V
2 -4 V
3 -3 V
2 -4 V
2 -4 V
2 -3 V
2 -4 V
2 -4 V
2 -3 V
2 -4 V
2 -3 V
2 -4 V
stroke 1569 2761 M
2 -3 V
2 -4 V
2 -3 V
2 -3 V
2 -4 V
2 -3 V
2 -3 V
2 -3 V
2 -4 V
2 -3 V
2 -3 V
2 -3 V
2 -3 V
2 -3 V
2 -3 V
2 -3 V
2 -3 V
2 -3 V
2 -3 V
3 -3 V
2 -3 V
2 -3 V
2 -3 V
2 -3 V
2 -3 V
2 -2 V
2 -3 V
2 -3 V
2 -3 V
2 -2 V
2 -3 V
2 -3 V
2 -2 V
2 -3 V
2 -2 V
2 -3 V
2 -2 V
2 -3 V
2 -2 V
2 -3 V
2 -2 V
2 -3 V
2 -2 V
2 -3 V
2 -2 V
2 -2 V
2 -3 V
2 -2 V
3 -2 V
2 -3 V
2 -2 V
2 -2 V
2 -2 V
2 -2 V
2 -3 V
2 -2 V
2 -2 V
2 -2 V
2 -2 V
2 -2 V
2 -2 V
2 -2 V
2 -2 V
2 -2 V
2 -2 V
2 -2 V
2 -2 V
2 -2 V
2 -2 V
2 -2 V
2 -2 V
2 -2 V
2 -2 V
2 -1 V
2 -2 V
2 -2 V
2 -2 V
3 -2 V
2 -1 V
2 -2 V
2 -2 V
2 -1 V
2 -2 V
2 -2 V
2 -2 V
2 -1 V
2 -2 V
2 -1 V
2 -2 V
2 -2 V
2 -1 V
2 -2 V
2 -1 V
2 -2 V
2 -1 V
2 -2 V
2 -1 V
2 -2 V
2 -1 V
2 -2 V
2 -1 V
2 -2 V
2 -1 V
2 -1 V
stroke 1780 2524 M
2 -2 V
2 -1 V
3 -2 V
2 -1 V
2 -1 V
2 -2 V
2 -1 V
2 -1 V
2 -2 V
2 -1 V
2 -1 V
2 -1 V
2 -2 V
2 -1 V
2 -1 V
2 -1 V
2 -1 V
2 -2 V
2 -1 V
2 -1 V
2 -1 V
2 -1 V
2 -1 V
2 -2 V
2 -1 V
2 -1 V
2 -1 V
2 -1 V
2 -1 V
2 -1 V
2 -1 V
3 -1 V
2 -1 V
2 -1 V
2 -1 V
2 -1 V
2 -1 V
2 -1 V
2 -1 V
2 -1 V
2 -1 V
2 -1 V
2 -1 V
2 -1 V
2 -1 V
2 -1 V
2 0 V
2 -1 V
2 -1 V
2 -1 V
2 -1 V
2 -1 V
2 -1 V
2 0 V
2 -1 V
2 -1 V
2 -1 V
2 -1 V
2 0 V
2 -1 V
3 -1 V
2 -1 V
2 0 V
2 -1 V
2 -1 V
2 -1 V
2 0 V
2 -1 V
2 -1 V
2 -1 V
2 0 V
2 -1 V
2 -1 V
2 0 V
2 -1 V
2 -1 V
2 0 V
2 -1 V
2 0 V
2 -1 V
2 -1 V
2 0 V
2 -1 V
2 0 V
2 -1 V
2 -1 V
2 0 V
2 -1 V
2 0 V
3 -1 V
2 0 V
2 -1 V
2 -1 V
2 0 V
2 -1 V
2 0 V
2 -1 V
2 0 V
2 -1 V
2 0 V
2 -1 V
2 0 V
2 0 V
2 -1 V
stroke 1992 2433 M
2 0 V
2 -1 V
2 0 V
2 -1 V
2 0 V
2 -1 V
2 0 V
2 0 V
2 -1 V
2 0 V
2 -1 V
2 0 V
2 0 V
2 -1 V
3 0 V
2 -1 V
2 0 V
2 0 V
2 -1 V
2 0 V
2 0 V
2 -1 V
2 0 V
2 0 V
2 -1 V
2 0 V
2 0 V
2 -1 V
2 0 V
2 0 V
2 0 V
2 -1 V
2 0 V
2 0 V
2 -1 V
2 0 V
2 0 V
2 0 V
2 -1 V
2 0 V
2 0 V
4 -1 V
3 0 V
2 0 V
2 0 V
2 -1 V
2 0 V
2 0 V
2 0 V
2 0 V
2 -1 V
2 0 V
2 0 V
2 0 V
2 0 V
2 0 V
2 -1 V
2 0 V
2 0 V
2 0 V
2 0 V
2 0 V
2 -1 V
2 0 V
2 0 V
2 0 V
2 0 V
2 0 V
2 0 V
2 0 V
2 -1 V
3 0 V
2 0 V
2 0 V
2 0 V
2 0 V
2 0 V
2 0 V
2 0 V
2 0 V
2 -1 V
2 0 V
2 0 V
2 0 V
2 0 V
2 0 V
2 0 V
2 0 V
2 0 V
2 0 V
2 0 V
2 0 V
2 0 V
2 0 V
2 0 V
2 0 V
2 0 V
2 0 V
2 0 V
2 0 V
3 0 V
2 0 V
2 0 V
2 0 V
stroke 2206 2412 M
2 0 V
2 0 V
2 0 V
2 0 V
2 0 V
2 0 V
2 0 V
2 0 V
2 0 V
2 0 V
2 0 V
2 0 V
2 0 V
2 0 V
2 0 V
2 0 V
2 0 V
2 0 V
2 0 V
2 0 V
2 0 V
2 0 V
2 0 V
2 0 V
3 0 V
2 0 V
2 0 V
2 0 V
2 1 V
2 0 V
2 0 V
2 0 V
2 0 V
2 0 V
2 0 V
2 0 V
2 0 V
2 0 V
2 0 V
2 1 V
2 0 V
2 0 V
2 0 V
2 0 V
2 0 V
2 0 V
2 0 V
2 0 V
2 0 V
2 1 V
2 0 V
2 0 V
2 0 V
2 0 V
3 0 V
2 0 V
2 1 V
2 0 V
2 0 V
2 0 V
2 0 V
2 0 V
2 0 V
2 0 V
2 1 V
2 0 V
2 0 V
2 0 V
2 0 V
2 0 V
2 1 V
2 0 V
2 0 V
2 0 V
2 0 V
2 0 V
2 1 V
2 0 V
2 0 V
2 0 V
2 0 V
2 0 V
3 1 V
2 0 V
2 0 V
2 0 V
2 0 V
2 1 V
2 0 V
2 0 V
2 0 V
2 0 V
2 1 V
2 0 V
2 0 V
2 0 V
2 0 V
2 1 V
2 0 V
2 0 V
2 0 V
2 0 V
2 1 V
2 0 V
stroke 2417 2424 M
2 0 V
2 0 V
2 0 V
2 1 V
2 0 V
2 0 V
2 0 V
3 1 V
2 0 V
2 0 V
2 0 V
2 0 V
2 1 V
2 0 V
2 0 V
2 0 V
2 1 V
2 0 V
2 0 V
2 0 V
2 1 V
2 0 V
2 0 V
2 0 V
2 1 V
2 0 V
2 0 V
2 0 V
2 1 V
2 0 V
2 0 V
2 0 V
2 1 V
2 0 V
2 0 V
2 0 V
3 1 V
2 0 V
2 0 V
2 0 V
2 1 V
2 0 V
2 0 V
2 0 V
2 1 V
2 0 V
2 0 V
2 0 V
2 1 V
2 0 V
2 0 V
2 1 V
2 0 V
2 0 V
2 0 V
2 1 V
2 0 V
2 0 V
2 1 V
2 0 V
2 0 V
2 0 V
2 1 V
2 0 V
2 0 V
3 1 V
2 0 V
2 0 V
2 0 V
2 1 V
2 0 V
2 0 V
2 1 V
2 0 V
2 0 V
2 0 V
2 1 V
2 0 V
2 0 V
2 1 V
2 0 V
2 0 V
2 0 V
2 1 V
2 0 V
2 0 V
2 1 V
2 0 V
2 0 V
2 1 V
2 0 V
2 0 V
2 1 V
2 0 V
3 0 V
2 0 V
2 1 V
2 0 V
2 0 V
2 1 V
2 0 V
2 0 V
2 1 V
2 0 V
stroke 2629 2452 M
2 0 V
2 1 V
2 0 V
2 0 V
2 1 V
2 0 V
2 0 V
2 0 V
2 1 V
2 0 V
2 0 V
2 1 V
2 0 V
2 0 V
2 1 V
2 0 V
2 0 V
2 1 V
2 0 V
3 0 V
2 1 V
2 0 V
2 0 V
2 1 V
2 0 V
2 0 V
2 1 V
2 1 V
2 -1 V
2 1 V
2 0 V
2 0 V
2 1 V
2 0 V
2 0 V
2 1 V
2 0 V
2 0 V
2 1 V
2 0 V
2 0 V
2 1 V
2 0 V
2 0 V
2 1 V
2 0 V
2 0 V
2 1 V
3 0 V
2 0 V
2 1 V
2 0 V
2 0 V
2 1 V
2 0 V
2 0 V
2 1 V
2 0 V
2 0 V
2 1 V
2 0 V
2 0 V
2 1 V
2 0 V
2 0 V
2 1 V
2 0 V
2 0 V
2 1 V
2 0 V
2 0 V
2 1 V
2 0 V
2 0 V
2 1 V
2 0 V
2 0 V
3 1 V
2 0 V
2 0 V
2 1 V
2 0 V
2 0 V
2 1 V
2 0 V
2 0 V
2 1 V
2 0 V
2 1 V
2 0 V
2 0 V
2 1 V
2 0 V
2 0 V
2 1 V
2 0 V
2 0 V
2 1 V
2 0 V
2 0 V
2 1 V
2 0 V
2 0 V
2 1 V
stroke 2840 2487 M
2 0 V
2 0 V
3 1 V
2 0 V
2 0 V
2 1 V
2 0 V
2 0 V
2 1 V
2 0 V
2 1 V
2 0 V
2 0 V
2 1 V
2 0 V
2 0 V
2 1 V
2 0 V
2 0 V
2 1 V
2 0 V
2 0 V
2 1 V
2 0 V
2 0 V
2 1 V
2 0 V
2 0 V
2 1 V
2 0 V
2 1 V
3 0 V
2 0 V
2 1 V
2 0 V
2 0 V
2 1 V
2 0 V
2 0 V
2 1 V
2 0 V
2 0 V
2 1 V
2 0 V
2 0 V
2 1 V
2 0 V
2 0 V
2 1 V
2 0 V
2 1 V
2 0 V
2 0 V
2 1 V
2 0 V
2 0 V
2 1 V
2 0 V
2 0 V
2 1 V
3 0 V
2 0 V
2 1 V
2 0 V
2 0 V
2 1 V
2 0 V
2 0 V
2 1 V
2 0 V
2 1 V
2 0 V
2 0 V
2 1 V
2 0 V
2 0 V
2 1 V
2 0 V
2 0 V
2 1 V
2 0 V
2 0 V
2 1 V
2 0 V
2 0 V
2 1 V
2 0 V
2 0 V
2 1 V
3 0 V
2 1 V
2 0 V
2 0 V
2 1 V
2 0 V
2 0 V
2 1 V
2 0 V
2 0 V
2 1 V
2 0 V
2 0 V
2 1 V
2 0 V
stroke 3052 2523 M
2 0 V
2 1 V
2 0 V
2 0 V
2 1 V
2 0 V
2 0 V
2 1 V
2 0 V
2 0 V
2 1 V
2 0 V
2 1 V
2 0 V
3 0 V
2 1 V
2 0 V
2 0 V
2 1 V
2 0 V
2 0 V
2 1 V
2 0 V
2 0 V
2 1 V
2 0 V
2 0 V
2 1 V
2 0 V
2 0 V
2 1 V
2 0 V
2 0 V
2 1 V
2 0 V
2 0 V
2 1 V
2 0 V
2 0 V
2 1 V
2 0 V
2 0 V
3 1 V
2 0 V
2 0 V
2 1 V
2 0 V
2 0 V
2 1 V
2 0 V
2 1 V
2 0 V
2 0 V
2 1 V
2 0 V
2 0 V
2 1 V
2 0 V
2 0 V
2 1 V
2 0 V
2 0 V
2 1 V
2 0 V
2 0 V
2 1 V
2 0 V
2 0 V
2 1 V
2 0 V
2 0 V
3 1 V
2 0 V
2 0 V
2 1 V
2 0 V
2 0 V
2 1 V
2 0 V
2 0 V
2 1 V
2 0 V
2 0 V
2 1 V
2 0 V
2 0 V
2 1 V
2 0 V
2 0 V
2 1 V
2 0 V
2 0 V
2 0 V
2 1 V
2 0 V
2 0 V
2 1 V
2 0 V
2 0 V
2 1 V
3 0 V
2 0 V
2 1 V
2 0 V
stroke 3264 2558 M
2 0 V
2 1 V
2 0 V
2 0 V
2 1 V
2 0 V
2 0 V
2 1 V
2 0 V
2 0 V
2 1 V
2 0 V
2 0 V
2 1 V
2 0 V
2 0 V
2 1 V
2 0 V
2 0 V
2 1 V
2 0 V
2 0 V
2 0 V
2 1 V
2 0 V
3 0 V
2 1 V
2 0 V
2 0 V
2 1 V
2 0 V
2 0 V
2 1 V
2 0 V
2 0 V
2 1 V
2 0 V
2 0 V
2 1 V
2 0 V
2 0 V
2 0 V
2 1 V
2 0 V
2 0 V
2 1 V
2 0 V
2 0 V
2 1 V
2 0 V
2 0 V
2 1 V
2 0 V
2 0 V
3 0 V
2 1 V
2 0 V
2 0 V
2 1 V
2 0 V
2 0 V
2 1 V
2 0 V
2 0 V
2 1 V
2 0 V
2 0 V
2 0 V
2 1 V
2 0 V
2 0 V
2 1 V
2 0 V
2 0 V
2 1 V
2 0 V
2 0 V
2 1 V
2 0 V
2 0 V
2 0 V
2 1 V
2 0 V
3 0 V
2 1 V
2 0 V
2 0 V
2 1 V
2 0 V
2 0 V
2 0 V
2 1 V
2 0 V
2 0 V
2 1 V
2 0 V
2 0 V
2 0 V
2 1 V
2 0 V
2 0 V
2 1 V
2 0 V
2 0 V
stroke 3475 2590 M
2 1 V
2 0 V
2 0 V
2 0 V
2 1 V
2 0 V
2 0 V
2 1 V
3 0 V
2 0 V
2 0 V
2 1 V
2 0 V
2 0 V
2 1 V
2 0 V
2 0 V
2 0 V
2 1 V
2 0 V
2 0 V
2 1 V
2 0 V
2 0 V
2 0 V
2 1 V
2 0 V
2 0 V
2 1 V
2 0 V
2 0 V
2 0 V
2 1 V
2 0 V
2 0 V
2 0 V
2 1 V
3 0 V
2 0 V
2 1 V
2 0 V
2 0 V
2 0 V
2 1 V
2 0 V
2 0 V
2 1 V
2 0 V
2 0 V
2 0 V
2 1 V
2 0 V
2 0 V
2 0 V
2 1 V
2 0 V
2 0 V
2 1 V
2 0 V
2 0 V
2 0 V
2 1 V
2 0 V
2 0 V
2 0 V
2 1 V
3 0 V
2 0 V
2 1 V
2 0 V
2 0 V
2 0 V
2 1 V
2 0 V
2 0 V
2 0 V
2 1 V
2 0 V
2 0 V
2 0 V
2 1 V
2 0 V
2 0 V
2 0 V
2 1 V
2 0 V
2 0 V
2 1 V
2 0 V
2 0 V
2 0 V
2 1 V
2 0 V
2 0 V
2 0 V
3 1 V
2 0 V
2 0 V
2 0 V
2 1 V
2 0 V
2 0 V
2 0 V
2 1 V
stroke 3687 2619 M
2 0 V
2 0 V
2 0 V
2 1 V
2 0 V
2 0 V
2 0 V
2 1 V
2 0 V
2 0 V
2 0 V
2 1 V
2 0 V
2 0 V
2 0 V
2 1 V
2 0 V
2 0 V
2 0 V
2 1 V
3 0 V
2 0 V
2 0 V
2 1 V
2 0 V
2 0 V
2 0 V
2 1 V
2 0 V
2 0 V
2 0 V
2 1 V
2 0 V
2 0 V
2 0 V
2 1 V
2 0 V
2 0 V
2 0 V
2 0 V
2 1 V
2 0 V
2 0 V
2 0 V
2 1 V
2 0 V
2 0 V
2 0 V
2 1 V
3 0 V
2 0 V
2 0 V
2 1 V
2 0 V
2 0 V
2 0 V
2 0 V
2 1 V
2 0 V
2 0 V
2 0 V
2 1 V
2 0 V
2 0 V
2 0 V
2 1 V
2 0 V
2 0 V
2 0 V
2 0 V
2 1 V
2 0 V
2 0 V
2 0 V
2 1 V
2 0 V
2 0 V
2 0 V
3 1 V
2 0 V
2 0 V
2 0 V
2 0 V
2 1 V
2 0 V
2 0 V
2 0 V
2 1 V
2 0 V
2 0 V
2 0 V
2 0 V
2 1 V
2 0 V
2 0 V
2 0 V
2 0 V
2 1 V
2 0 V
2 0 V
2 0 V
2 1 V
2 0 V
2 0 V
stroke 3898 2643 M
2 0 V
2 0 V
3 1 V
2 0 V
2 0 V
2 0 V
2 0 V
2 1 V
2 0 V
2 0 V
2 0 V
2 1 V
2 0 V
2 0 V
2 0 V
2 0 V
2 1 V
2 0 V
2 0 V
2 0 V
2 0 V
2 1 V
2 0 V
2 0 V
2 0 V
2 0 V
2 1 V
2 0 V
2 0 V
2 0 V
2 0 V
2 1 V
3 0 V
2 0 V
2 0 V
2 0 V
2 1 V
2 0 V
2 0 V
2 0 V
2 0 V
2 1 V
2 0 V
2 0 V
2 0 V
2 0 V
2 1 V
2 0 V
2 0 V
2 0 V
2 0 V
2 1 V
2 0 V
2 0 V
2 0 V
2 0 V
2 1 V
2 0 V
2 0 V
2 0 V
3 0 V
2 1 V
2 0 V
2 0 V
2 0 V
2 0 V
2 1 V
2 0 V
2 0 V
2 0 V
2 0 V
2 0 V
2 1 V
2 0 V
2 0 V
2 0 V
2 0 V
2 1 V
2 0 V
2 0 V
2 0 V
2 0 V
2 1 V
2 0 V
2 0 V
2 0 V
2 0 V
2 0 V
2 1 V
3 0 V
2 0 V
2 0 V
2 0 V
2 1 V
2 0 V
2 0 V
2 0 V
2 0 V
2 0 V
2 1 V
2 0 V
2 0 V
2 0 V
2 0 V
stroke 4110 2663 M
2 0 V
2 1 V
2 0 V
2 0 V
2 0 V
2 0 V
2 1 V
2 0 V
2 0 V
2 0 V
2 0 V
2 0 V
2 1 V
2 0 V
3 0 V
2 0 V
2 0 V
2 0 V
2 1 V
2 0 V
2 0 V
2 0 V
2 0 V
2 0 V
2 1 V
2 0 V
2 0 V
2 0 V
2 0 V
2 0 V
2 1 V
2 0 V
2 0 V
2 0 V
2 0 V
2 0 V
2 1 V
2 0 V
2 0 V
2 0 V
2 0 V
2 0 V
2 1 V
3 0 V
2 0 V
2 0 V
2 0 V
2 0 V
2 1 V
2 0 V
2 0 V
2 0 V
2 0 V
2 0 V
2 0 V
2 1 V
2 0 V
2 0 V
2 0 V
2 0 V
2 0 V
2 1 V
2 0 V
2 0 V
2 0 V
2 0 V
2 0 V
2 0 V
2 1 V
2 0 V
2 0 V
2 0 V
3 0 V
2 0 V
2 1 V
2 0 V
2 0 V
2 0 V
2 0 V
2 0 V
2 0 V
2 1 V
2 0 V
2 0 V
2 0 V
2 0 V
2 0 V
2 0 V
2 1 V
2 0 V
2 0 V
2 0 V
2 0 V
2 0 V
2 1 V
2 0 V
2 0 V
2 0 V
2 0 V
2 0 V
2 0 V
3 1 V
2 0 V
2 0 V
stroke 4322 2680 M
2 0 V
2 0 V
2 0 V
2 0 V
2 1 V
2 0 V
2 0 V
2 0 V
2 0 V
2 0 V
2 0 V
2 0 V
2 1 V
2 0 V
2 0 V
2 0 V
2 0 V
2 0 V
2 0 V
2 1 V
2 0 V
2 0 V
2 0 V
2 0 V
2 0 V
2 0 V
3 1 V
2 0 V
2 0 V
2 0 V
2 0 V
2 0 V
2 0 V
2 0 V
2 1 V
2 0 V
2 0 V
2 0 V
2 0 V
2 0 V
2 0 V
2 0 V
2 1 V
2 0 V
2 0 V
2 0 V
2 0 V
2 0 V
2 0 V
2 0 V
2 1 V
2 0 V
2 0 V
2 0 V
2 0 V
3 0 V
2 0 V
2 0 V
2 1 V
2 0 V
2 0 V
2 0 V
2 0 V
2 0 V
2 0 V
2 0 V
2 1 V
2 0 V
2 0 V
2 0 V
2 0 V
2 0 V
2 0 V
2 0 V
2 1 V
2 0 V
2 0 V
2 0 V
2 0 V
2 0 V
2 0 V
2 0 V
2 0 V
2 1 V
3 0 V
2 0 V
2 0 V
2 0 V
2 0 V
2 0 V
2 0 V
2 1 V
2 0 V
2 0 V
2 0 V
2 0 V
2 0 V
2 0 V
2 0 V
2 0 V
2 1 V
2 0 V
2 0 V
2 0 V
stroke 4533 2693 M
2 0 V
2 0 V
2 0 V
2 0 V
2 0 V
2 1 V
2 0 V
2 0 V
2 0 V
3 0 V
2 0 V
2 0 V
2 0 V
2 0 V
2 1 V
2 0 V
2 0 V
2 0 V
2 0 V
2 0 V
2 0 V
2 0 V
2 0 V
2 0 V
2 1 V
2 0 V
2 0 V
2 0 V
2 0 V
2 0 V
2 0 V
2 0 V
2 0 V
2 1 V
2 0 V
2 0 V
2 0 V
2 0 V
3 0 V
2 0 V
2 0 V
2 0 V
2 0 V
2 1 V
2 0 V
2 0 V
2 0 V
2 0 V
2 0 V
2 0 V
2 0 V
2 0 V
2 0 V
2 1 V
2 0 V
2 0 V
2 0 V
2 0 V
2 0 V
2 0 V
2 0 V
2 0 V
2 0 V
2 0 V
2 1 V
2 0 V
2 0 V
3 0 V
2 0 V
2 0 V
2 0 V
2 0 V
2 0 V
2 0 V
2 0 V
2 1 V
2 0 V
2 0 V
2 0 V
2 0 V
2 0 V
2 0 V
2 0 V
2 0 V
2 0 V
2 0 V
2 1 V
2 0 V
2 0 V
2 0 V
2 0 V
2 0 V
2 0 V
2 0 V
2 0 V
2 0 V
3 0 V
2 1 V
2 0 V
2 0 V
2 0 V
2 0 V
2 0 V
2 0 V
stroke 4745 2703 M
2 0 V
2 0 V
2 0 V
2 0 V
2 0 V
2 1 V
2 0 V
2 0 V
2 0 V
2 0 V
2 0 V
2 0 V
2 0 V
2 0 V
2 0 V
2 0 V
2 0 V
2 1 V
2 0 V
2 0 V
3 0 V
2 0 V
2 0 V
2 0 V
2 0 V
2 0 V
2 0 V
2 0 V
2 0 V
2 1 V
2 0 V
2 0 V
2 0 V
2 0 V
2 0 V
2 0 V
2 0 V
2 0 V
2 0 V
2 0 V
2 0 V
2 0 V
2 1 V
2 0 V
2 0 V
% End plot #2
% Begin plot #3
stroke
LTb
1.00 0.00 0.00 C LCb setrgbcolor
6225 4458 M
[ [(Helvetica) 140.0 0.0 true true 0 (QMT EDABI 2s)]
] -46.7 MRshow
0.500 UL
LTb
1.00 0.00 0.00 C 6309 4458 M
399 0 V
1149 4871 M
16 -203 V
51 -495 V
51 -376 V
51 -292 V
51 -227 V
51 -182 V
51 -145 V
51 -117 V
51 -94 V
51 -75 V
51 -61 V
51 -50 V
51 -39 V
25 -17 V
26 -15 V
25 -13 V
26 -11 V
25 -10 V
26 -9 V
25 -7 V
26 -7 V
25 -5 V
26 -5 V
25 -4 V
26 -3 V
25 -2 V
26 -2 V
25 -1 V
26 0 V
25 -1 V
26 1 V
25 1 V
26 1 V
25 1 V
26 2 V
25 2 V
26 3 V
25 2 V
26 3 V
25 3 V
26 3 V
25 4 V
26 3 V
25 4 V
26 4 V
25 3 V
26 4 V
25 4 V
26 5 V
25 4 V
26 4 V
25 4 V
26 5 V
51 8 V
51 9 V
51 9 V
51 9 V
51 9 V
51 8 V
51 9 V
51 8 V
51 9 V
51 8 V
51 8 V
51 8 V
51 7 V
51 7 V
51 8 V
51 6 V
51 7 V
51 7 V
51 6 V
51 6 V
50 5 V
51 6 V
51 5 V
51 5 V
51 5 V
51 5 V
51 4 V
51 4 V
51 4 V
51 4 V
51 3 V
51 4 V
51 3 V
51 3 V
51 3 V
51 2 V
51 3 V
51 2 V
51 2 V
51 2 V
51 2 V
51 2 V
51 2 V
51 1 V
51 2 V
51 1 V
51 2 V
51 1 V
51 1 V
stroke 5295 2717 M
51 1 V
51 1 V
51 1 V
51 1 V
51 1 V
51 0 V
51 1 V
51 1 V
51 0 V
51 1 V
51 0 V
51 1 V
51 0 V
51 1 V
51 0 V
51 0 V
51 1 V
51 0 V
51 0 V
51 0 V
51 1 V
51 0 V
51 0 V
51 0 V
51 0 V
51 1 V
51 0 V
51 0 V
51 0 V
51 0 V
51 0 V
% End plot #3
% Begin plot #4
1.000 UP
stroke
1.000 UL
LTb
0.00 0.62 0.45 C LCb setrgbcolor
6225 4318 M
[ [(Helvetica) 140.0 0.0 true true 0 (QMT VMC 1s)]
] -46.7 MRshow
1.000 UP
1.000 UL
LTb
0.00 0.62 0.45 C 1174 4600 Crs
1276 3768 Crs
1378 3265 Crs
1479 2948 Crs
1581 2743 Crs
1683 2610 Crs
1784 2523 Crs
1886 2469 Crs
1988 2436 Crs
2090 2420 Crs
2191 2414 Crs
2293 2416 Crs
2395 2424 Crs
2497 2435 Crs
2598 2449 Crs
2700 2465 Crs
2802 2482 Crs
2903 2499 Crs
3005 2517 Crs
3107 2534 Crs
3209 2550 Crs
3310 2566 Crs
3412 2581 Crs
3514 2595 Crs
3616 2609 Crs
3717 2621 Crs
3819 2632 Crs
3921 2642 Crs
4023 2652 Crs
4124 2660 Crs
4226 2668 Crs
4328 2674 Crs
4429 2680 Crs
4531 2685 Crs
4633 2690 Crs
4735 2694 Crs
6508 4318 Crs
% End plot #4
% Begin plot #5
1.000 UP
1.000 UL
LTb
0.00 0.00 0.00 C LCb setrgbcolor
6225 4178 M
[ [(Helvetica) 140.0 0.0 true true 0 (QMT EDABI 1s2s2p)]
[(Helvetica) 112.0 -42.0 true true 0 (x)]
] -32.7 MRshow
1.000 UP
1.000 UL
LTb
0.00 0.00 0.00 C 1199 4309 TriU
1267 3783 TriU
1335 3409 TriU
1403 3137 TriU
1471 2936 TriU
1539 2787 TriU
1607 2675 TriU
1675 2591 TriU
1743 2527 TriU
1811 2480 TriU
1845 2462 TriU
1879 2446 TriU
1913 2433 TriU
1947 2423 TriU
1981 2414 TriU
2015 2407 TriU
2049 2402 TriU
2083 2398 TriU
2117 2395 TriU
2151 2393 TriU
2185 2392 TriU
2219 2393 TriU
2253 2393 TriU
2287 2395 TriU
2321 2397 TriU
2355 2400 TriU
2389 2403 TriU
2423 2407 TriU
2457 2411 TriU
2491 2416 TriU
2525 2420 TriU
2559 2425 TriU
2593 2430 TriU
2627 2436 TriU
2661 2441 TriU
2695 2447 TriU
2729 2453 TriU
2763 2459 TriU
2797 2464 TriU
2831 2470 TriU
2899 2483 TriU
2967 2495 TriU
3035 2507 TriU
3103 2519 TriU
3171 2530 TriU
3239 2542 TriU
3307 2553 TriU
3375 2564 TriU
3443 2574 TriU
3511 2584 TriU
3579 2594 TriU
3647 2604 TriU
3715 2612 TriU
3783 2621 TriU
3850 2629 TriU
3918 2636 TriU
3986 2644 TriU
4054 2650 TriU
4122 2657 TriU
4190 2663 TriU
4258 2668 TriU
4326 2673 TriU
4394 2678 TriU
4462 2683 TriU
4530 2687 TriU
4598 2691 TriU
4666 2694 TriU
4734 2698 TriU
4802 2701 TriU
4870 2703 TriU
6508 4178 TriU
% End plot #5
% Begin plot #6
1.000 UP
1.000 UL
LTb
0.58 0.00 0.83 C LCb setrgbcolor
6225 4038 M
[ [(Helvetica) 140.0 0.0 true true 0 (QMT 2s VMC)]
] -46.7 MRshow
1.000 UP
1.000 UL
LTb
0.58 0.00 0.83 C 1471 1055 Circle
2083 898 Circle
2695 1218 Circle
3307 1525 Circle
3918 1770 Circle
1573 921 Circle
4530 1957 Circle
2185 945 Circle
5142 2098 Circle
6508 4038 Circle
% End plot #6
2.000 UL
LTb
LCb setrgbcolor
1.000 UL
LTB
LCb setrgbcolor
757 4871 N
757 588 L
6119 0 V
0 4283 V
-6119 0 V
Z stroke
1.000 UP
1.000 UL
LTb
LCb setrgbcolor
stroke
grestore
end
showpage
%%Trailer
%%DocumentFonts: Helvetica
