hamiltonian_file_name
ham_h2o.dat
hamiltonian_file_name_end



wfs_definitions
defs.dat
wfs_definitions_end



megacell
megacell.dat
megacell_end


supercell
supercell.dat
supercell_end


#Number of orbitals taken into account - must be coherent with wfs_definitions
problem_size
7
problem_size_end

#Number of alphas  - must be coherent with wfs_definitions
alphas_number
4
alphas_number_end

electron_number
10
electron_number_end

mode_definition
aperiodic
mode_definition_end

geometry_file_name
geometry.dat
geometry_file_name_end
